; GCODE Generated by cam.openbuilds.com on 2021-03-08 
G21 ; mm-mode
G54; Work Coordinates
G21; mm-mode
G90; Absolute Positioning
M3 S1000; Spindle On

; Operation 0: Drill: Continuous (Centered)
; Endmill Diameter: 6

G0 Z10; move to z-safe height
G0 F1000 X228.4539 Y57.7080

G0 Z0
G1 F100 Z0.0000
G1 F750 X228.4539 Y57.7080 Z-1.5000 S1000
G1 F750 X228.4539 Y57.7080 Z0.0000 S1000

G0 Z10; move to z-safe height
G0 X6.5461 Y57.7080

G0 Z0
G1 F100 Z0.0000
G1 F750 X6.5461 Y57.7080 Z-1.5000 S1000
G1 F750 X6.5461 Y57.7080 Z0.0000 S1000

G0 Z10; move to z-safe height
G0 X6.5461 Y93.2915

G0 Z0
G1 F100 Z0.0000
G1 F750 X6.5461 Y93.2915 Z-1.5000 S1000
G1 F750 X6.5461 Y93.2915 Z0.0000 S1000

G0 Z10; move to z-safe height
G0 X228.4539 Y93.2915

G0 Z0
G1 F100 Z0.0000
G1 F750 X228.4539 Y93.2915 Z-1.5000 S1000
G1 F750 X228.4539 Y93.2915 Z0.0000 S1000
; retracting back to z-safe
G0 Z10
; Operation 1: CNC: Vector (path outside)
; Endmill Diameter: 6

G0 Z10; move to z-safe height
G0 F1000 X2.9998 Y-3.0001

G0 Z0
G1 F100 Z-2.5000
G1 F750 X2.6099 Y-2.9862 Z-2.5000 S1000
G1 F750 X2.0936 Y-2.9305 Z-2.5000 S1000
G1 F750 X1.5799 Y-2.8296 Z-2.5000 S1000
G1 F750 X1.0757 Y-2.6837 Z-2.5000 S1000
G1 F750 X0.5860 Y-2.4940 Z-2.5000 S1000
G1 F750 X0.1147 Y-2.2621 Z-2.5000 S1000
G1 F750 X-0.3343 Y-1.9898 Z-2.5000 S1000
G1 F750 X-0.7568 Y-1.6800 Z-2.5000 S1000
G1 F750 X-1.1505 Y-1.3346 Z-2.5000 S1000
G1 F750 X-1.5124 Y-0.9565 Z-2.5000 S1000
G1 F750 X-1.8400 Y-0.5481 Z-2.5000 S1000
G1 F750 X-2.1311 Y-0.1121 Z-2.5000 S1000
G1 F750 X-2.3833 Y0.3484 Z-2.5000 S1000
G1 F750 X-2.5939 Y0.8284 Z-2.5000 S1000
G1 F750 X-2.7621 Y1.3264 Z-2.5000 S1000
G1 F750 X-2.8857 Y1.8362 Z-2.5000 S1000
G1 F750 X-2.9641 Y2.3537 Z-2.5000 S1000
G1 F750 X-2.9973 Y2.8732 Z-2.5000 S1000
G1 F750 X-3.0000 Y148.0002 Z-2.5000 S1000
G1 F750 X-2.9862 Y148.3890 Z-2.5000 S1000
G1 F750 X-2.9305 Y148.9064 Z-2.5000 S1000
G1 F750 X-2.8296 Y149.4200 Z-2.5000 S1000
G1 F750 X-2.6837 Y149.9242 Z-2.5000 S1000
G1 F750 X-2.4942 Y150.4136 Z-2.5000 S1000
G1 F750 X-2.2624 Y150.8848 Z-2.5000 S1000
G1 F750 X-1.9905 Y151.3333 Z-2.5000 S1000
G1 F750 X-1.6806 Y151.7562 Z-2.5000 S1000
G1 F750 X-1.3343 Y152.1510 Z-2.5000 S1000
G1 F750 X-0.9580 Y152.5113 Z-2.5000 S1000
G1 F750 X-0.5484 Y152.8400 Z-2.5000 S1000
G1 F750 X-0.1124 Y153.1311 Z-2.5000 S1000
G1 F750 X0.3475 Y153.3831 Z-2.5000 S1000
G1 F750 X0.8285 Y153.5941 Z-2.5000 S1000
G1 F750 X1.3257 Y153.7620 Z-2.5000 S1000
G1 F750 X1.8358 Y153.8857 Z-2.5000 S1000
G1 F750 X2.3533 Y153.9641 Z-2.5000 S1000
G1 F750 X2.8726 Y153.9973 Z-2.5000 S1000
G1 F750 X94.9999 Y154.0000 Z-2.5000 S1000
G1 F750 X95.5499 Y153.9491 Z-2.5000 S1000
G1 F750 X96.2107 Y153.7448 Z-2.5000 S1000
G1 F750 X96.8071 Y153.3946 Z-2.5000 S1000
G1 F750 X97.3075 Y152.9170 Z-2.5000 S1000
G1 F750 X97.6852 Y152.3376 Z-2.5000 S1000
G1 F750 X97.9202 Y151.6871 Z-2.5000 S1000
G1 F750 X97.9999 Y151.0000 Z-2.5000 S1000
G1 F750 X97.9999 Y148.9094 Z-2.5000 S1000
G1 F750 X137.0002 Y148.9094 Z-2.5000 S1000
G1 F750 X137.0002 Y151.0000 Z-2.5000 S1000
G1 F750 X137.0511 Y151.5500 Z-2.5000 S1000
G1 F750 X137.2554 Y152.2108 Z-2.5000 S1000
G1 F750 X137.6056 Y152.8072 Z-2.5000 S1000
G1 F750 X138.0832 Y153.3076 Z-2.5000 S1000
G1 F750 X138.6626 Y153.6853 Z-2.5000 S1000
G1 F750 X139.3131 Y153.9203 Z-2.5000 S1000
G1 F750 X140.0002 Y154.0000 Z-2.5000 S1000
G1 F750 X231.9998 Y154.0000 Z-2.5000 S1000
G1 F750 X232.3886 Y153.9862 Z-2.5000 S1000
G1 F750 X232.9061 Y153.9305 Z-2.5000 S1000
G1 F750 X233.4197 Y153.8296 Z-2.5000 S1000
G1 F750 X233.9239 Y153.6837 Z-2.5000 S1000
G1 F750 X234.4133 Y153.4942 Z-2.5000 S1000
G1 F750 X234.8841 Y153.2626 Z-2.5000 S1000
G1 F750 X235.3331 Y152.9905 Z-2.5000 S1000
G1 F750 X235.7560 Y152.6806 Z-2.5000 S1000
G1 F750 X236.1497 Y152.3355 Z-2.5000 S1000
G1 F750 X236.5122 Y151.9568 Z-2.5000 S1000
G1 F750 X236.8390 Y151.5498 Z-2.5000 S1000
G1 F750 X237.1310 Y151.1125 Z-2.5000 S1000
G1 F750 X237.3829 Y150.6529 Z-2.5000 S1000
G1 F750 X237.5936 Y150.1730 Z-2.5000 S1000
G1 F750 X237.7621 Y149.6744 Z-2.5000 S1000
G1 F750 X237.8858 Y149.1643 Z-2.5000 S1000
G1 F750 X237.9642 Y148.6466 Z-2.5000 S1000
G1 F750 X237.9974 Y148.1274 Z-2.5000 S1000
G1 F750 X238.0001 Y3.0003 Z-2.5000 S1000
G1 F750 X237.9863 Y2.6115 Z-2.5000 S1000
G1 F750 X237.9304 Y2.0929 Z-2.5000 S1000
G1 F750 X237.8299 Y1.5814 Z-2.5000 S1000
G1 F750 X237.6838 Y1.0761 Z-2.5000 S1000
G1 F750 X237.4938 Y0.5857 Z-2.5000 S1000
G1 F750 X237.2621 Y0.1150 Z-2.5000 S1000
G1 F750 X236.9904 Y-0.3331 Z-2.5000 S1000
G1 F750 X236.6799 Y-0.7567 Z-2.5000 S1000
G1 F750 X236.3353 Y-1.1497 Z-2.5000 S1000
G1 F750 X235.9566 Y-1.5122 Z-2.5000 S1000
G1 F750 X235.5482 Y-1.8398 Z-2.5000 S1000
G1 F750 X235.1131 Y-2.1305 Z-2.5000 S1000
G1 F750 X234.6526 Y-2.3829 Z-2.5000 S1000
G1 F750 X234.1712 Y-2.5941 Z-2.5000 S1000
G1 F750 X233.6740 Y-2.7620 Z-2.5000 S1000
G1 F750 X233.1639 Y-2.8857 Z-2.5000 S1000
G1 F750 X232.6464 Y-2.9641 Z-2.5000 S1000
G1 F750 X232.1281 Y-2.9974 Z-2.5000 S1000
G1 F750 X2.9998 Y-3.0001 Z-2.5000 S1000
G1 F100 Z-5.0000
G1 F750 X2.6099 Y-2.9862 Z-5.0000 S1000
G1 F750 X2.0936 Y-2.9305 Z-5.0000 S1000
G1 F750 X1.5799 Y-2.8296 Z-5.0000 S1000
G1 F750 X1.0757 Y-2.6837 Z-5.0000 S1000
G1 F750 X0.5860 Y-2.4940 Z-5.0000 S1000
G1 F750 X0.1147 Y-2.2621 Z-5.0000 S1000
G1 F750 X-0.3343 Y-1.9898 Z-5.0000 S1000
G1 F750 X-0.7568 Y-1.6800 Z-5.0000 S1000
G1 F750 X-1.1505 Y-1.3346 Z-5.0000 S1000
G1 F750 X-1.5124 Y-0.9565 Z-5.0000 S1000
G1 F750 X-1.8400 Y-0.5481 Z-5.0000 S1000
G1 F750 X-2.1311 Y-0.1121 Z-5.0000 S1000
G1 F750 X-2.3833 Y0.3484 Z-5.0000 S1000
G1 F750 X-2.5939 Y0.8284 Z-5.0000 S1000
G1 F750 X-2.7621 Y1.3264 Z-5.0000 S1000
G1 F750 X-2.8857 Y1.8362 Z-5.0000 S1000
G1 F750 X-2.9641 Y2.3537 Z-5.0000 S1000
G1 F750 X-2.9973 Y2.8732 Z-5.0000 S1000
G1 F750 X-3.0000 Y148.0002 Z-5.0000 S1000
G1 F750 X-2.9862 Y148.3890 Z-5.0000 S1000
G1 F750 X-2.9305 Y148.9064 Z-5.0000 S1000
G1 F750 X-2.8296 Y149.4200 Z-5.0000 S1000
G1 F750 X-2.6837 Y149.9242 Z-5.0000 S1000
G1 F750 X-2.4942 Y150.4136 Z-5.0000 S1000
G1 F750 X-2.2624 Y150.8848 Z-5.0000 S1000
G1 F750 X-1.9905 Y151.3333 Z-5.0000 S1000
G1 F750 X-1.6806 Y151.7562 Z-5.0000 S1000
G1 F750 X-1.3343 Y152.1510 Z-5.0000 S1000
G1 F750 X-0.9580 Y152.5113 Z-5.0000 S1000
G1 F750 X-0.5484 Y152.8400 Z-5.0000 S1000
G1 F750 X-0.1124 Y153.1311 Z-5.0000 S1000
G1 F750 X0.3475 Y153.3831 Z-5.0000 S1000
G1 F750 X0.8285 Y153.5941 Z-5.0000 S1000
G1 F750 X1.3257 Y153.7620 Z-5.0000 S1000
G1 F750 X1.8358 Y153.8857 Z-5.0000 S1000
G1 F750 X2.3533 Y153.9641 Z-5.0000 S1000
G1 F750 X2.8726 Y153.9973 Z-5.0000 S1000
G1 F750 X94.9999 Y154.0000 Z-5.0000 S1000
G1 F750 X95.5499 Y153.9491 Z-5.0000 S1000
G1 F750 X96.2107 Y153.7448 Z-5.0000 S1000
G1 F750 X96.8071 Y153.3946 Z-5.0000 S1000
G1 F750 X97.3075 Y152.9170 Z-5.0000 S1000
G1 F750 X97.6852 Y152.3376 Z-5.0000 S1000
G1 F750 X97.9202 Y151.6871 Z-5.0000 S1000
G1 F750 X97.9999 Y151.0000 Z-5.0000 S1000
G1 F750 X97.9999 Y148.9094 Z-5.0000 S1000
G1 F750 X137.0002 Y148.9094 Z-5.0000 S1000
G1 F750 X137.0002 Y151.0000 Z-5.0000 S1000
G1 F750 X137.0511 Y151.5500 Z-5.0000 S1000
G1 F750 X137.2554 Y152.2108 Z-5.0000 S1000
G1 F750 X137.6056 Y152.8072 Z-5.0000 S1000
G1 F750 X138.0832 Y153.3076 Z-5.0000 S1000
G1 F750 X138.6626 Y153.6853 Z-5.0000 S1000
G1 F750 X139.3131 Y153.9203 Z-5.0000 S1000
G1 F750 X140.0002 Y154.0000 Z-5.0000 S1000
G1 F750 X231.9998 Y154.0000 Z-5.0000 S1000
G1 F750 X232.3886 Y153.9862 Z-5.0000 S1000
G1 F750 X232.9061 Y153.9305 Z-5.0000 S1000
G1 F750 X233.4197 Y153.8296 Z-5.0000 S1000
G1 F750 X233.9239 Y153.6837 Z-5.0000 S1000
G1 F750 X234.4133 Y153.4942 Z-5.0000 S1000
G1 F750 X234.8841 Y153.2626 Z-5.0000 S1000
G1 F750 X235.3331 Y152.9905 Z-5.0000 S1000
G1 F750 X235.7560 Y152.6806 Z-5.0000 S1000
G1 F750 X236.1497 Y152.3355 Z-5.0000 S1000
G1 F750 X236.5122 Y151.9568 Z-5.0000 S1000
G1 F750 X236.8390 Y151.5498 Z-5.0000 S1000
G1 F750 X237.1310 Y151.1125 Z-5.0000 S1000
G1 F750 X237.3829 Y150.6529 Z-5.0000 S1000
G1 F750 X237.5936 Y150.1730 Z-5.0000 S1000
G1 F750 X237.7621 Y149.6744 Z-5.0000 S1000
G1 F750 X237.8858 Y149.1643 Z-5.0000 S1000
G1 F750 X237.9642 Y148.6466 Z-5.0000 S1000
G1 F750 X237.9974 Y148.1274 Z-5.0000 S1000
G1 F750 X238.0001 Y3.0003 Z-5.0000 S1000
G1 F750 X237.9863 Y2.6115 Z-5.0000 S1000
G1 F750 X237.9304 Y2.0929 Z-5.0000 S1000
G1 F750 X237.8299 Y1.5814 Z-5.0000 S1000
G1 F750 X237.6838 Y1.0761 Z-5.0000 S1000
G1 F750 X237.4938 Y0.5857 Z-5.0000 S1000
G1 F750 X237.2621 Y0.1150 Z-5.0000 S1000
G1 F750 X236.9904 Y-0.3331 Z-5.0000 S1000
G1 F750 X236.6799 Y-0.7567 Z-5.0000 S1000
G1 F750 X236.3353 Y-1.1497 Z-5.0000 S1000
G1 F750 X235.9566 Y-1.5122 Z-5.0000 S1000
G1 F750 X235.5482 Y-1.8398 Z-5.0000 S1000
G1 F750 X235.1131 Y-2.1305 Z-5.0000 S1000
G1 F750 X234.6526 Y-2.3829 Z-5.0000 S1000
G1 F750 X234.1712 Y-2.5941 Z-5.0000 S1000
G1 F750 X233.6740 Y-2.7620 Z-5.0000 S1000
G1 F750 X233.1639 Y-2.8857 Z-5.0000 S1000
G1 F750 X232.6464 Y-2.9641 Z-5.0000 S1000
G1 F750 X232.1281 Y-2.9974 Z-5.0000 S1000
G1 F750 X2.9998 Y-3.0001 Z-5.0000 S1000
G1 F100 Z-7.5000
G1 F750 X2.6099 Y-2.9862 Z-7.5000 S1000
G1 F750 X2.0936 Y-2.9305 Z-7.5000 S1000
G1 F750 X1.5799 Y-2.8296 Z-7.5000 S1000
G1 F750 X1.0757 Y-2.6837 Z-7.5000 S1000
G1 F750 X0.5860 Y-2.4940 Z-7.5000 S1000
G1 F750 X0.1147 Y-2.2621 Z-7.5000 S1000
G1 F750 X-0.3343 Y-1.9898 Z-7.5000 S1000
G1 F750 X-0.7568 Y-1.6800 Z-7.5000 S1000
G1 F750 X-1.1505 Y-1.3346 Z-7.5000 S1000
G1 F750 X-1.5124 Y-0.9565 Z-7.5000 S1000
G1 F750 X-1.8400 Y-0.5481 Z-7.5000 S1000
G1 F750 X-2.1311 Y-0.1121 Z-7.5000 S1000
G1 F750 X-2.3833 Y0.3484 Z-7.5000 S1000
G1 F750 X-2.5939 Y0.8284 Z-7.5000 S1000
G1 F750 X-2.7621 Y1.3264 Z-7.5000 S1000
G1 F750 X-2.8857 Y1.8362 Z-7.5000 S1000
G1 F750 X-2.9641 Y2.3537 Z-7.5000 S1000
G1 F750 X-2.9973 Y2.8732 Z-7.5000 S1000
G1 F750 X-3.0000 Y148.0002 Z-7.5000 S1000
G1 F750 X-2.9862 Y148.3890 Z-7.5000 S1000
G1 F750 X-2.9305 Y148.9064 Z-7.5000 S1000
G1 F750 X-2.8296 Y149.4200 Z-7.5000 S1000
G1 F750 X-2.6837 Y149.9242 Z-7.5000 S1000
G1 F750 X-2.4942 Y150.4136 Z-7.5000 S1000
G1 F750 X-2.2624 Y150.8848 Z-7.5000 S1000
G1 F750 X-1.9905 Y151.3333 Z-7.5000 S1000
G1 F750 X-1.6806 Y151.7562 Z-7.5000 S1000
G1 F750 X-1.3343 Y152.1510 Z-7.5000 S1000
G1 F750 X-0.9580 Y152.5113 Z-7.5000 S1000
G1 F750 X-0.5484 Y152.8400 Z-7.5000 S1000
G1 F750 X-0.1124 Y153.1311 Z-7.5000 S1000
G1 F750 X0.3475 Y153.3831 Z-7.5000 S1000
G1 F750 X0.8285 Y153.5941 Z-7.5000 S1000
G1 F750 X1.3257 Y153.7620 Z-7.5000 S1000
G1 F750 X1.8358 Y153.8857 Z-7.5000 S1000
G1 F750 X2.3533 Y153.9641 Z-7.5000 S1000
G1 F750 X2.8726 Y153.9973 Z-7.5000 S1000
G1 F750 X94.9999 Y154.0000 Z-7.5000 S1000
G1 F750 X95.5499 Y153.9491 Z-7.5000 S1000
G1 F750 X96.2107 Y153.7448 Z-7.5000 S1000
G1 F750 X96.8071 Y153.3946 Z-7.5000 S1000
G1 F750 X97.3075 Y152.9170 Z-7.5000 S1000
G1 F750 X97.6852 Y152.3376 Z-7.5000 S1000
G1 F750 X97.9202 Y151.6871 Z-7.5000 S1000
G1 F750 X97.9999 Y151.0000 Z-7.5000 S1000
G1 F750 X97.9999 Y148.9094 Z-7.5000 S1000
G1 F750 X137.0002 Y148.9094 Z-7.5000 S1000
G1 F750 X137.0002 Y151.0000 Z-7.5000 S1000
G1 F750 X137.0511 Y151.5500 Z-7.5000 S1000
G1 F750 X137.2554 Y152.2108 Z-7.5000 S1000
G1 F750 X137.6056 Y152.8072 Z-7.5000 S1000
G1 F750 X138.0832 Y153.3076 Z-7.5000 S1000
G1 F750 X138.6626 Y153.6853 Z-7.5000 S1000
G1 F750 X139.3131 Y153.9203 Z-7.5000 S1000
G1 F750 X140.0002 Y154.0000 Z-7.5000 S1000
G1 F750 X231.9998 Y154.0000 Z-7.5000 S1000
G1 F750 X232.3886 Y153.9862 Z-7.5000 S1000
G1 F750 X232.9061 Y153.9305 Z-7.5000 S1000
G1 F750 X233.4197 Y153.8296 Z-7.5000 S1000
G1 F750 X233.9239 Y153.6837 Z-7.5000 S1000
G1 F750 X234.4133 Y153.4942 Z-7.5000 S1000
G1 F750 X234.8841 Y153.2626 Z-7.5000 S1000
G1 F750 X235.3331 Y152.9905 Z-7.5000 S1000
G1 F750 X235.7560 Y152.6806 Z-7.5000 S1000
G1 F750 X236.1497 Y152.3355 Z-7.5000 S1000
G1 F750 X236.5122 Y151.9568 Z-7.5000 S1000
G1 F750 X236.8390 Y151.5498 Z-7.5000 S1000
G1 F750 X237.1310 Y151.1125 Z-7.5000 S1000
G1 F750 X237.3829 Y150.6529 Z-7.5000 S1000
G1 F750 X237.5936 Y150.1730 Z-7.5000 S1000
G1 F750 X237.7621 Y149.6744 Z-7.5000 S1000
G1 F750 X237.8858 Y149.1643 Z-7.5000 S1000
G1 F750 X237.9642 Y148.6466 Z-7.5000 S1000
G1 F750 X237.9974 Y148.1274 Z-7.5000 S1000
G1 F750 X238.0001 Y3.0003 Z-7.5000 S1000
G1 F750 X237.9863 Y2.6115 Z-7.5000 S1000
G1 F750 X237.9304 Y2.0929 Z-7.5000 S1000
G1 F750 X237.8299 Y1.5814 Z-7.5000 S1000
G1 F750 X237.6838 Y1.0761 Z-7.5000 S1000
G1 F750 X237.4938 Y0.5857 Z-7.5000 S1000
G1 F750 X237.2621 Y0.1150 Z-7.5000 S1000
G1 F750 X236.9904 Y-0.3331 Z-7.5000 S1000
G1 F750 X236.6799 Y-0.7567 Z-7.5000 S1000
G1 F750 X236.3353 Y-1.1497 Z-7.5000 S1000
G1 F750 X235.9566 Y-1.5122 Z-7.5000 S1000
G1 F750 X235.5482 Y-1.8398 Z-7.5000 S1000
G1 F750 X235.1131 Y-2.1305 Z-7.5000 S1000
G1 F750 X234.6526 Y-2.3829 Z-7.5000 S1000
G1 F750 X234.1712 Y-2.5941 Z-7.5000 S1000
G1 F750 X233.6740 Y-2.7620 Z-7.5000 S1000
G1 F750 X233.1639 Y-2.8857 Z-7.5000 S1000
G1 F750 X232.6464 Y-2.9641 Z-7.5000 S1000
G1 F750 X232.1281 Y-2.9974 Z-7.5000 S1000
G1 F750 X2.9998 Y-3.0001 Z-7.5000 S1000
G1 F100 Z-9.0000
G1 F750 X2.6099 Y-2.9862 Z-9.0000 S1000
G1 F750 X2.0936 Y-2.9305 Z-9.0000 S1000
G1 F750 X1.5799 Y-2.8296 Z-9.0000 S1000
G1 F750 X1.0757 Y-2.6837 Z-9.0000 S1000
G1 F750 X0.5860 Y-2.4940 Z-9.0000 S1000
G1 F750 X0.1147 Y-2.2621 Z-9.0000 S1000
G1 F750 X-0.3343 Y-1.9898 Z-9.0000 S1000
G1 F750 X-0.7568 Y-1.6800 Z-9.0000 S1000
G1 F750 X-1.1505 Y-1.3346 Z-9.0000 S1000
G1 F750 X-1.5124 Y-0.9565 Z-9.0000 S1000
G1 F750 X-1.8400 Y-0.5481 Z-9.0000 S1000
G1 F750 X-2.1311 Y-0.1121 Z-9.0000 S1000
G1 F750 X-2.3833 Y0.3484 Z-9.0000 S1000
G1 F750 X-2.5939 Y0.8284 Z-9.0000 S1000
G1 F750 X-2.7621 Y1.3264 Z-9.0000 S1000
G1 F750 X-2.8857 Y1.8362 Z-9.0000 S1000
G1 F750 X-2.9641 Y2.3537 Z-9.0000 S1000
G1 F750 X-2.9973 Y2.8732 Z-9.0000 S1000
G1 F750 X-3.0000 Y148.0002 Z-9.0000 S1000
G1 F750 X-2.9862 Y148.3890 Z-9.0000 S1000
G1 F750 X-2.9305 Y148.9064 Z-9.0000 S1000
G1 F750 X-2.8296 Y149.4200 Z-9.0000 S1000
G1 F750 X-2.6837 Y149.9242 Z-9.0000 S1000
G1 F750 X-2.4942 Y150.4136 Z-9.0000 S1000
G1 F750 X-2.2624 Y150.8848 Z-9.0000 S1000
G1 F750 X-1.9905 Y151.3333 Z-9.0000 S1000
G1 F750 X-1.6806 Y151.7562 Z-9.0000 S1000
G1 F750 X-1.3343 Y152.1510 Z-9.0000 S1000
G1 F750 X-0.9580 Y152.5113 Z-9.0000 S1000
G1 F750 X-0.5484 Y152.8400 Z-9.0000 S1000
G1 F750 X-0.1124 Y153.1311 Z-9.0000 S1000
G1 F750 X0.3475 Y153.3831 Z-9.0000 S1000
G1 F750 X0.8285 Y153.5941 Z-9.0000 S1000
G1 F750 X1.3257 Y153.7620 Z-9.0000 S1000
G1 F750 X1.8358 Y153.8857 Z-9.0000 S1000
G1 F750 X2.3533 Y153.9641 Z-9.0000 S1000
G1 F750 X2.8726 Y153.9973 Z-9.0000 S1000
G1 F750 X94.9999 Y154.0000 Z-9.0000 S1000
G1 F750 X95.5499 Y153.9491 Z-9.0000 S1000
G1 F750 X96.2107 Y153.7448 Z-9.0000 S1000
G1 F750 X96.8071 Y153.3946 Z-9.0000 S1000
G1 F750 X97.3075 Y152.9170 Z-9.0000 S1000
G1 F750 X97.6852 Y152.3376 Z-9.0000 S1000
G1 F750 X97.9202 Y151.6871 Z-9.0000 S1000
G1 F750 X97.9999 Y151.0000 Z-9.0000 S1000
G1 F750 X97.9999 Y148.9094 Z-9.0000 S1000
G1 F750 X137.0002 Y148.9094 Z-9.0000 S1000
G1 F750 X137.0002 Y151.0000 Z-9.0000 S1000
G1 F750 X137.0511 Y151.5500 Z-9.0000 S1000
G1 F750 X137.2554 Y152.2108 Z-9.0000 S1000
G1 F750 X137.6056 Y152.8072 Z-9.0000 S1000
G1 F750 X138.0832 Y153.3076 Z-9.0000 S1000
G1 F750 X138.6626 Y153.6853 Z-9.0000 S1000
G1 F750 X139.3131 Y153.9203 Z-9.0000 S1000
G1 F750 X140.0002 Y154.0000 Z-9.0000 S1000
G1 F750 X231.9998 Y154.0000 Z-9.0000 S1000
G1 F750 X232.3886 Y153.9862 Z-9.0000 S1000
G1 F750 X232.9061 Y153.9305 Z-9.0000 S1000
G1 F750 X233.4197 Y153.8296 Z-9.0000 S1000
G1 F750 X233.9239 Y153.6837 Z-9.0000 S1000
G1 F750 X234.4133 Y153.4942 Z-9.0000 S1000
G1 F750 X234.8841 Y153.2626 Z-9.0000 S1000
G1 F750 X235.3331 Y152.9905 Z-9.0000 S1000
G1 F750 X235.7560 Y152.6806 Z-9.0000 S1000
G1 F750 X236.1497 Y152.3355 Z-9.0000 S1000
G1 F750 X236.5122 Y151.9568 Z-9.0000 S1000
G1 F750 X236.8390 Y151.5498 Z-9.0000 S1000
G1 F750 X237.1310 Y151.1125 Z-9.0000 S1000
G1 F750 X237.3829 Y150.6529 Z-9.0000 S1000
G1 F750 X237.5936 Y150.1730 Z-9.0000 S1000
G1 F750 X237.7621 Y149.6744 Z-9.0000 S1000
G1 F750 X237.8858 Y149.1643 Z-9.0000 S1000
G1 F750 X237.9642 Y148.6466 Z-9.0000 S1000
G1 F750 X237.9974 Y148.1274 Z-9.0000 S1000
G1 F750 X238.0001 Y3.0003 Z-9.0000 S1000
G1 F750 X237.9863 Y2.6115 Z-9.0000 S1000
G1 F750 X237.9304 Y2.0929 Z-9.0000 S1000
G1 F750 X237.8299 Y1.5814 Z-9.0000 S1000
G1 F750 X237.6838 Y1.0761 Z-9.0000 S1000
G1 F750 X237.4938 Y0.5857 Z-9.0000 S1000
G1 F750 X237.2621 Y0.1150 Z-9.0000 S1000
G1 F750 X236.9904 Y-0.3331 Z-9.0000 S1000
G1 F750 X236.6799 Y-0.7567 Z-9.0000 S1000
G1 F750 X236.3353 Y-1.1497 Z-9.0000 S1000
G1 F750 X235.9566 Y-1.5122 Z-9.0000 S1000
G1 F750 X235.5482 Y-1.8398 Z-9.0000 S1000
G1 F750 X235.1131 Y-2.1305 Z-9.0000 S1000
G1 F750 X234.6526 Y-2.3829 Z-9.0000 S1000
G1 F750 X234.1712 Y-2.5941 Z-9.0000 S1000
G1 F750 X233.6740 Y-2.7620 Z-9.0000 S1000
G1 F750 X233.1639 Y-2.8857 Z-9.0000 S1000
G1 F750 X232.6464 Y-2.9641 Z-9.0000 S1000
G1 F750 X232.1281 Y-2.9974 Z-9.0000 S1000
G1 F750 X2.9998 Y-3.0001 Z-9.0000 S1000
; retracting back to z-safe
G0 Z10

M5 S0; Spindle Off
