; GCODE Generated by cam.openbuilds.com on 2021-03-08 
G21 ; mm-mode
G54; Work Coordinates
G21; mm-mode
G90; Absolute Positioning
M3 S1000; Spindle On

; Operation 0: CNC: Vector (path inside)
; Endmill Diameter: 6

G0 Z10; move to z-safe height
G0 F1000 X214.0000 Y131.0000

G0 Z0
G1 F100 Z-2.5000
G1 F750 X21.0000 Y131.0000 Z-2.5000 S1000
G1 F750 X21.0000 Y20.0000 Z-2.5000 S1000
G1 F750 X214.0000 Y20.0000 Z-2.5000 S1000
G1 F750 X214.0000 Y131.0000 Z-2.5000 S1000
G1 F100 Z-5.0000
G1 F750 X21.0000 Y131.0000 Z-5.0000 S1000
G1 F750 X21.0000 Y20.0000 Z-5.0000 S1000
G1 F750 X214.0000 Y20.0000 Z-5.0000 S1000
G1 F750 X214.0000 Y131.0000 Z-5.0000 S1000
G1 F100 Z-7.5000
G1 F750 X21.0000 Y131.0000 Z-7.5000 S1000
G1 F750 X21.0000 Y20.0000 Z-7.5000 S1000
G1 F750 X214.0000 Y20.0000 Z-7.5000 S1000
G1 F750 X214.0000 Y131.0000 Z-7.5000 S1000
G1 F100 Z-9.0000
G1 F750 X21.0000 Y131.0000 Z-9.0000 S1000
G1 F750 X21.0000 Y20.0000 Z-9.0000 S1000
G1 F750 X214.0000 Y20.0000 Z-9.0000 S1000
G1 F750 X214.0000 Y131.0000 Z-9.0000 S1000
; retracting back to z-safe
G0 Z10
; Operation 1: CNC: Pocket
; Endmill Diameter: 6

G0 Z10; move to z-safe height
G0 F1000 X134.3843 Y133.0061

G0 Z0
G1 F100 Z-2.5000
G1 F750 X134.0893 Y133.4358 Z-2.5000 S1000
G1 F750 X100.9314 Y133.4358 Z-2.5000 S1000
G1 F750 X100.5149 Y132.9111 Z-2.5000 S1000
G1 F750 X134.4729 Y132.9111 Z-2.5000 S1000
G1 F750 X134.3843 Y133.0061 Z-2.5000 S1000
G1 F100 Z-5.0000
G1 F750 X134.0893 Y133.4358 Z-5.0000 S1000
G1 F750 X100.9314 Y133.4358 Z-5.0000 S1000
G1 F750 X100.5149 Y132.9111 Z-5.0000 S1000
G1 F750 X134.4729 Y132.9111 Z-5.0000 S1000
G1 F750 X134.3843 Y133.0061 Z-5.0000 S1000

G0 Z10; move to z-safe height
G0 X217.7120 Y132.7119

G0 Z0
G1 F100 Z-2.5000
G1 F750 X140.0002 Y132.7119 Z-2.5000 S1000
G1 F750 X139.1284 Y132.7917 Z-2.5000 S1000
G1 F750 X138.2856 Y133.0286 Z-2.5000 S1000
G1 F750 X137.4998 Y133.4146 Z-2.5000 S1000
G1 F750 X136.7973 Y133.9368 Z-2.5000 S1000
G1 F750 X136.2012 Y134.5780 Z-2.5000 S1000
G1 F750 X135.7315 Y135.3168 Z-2.5000 S1000
G1 F750 X135.5220 Y135.8358 Z-2.5000 S1000
G1 F750 X99.4940 Y135.8358 Z-2.5000 S1000
G1 F750 X99.4832 Y135.7973 Z-2.5000 S1000
G1 F750 X99.0972 Y135.0115 Z-2.5000 S1000
G1 F750 X98.5750 Y134.3090 Z-2.5000 S1000
G1 F750 X97.9338 Y133.7129 Z-2.5000 S1000
G1 F750 X97.1950 Y133.2432 Z-2.5000 S1000
G1 F750 X96.3832 Y132.9155 Z-2.5000 S1000
G1 F750 X95.5254 Y132.7408 Z-2.5000 S1000
G1 F750 X94.9999 Y132.7119 Z-2.5000 S1000
G1 F750 X14.2878 Y132.7119 Z-2.5000 S1000
G1 F750 X14.2878 Y130.5111 Z-2.5000 S1000
G1 F750 X217.7120 Y130.5111 Z-2.5000 S1000
G1 F750 X217.7120 Y132.7119 Z-2.5000 S1000
G1 F100 Z-5.0000
G1 F750 X140.0002 Y132.7119 Z-5.0000 S1000
G1 F750 X139.1284 Y132.7917 Z-5.0000 S1000
G1 F750 X138.2856 Y133.0286 Z-5.0000 S1000
G1 F750 X137.4998 Y133.4146 Z-5.0000 S1000
G1 F750 X136.7973 Y133.9368 Z-5.0000 S1000
G1 F750 X136.2012 Y134.5780 Z-5.0000 S1000
G1 F750 X135.7315 Y135.3168 Z-5.0000 S1000
G1 F750 X135.5220 Y135.8358 Z-5.0000 S1000
G1 F750 X99.4940 Y135.8358 Z-5.0000 S1000
G1 F750 X99.4832 Y135.7973 Z-5.0000 S1000
G1 F750 X99.0972 Y135.0115 Z-5.0000 S1000
G1 F750 X98.5750 Y134.3090 Z-5.0000 S1000
G1 F750 X97.9338 Y133.7129 Z-5.0000 S1000
G1 F750 X97.1950 Y133.2432 Z-5.0000 S1000
G1 F750 X96.3832 Y132.9155 Z-5.0000 S1000
G1 F750 X95.5254 Y132.7408 Z-5.0000 S1000
G1 F750 X94.9999 Y132.7119 Z-5.0000 S1000
G1 F750 X14.2878 Y132.7119 Z-5.0000 S1000
G1 F750 X14.2878 Y130.5111 Z-5.0000 S1000
G1 F750 X217.7120 Y130.5111 Z-5.0000 S1000
G1 F750 X217.7120 Y132.7119 Z-5.0000 S1000

G0 Z10; move to z-safe height
G0 X219.5120 Y134.5119

G0 Z0
G1 F100 Z-2.5000
G1 F750 X140.0002 Y134.5119 Z-2.5000 S1000
G1 F750 X139.3131 Y134.5916 Z-2.5000 S1000
G1 F750 X138.6626 Y134.8266 Z-2.5000 S1000
G1 F750 X138.0832 Y135.2043 Z-2.5000 S1000
G1 F750 X137.6056 Y135.7047 Z-2.5000 S1000
G1 F750 X137.2554 Y136.3011 Z-2.5000 S1000
G1 F750 X137.0511 Y136.9619 Z-2.5000 S1000
G1 F750 X137.0002 Y137.5119 Z-2.5000 S1000
G1 F750 X137.0002 Y137.6358 Z-2.5000 S1000
G1 F750 X97.9999 Y137.6358 Z-2.5000 S1000
G1 F750 X97.9999 Y137.5119 Z-2.5000 S1000
G1 F750 X97.9202 Y136.8248 Z-2.5000 S1000
G1 F750 X97.6852 Y136.1743 Z-2.5000 S1000
G1 F750 X97.3075 Y135.5949 Z-2.5000 S1000
G1 F750 X96.8071 Y135.1173 Z-2.5000 S1000
G1 F750 X96.2107 Y134.7671 Z-2.5000 S1000
G1 F750 X95.5499 Y134.5628 Z-2.5000 S1000
G1 F750 X94.9999 Y134.5119 Z-2.5000 S1000
G1 F750 X12.4878 Y134.5119 Z-2.5000 S1000
G1 F750 X12.4878 Y128.7111 Z-2.5000 S1000
G1 F750 X219.5120 Y128.7111 Z-2.5000 S1000
G1 F750 X219.5120 Y134.5119 Z-2.5000 S1000
G1 F100 Z-5.0000
G1 F750 X140.0002 Y134.5119 Z-5.0000 S1000
G1 F750 X139.3131 Y134.5916 Z-5.0000 S1000
G1 F750 X138.6626 Y134.8266 Z-5.0000 S1000
G1 F750 X138.0832 Y135.2043 Z-5.0000 S1000
G1 F750 X137.6056 Y135.7047 Z-5.0000 S1000
G1 F750 X137.2554 Y136.3011 Z-5.0000 S1000
G1 F750 X137.0511 Y136.9619 Z-5.0000 S1000
G1 F750 X137.0002 Y137.5119 Z-5.0000 S1000
G1 F750 X137.0002 Y137.6358 Z-5.0000 S1000
G1 F750 X97.9999 Y137.6358 Z-5.0000 S1000
G1 F750 X97.9999 Y137.5119 Z-5.0000 S1000
G1 F750 X97.9202 Y136.8248 Z-5.0000 S1000
G1 F750 X97.6852 Y136.1743 Z-5.0000 S1000
G1 F750 X97.3075 Y135.5949 Z-5.0000 S1000
G1 F750 X96.8071 Y135.1173 Z-5.0000 S1000
G1 F750 X96.2107 Y134.7671 Z-5.0000 S1000
G1 F750 X95.5499 Y134.5628 Z-5.0000 S1000
G1 F750 X94.9999 Y134.5119 Z-5.0000 S1000
G1 F750 X12.4878 Y134.5119 Z-5.0000 S1000
G1 F750 X12.4878 Y128.7111 Z-5.0000 S1000
G1 F750 X219.5120 Y128.7111 Z-5.0000 S1000
G1 F750 X219.5120 Y134.5119 Z-5.0000 S1000
; retracting back to z-safe
G0 Z10
; Operation 2: CNC: Pocket
; Endmill Diameter: 6

G0 Z10; move to z-safe height
G0 F1000 X17.3339 Y132.7119

G0 Z0
G1 F100 Z-2.5000
G1 F750 X14.2881 Y132.7119 Z-2.5000 S1000
G1 F750 X14.2881 Y13.2879 Z-2.5000 S1000
G1 F750 X17.3339 Y13.2879 Z-2.5000 S1000
G1 F750 X17.3339 Y132.7119 Z-2.5000 S1000
G1 F100 Z-5.0000
G1 F750 X14.2881 Y132.7119 Z-5.0000 S1000
G1 F750 X14.2881 Y13.2879 Z-5.0000 S1000
G1 F750 X17.3339 Y13.2879 Z-5.0000 S1000
G1 F750 X17.3339 Y132.7119 Z-5.0000 S1000

G0 Z10; move to z-safe height
G0 X19.1339 Y134.5119

G0 Z0
G1 F100 Z-2.5000
G1 F750 X12.4881 Y134.5119 Z-2.5000 S1000
G1 F750 X12.4881 Y11.4879 Z-2.5000 S1000
G1 F750 X19.1339 Y11.4879 Z-2.5000 S1000
G1 F750 X19.1339 Y134.5119 Z-2.5000 S1000
G1 F100 Z-5.0000
G1 F750 X12.4881 Y134.5119 Z-5.0000 S1000
G1 F750 X12.4881 Y11.4879 Z-5.0000 S1000
G1 F750 X19.1339 Y11.4879 Z-5.0000 S1000
G1 F750 X19.1339 Y134.5119 Z-5.0000 S1000
; retracting back to z-safe
G0 Z10
; Operation 3: CNC: Pocket
; Endmill Diameter: 6

G0 Z10; move to z-safe height
G0 F1000 X134.7101 Y13.3725

G0 Z0
G1 F100 Z-2.5000
G1 F750 X135.4944 Y14.1042 Z-2.5000 S1000
G1 F750 X136.3787 Y14.7112 Z-2.5000 S1000
G1 F750 X137.3433 Y15.1801 Z-2.5000 S1000
G1 F750 X138.3669 Y15.5006 Z-2.5000 S1000
G1 F750 X139.4267 Y15.6654 Z-2.5000 S1000
G1 F750 X140.0002 Y15.6883 Z-2.5000 S1000
G1 F750 X215.3120 Y15.6883 Z-2.5000 S1000
G1 F750 X215.3120 Y16.0507 Z-2.5000 S1000
G1 F750 X16.6878 Y16.0507 Z-2.5000 S1000
G1 F750 X16.6878 Y15.6883 Z-2.5000 S1000
G1 F750 X94.9999 Y15.6883 Z-2.5000 S1000
G1 F750 X96.0695 Y15.6084 Z-2.5000 S1000
G1 F750 X97.1153 Y15.3705 Z-2.5000 S1000
G1 F750 X98.1142 Y14.9799 Z-2.5000 S1000
G1 F750 X99.0440 Y14.4452 Z-2.5000 S1000
G1 F750 X99.8841 Y13.7784 Z-2.5000 S1000
G1 F750 X100.5177 Y13.0993 Z-2.5000 S1000
G1 F750 X134.4933 Y13.0993 Z-2.5000 S1000
G1 F750 X134.7101 Y13.3725 Z-2.5000 S1000
G1 F100 Z-5.0000
G1 F750 X135.4944 Y14.1042 Z-5.0000 S1000
G1 F750 X136.3787 Y14.7112 Z-5.0000 S1000
G1 F750 X137.3433 Y15.1801 Z-5.0000 S1000
G1 F750 X138.3669 Y15.5006 Z-5.0000 S1000
G1 F750 X139.4267 Y15.6654 Z-5.0000 S1000
G1 F750 X140.0002 Y15.6883 Z-5.0000 S1000
G1 F750 X215.3120 Y15.6883 Z-5.0000 S1000
G1 F750 X215.3120 Y16.0507 Z-5.0000 S1000
G1 F750 X16.6878 Y16.0507 Z-5.0000 S1000
G1 F750 X16.6878 Y15.6883 Z-5.0000 S1000
G1 F750 X94.9999 Y15.6883 Z-5.0000 S1000
G1 F750 X96.0695 Y15.6084 Z-5.0000 S1000
G1 F750 X97.1153 Y15.3705 Z-5.0000 S1000
G1 F750 X98.1142 Y14.9799 Z-5.0000 S1000
G1 F750 X99.0440 Y14.4452 Z-5.0000 S1000
G1 F750 X99.8841 Y13.7784 Z-5.0000 S1000
G1 F750 X100.5177 Y13.0993 Z-5.0000 S1000
G1 F750 X134.4933 Y13.0993 Z-5.0000 S1000
G1 F750 X134.7101 Y13.3725 Z-5.0000 S1000

G0 Z10; move to z-safe height
G0 X135.9029 Y10.9887

G0 Z0
G1 F100 Z-2.5000
G1 F750 X136.4251 Y11.6912 Z-2.5000 S1000
G1 F750 X137.0663 Y12.2873 Z-2.5000 S1000
G1 F750 X137.8051 Y12.7570 Z-2.5000 S1000
G1 F750 X138.6169 Y13.0847 Z-2.5000 S1000
G1 F750 X139.4747 Y13.2594 Z-2.5000 S1000
G1 F750 X140.0002 Y13.2883 Z-2.5000 S1000
G1 F750 X217.7120 Y13.2883 Z-2.5000 S1000
G1 F750 X217.7120 Y18.4507 Z-2.5000 S1000
G1 F750 X14.2878 Y18.4507 Z-2.5000 S1000
G1 F750 X14.2878 Y13.2883 Z-2.5000 S1000
G1 F750 X94.9999 Y13.2883 Z-2.5000 S1000
G1 F750 X95.8717 Y13.2085 Z-2.5000 S1000
G1 F750 X96.7145 Y12.9716 Z-2.5000 S1000
G1 F750 X97.5003 Y12.5856 Z-2.5000 S1000
G1 F750 X98.2028 Y12.0634 Z-2.5000 S1000
G1 F750 X98.7989 Y11.4222 Z-2.5000 S1000
G1 F750 X99.2585 Y10.6993 Z-2.5000 S1000
G1 F750 X135.7607 Y10.6993 Z-2.5000 S1000
G1 F750 X135.9029 Y10.9887 Z-2.5000 S1000
G1 F100 Z-5.0000
G1 F750 X136.4251 Y11.6912 Z-5.0000 S1000
G1 F750 X137.0663 Y12.2873 Z-5.0000 S1000
G1 F750 X137.8051 Y12.7570 Z-5.0000 S1000
G1 F750 X138.6169 Y13.0847 Z-5.0000 S1000
G1 F750 X139.4747 Y13.2594 Z-5.0000 S1000
G1 F750 X140.0002 Y13.2883 Z-5.0000 S1000
G1 F750 X217.7120 Y13.2883 Z-5.0000 S1000
G1 F750 X217.7120 Y18.4507 Z-5.0000 S1000
G1 F750 X14.2878 Y18.4507 Z-5.0000 S1000
G1 F750 X14.2878 Y13.2883 Z-5.0000 S1000
G1 F750 X94.9999 Y13.2883 Z-5.0000 S1000
G1 F750 X95.8717 Y13.2085 Z-5.0000 S1000
G1 F750 X96.7145 Y12.9716 Z-5.0000 S1000
G1 F750 X97.5003 Y12.5856 Z-5.0000 S1000
G1 F750 X98.2028 Y12.0634 Z-5.0000 S1000
G1 F750 X98.7989 Y11.4222 Z-5.0000 S1000
G1 F750 X99.2585 Y10.6993 Z-5.0000 S1000
G1 F750 X135.7607 Y10.6993 Z-5.0000 S1000
G1 F750 X135.9029 Y10.9887 Z-5.0000 S1000

G0 Z10; move to z-safe height
G0 X137.0799 Y9.1754

G0 Z0
G1 F100 Z-2.5000
G1 F750 X137.3149 Y9.8259 Z-2.5000 S1000
G1 F750 X137.6926 Y10.4053 Z-2.5000 S1000
G1 F750 X138.1930 Y10.8829 Z-2.5000 S1000
G1 F750 X138.7894 Y11.2331 Z-2.5000 S1000
G1 F750 X139.4502 Y11.4374 Z-2.5000 S1000
G1 F750 X140.0002 Y11.4883 Z-2.5000 S1000
G1 F750 X219.5120 Y11.4883 Z-2.5000 S1000
G1 F750 X219.5120 Y20.2507 Z-2.5000 S1000
G1 F750 X12.4878 Y20.2507 Z-2.5000 S1000
G1 F750 X12.4878 Y11.4883 Z-2.5000 S1000
G1 F750 X94.9999 Y11.4883 Z-2.5000 S1000
G1 F750 X95.6870 Y11.4086 Z-2.5000 S1000
G1 F750 X96.3375 Y11.1736 Z-2.5000 S1000
G1 F750 X96.9169 Y10.7959 Z-2.5000 S1000
G1 F750 X97.3945 Y10.2955 Z-2.5000 S1000
G1 F750 X97.7447 Y9.6991 Z-2.5000 S1000
G1 F750 X97.9490 Y9.0383 Z-2.5000 S1000
G1 F750 X97.9619 Y8.8993 Z-2.5000 S1000
G1 F750 X137.0479 Y8.8993 Z-2.5000 S1000
G1 F750 X137.0799 Y9.1754 Z-2.5000 S1000
G1 F100 Z-5.0000
G1 F750 X137.3149 Y9.8259 Z-5.0000 S1000
G1 F750 X137.6926 Y10.4053 Z-5.0000 S1000
G1 F750 X138.1930 Y10.8829 Z-5.0000 S1000
G1 F750 X138.7894 Y11.2331 Z-5.0000 S1000
G1 F750 X139.4502 Y11.4374 Z-5.0000 S1000
G1 F750 X140.0002 Y11.4883 Z-5.0000 S1000
G1 F750 X219.5120 Y11.4883 Z-5.0000 S1000
G1 F750 X219.5120 Y20.2507 Z-5.0000 S1000
G1 F750 X12.4878 Y20.2507 Z-5.0000 S1000
G1 F750 X12.4878 Y11.4883 Z-5.0000 S1000
G1 F750 X94.9999 Y11.4883 Z-5.0000 S1000
G1 F750 X95.6870 Y11.4086 Z-5.0000 S1000
G1 F750 X96.3375 Y11.1736 Z-5.0000 S1000
G1 F750 X96.9169 Y10.7959 Z-5.0000 S1000
G1 F750 X97.3945 Y10.2955 Z-5.0000 S1000
G1 F750 X97.7447 Y9.6991 Z-5.0000 S1000
G1 F750 X97.9490 Y9.0383 Z-5.0000 S1000
G1 F750 X97.9619 Y8.8993 Z-5.0000 S1000
G1 F750 X137.0479 Y8.8993 Z-5.0000 S1000
G1 F750 X137.0799 Y9.1754 Z-5.0000 S1000
; retracting back to z-safe
G0 Z10
; Operation 4: CNC: Pocket
; Endmill Diameter: 6

G0 Z10; move to z-safe height
G0 F1000 X217.7119 Y132.7119

G0 Z0
G1 F100 Z-2.5000
G1 F750 X213.6428 Y132.7119 Z-2.5000 S1000
G1 F750 X213.6428 Y13.2879 Z-2.5000 S1000
G1 F750 X217.7119 Y13.2879 Z-2.5000 S1000
G1 F750 X217.7119 Y132.7119 Z-2.5000 S1000
G1 F100 Z-5.0000
G1 F750 X213.6428 Y132.7119 Z-5.0000 S1000
G1 F750 X213.6428 Y13.2879 Z-5.0000 S1000
G1 F750 X217.7119 Y13.2879 Z-5.0000 S1000
G1 F750 X217.7119 Y132.7119 Z-5.0000 S1000

G0 Z10; move to z-safe height
G0 X219.5119 Y134.5119

G0 Z0
G1 F100 Z-2.5000
G1 F750 X211.8428 Y134.5119 Z-2.5000 S1000
G1 F750 X211.8428 Y11.4879 Z-2.5000 S1000
G1 F750 X219.5119 Y11.4879 Z-2.5000 S1000
G1 F750 X219.5119 Y134.5119 Z-2.5000 S1000
G1 F100 Z-5.0000
G1 F750 X211.8428 Y134.5119 Z-5.0000 S1000
G1 F750 X211.8428 Y11.4879 Z-5.0000 S1000
G1 F750 X219.5119 Y11.4879 Z-5.0000 S1000
G1 F750 X219.5119 Y134.5119 Z-5.0000 S1000
; retracting back to z-safe
G0 Z10
; Operation 5: Drill: Continuous (Centered)
; Endmill Diameter: 6

G0 Z10; move to z-safe height
G0 F1000 X220.8212 Y135.8043

G0 Z0
G1 F100 Z0.0000
G1 F750 X220.8212 Y135.8043 Z-5.0000 S1000
G1 F750 X220.8212 Y135.8043 Z0.0000 S1000

G0 Z10; move to z-safe height
G0 X11.2711 Y10.0897

G0 Z0
G1 F100 Z0.0000
G1 F750 X11.2711 Y10.0897 Z-5.0000 S1000
G1 F750 X11.2711 Y10.0897 Z0.0000 S1000

G0 Z10; move to z-safe height
G0 X220.8212 Y10.0897

G0 Z0
G1 F100 Z0.0000
G1 F750 X220.8212 Y10.0897 Z-5.0000 S1000
G1 F750 X220.8212 Y10.0897 Z0.0000 S1000

G0 Z10; move to z-safe height
G0 X11.2711 Y135.8043

G0 Z0
G1 F100 Z0.0000
G1 F750 X11.2711 Y135.8043 Z-5.0000 S1000
G1 F750 X11.2711 Y135.8043 Z0.0000 S1000
; retracting back to z-safe
G0 Z10
; Operation 6: Drill: Continuous (Centered)
; Endmill Diameter: 6

G0 Z10; move to z-safe height
G0 F1000 X228.4539 Y57.7085

G0 Z0
G1 F100 Z0.0000
G1 F750 X228.4539 Y57.7085 Z-1.5000 S1000
G1 F750 X228.4539 Y57.7085 Z0.0000 S1000

G0 Z10; move to z-safe height
G0 X6.5461 Y93.2918

G0 Z0
G1 F100 Z0.0000
G1 F750 X6.5461 Y93.2918 Z-1.5000 S1000
G1 F750 X6.5461 Y93.2918 Z0.0000 S1000

G0 Z10; move to z-safe height
G0 X6.5461 Y57.7085

G0 Z0
G1 F100 Z0.0000
G1 F750 X6.5461 Y57.7085 Z-1.5000 S1000
G1 F750 X6.5461 Y57.7085 Z0.0000 S1000

G0 Z10; move to z-safe height
G0 X228.4539 Y93.2918

G0 Z0
G1 F100 Z0.0000
G1 F750 X228.4539 Y93.2918 Z-1.5000 S1000
G1 F750 X228.4539 Y93.2918 Z0.0000 S1000
; retracting back to z-safe
G0 Z10
; Operation 7: CNC: Vector (path outside)
; Endmill Diameter: 6

G0 Z10; move to z-safe height
G0 F1000 X232.0000 Y-3.0000

G0 Z0
G1 F100 Z-2.5000
G1 F750 X3.0000 Y-3.0000 Z-2.5000 S1000
G1 F750 X2.6346 Y-2.9777 Z-2.5000 S1000
G1 F750 X1.6925 Y-2.8621 Z-2.5000 S1000
G1 F750 X0.7939 Y-2.6051 Z-2.5000 S1000
G1 F750 X-0.0647 Y-2.2062 Z-2.5000 S1000
G1 F750 X-0.4428 Y-1.9962 Z-2.5000 S1000
G1 F750 X-0.9741 Y-1.5534 Z-2.5000 S1000
G1 F750 X-1.6264 Y-0.8678 Z-2.5000 S1000
G1 F750 X-2.1839 Y-0.0417 Z-2.5000 S1000
G1 F750 X-2.5765 Y0.8217 Z-2.5000 S1000
G1 F750 X-2.8056 Y1.5755 Z-2.5000 S1000
G1 F750 X-2.9600 Y2.5120 Z-2.5000 S1000
G1 F750 X-3.0000 Y3.0000 Z-2.5000 S1000
G1 F750 X-3.0000 Y148.0000 Z-2.5000 S1000
G1 F750 X-2.9600 Y148.4880 Z-2.5000 S1000
G1 F750 X-2.8056 Y149.4245 Z-2.5000 S1000
G1 F750 X-2.5765 Y150.1783 Z-2.5000 S1000
G1 F750 X-2.1839 Y151.0417 Z-2.5000 S1000
G1 F750 X-1.6264 Y151.8678 Z-2.5000 S1000
G1 F750 X-0.9741 Y152.5534 Z-2.5000 S1000
G1 F750 X-0.6542 Y152.8444 Z-2.5000 S1000
G1 F750 X-0.0647 Y153.2062 Z-2.5000 S1000
G1 F750 X0.7939 Y153.6051 Z-2.5000 S1000
G1 F750 X1.6925 Y153.8621 Z-2.5000 S1000
G1 F750 X2.6346 Y153.9777 Z-2.5000 S1000
G1 F750 X3.0000 Y154.0000 Z-2.5000 S1000
G1 F750 X232.0000 Y154.0000 Z-2.5000 S1000
G1 F750 X232.3654 Y153.9777 Z-2.5000 S1000
G1 F750 X233.3075 Y153.8621 Z-2.5000 S1000
G1 F750 X234.2061 Y153.6051 Z-2.5000 S1000
G1 F750 X235.0647 Y153.2062 Z-2.5000 S1000
G1 F750 X235.4428 Y152.9962 Z-2.5000 S1000
G1 F750 X235.9741 Y152.5534 Z-2.5000 S1000
G1 F750 X236.6264 Y151.8678 Z-2.5000 S1000
G1 F750 X237.1839 Y151.0417 Z-2.5000 S1000
G1 F750 X237.5765 Y150.1783 Z-2.5000 S1000
G1 F750 X237.8056 Y149.4245 Z-2.5000 S1000
G1 F750 X237.9600 Y148.4880 Z-2.5000 S1000
G1 F750 X238.0000 Y148.0000 Z-2.5000 S1000
G1 F750 X238.0000 Y3.0000 Z-2.5000 S1000
G1 F750 X237.9777 Y2.6346 Z-2.5000 S1000
G1 F750 X237.8621 Y1.6925 Z-2.5000 S1000
G1 F750 X237.6051 Y0.7939 Z-2.5000 S1000
G1 F750 X237.2062 Y-0.0647 Z-2.5000 S1000
G1 F750 X236.9962 Y-0.4428 Z-2.5000 S1000
G1 F750 X236.5534 Y-0.9741 Z-2.5000 S1000
G1 F750 X235.8678 Y-1.6264 Z-2.5000 S1000
G1 F750 X235.0417 Y-2.1839 Z-2.5000 S1000
G1 F750 X234.1783 Y-2.5765 Z-2.5000 S1000
G1 F750 X233.4245 Y-2.8056 Z-2.5000 S1000
G1 F750 X232.4880 Y-2.9600 Z-2.5000 S1000
G1 F750 X232.0000 Y-3.0000 Z-2.5000 S1000
G1 F100 Z-5.0000
G1 F750 X3.0000 Y-3.0000 Z-5.0000 S1000
G1 F750 X2.6346 Y-2.9777 Z-5.0000 S1000
G1 F750 X1.6925 Y-2.8621 Z-5.0000 S1000
G1 F750 X0.7939 Y-2.6051 Z-5.0000 S1000
G1 F750 X-0.0647 Y-2.2062 Z-5.0000 S1000
G1 F750 X-0.4428 Y-1.9962 Z-5.0000 S1000
G1 F750 X-0.9741 Y-1.5534 Z-5.0000 S1000
G1 F750 X-1.6264 Y-0.8678 Z-5.0000 S1000
G1 F750 X-2.1839 Y-0.0417 Z-5.0000 S1000
G1 F750 X-2.5765 Y0.8217 Z-5.0000 S1000
G1 F750 X-2.8056 Y1.5755 Z-5.0000 S1000
G1 F750 X-2.9600 Y2.5120 Z-5.0000 S1000
G1 F750 X-3.0000 Y3.0000 Z-5.0000 S1000
G1 F750 X-3.0000 Y148.0000 Z-5.0000 S1000
G1 F750 X-2.9600 Y148.4880 Z-5.0000 S1000
G1 F750 X-2.8056 Y149.4245 Z-5.0000 S1000
G1 F750 X-2.5765 Y150.1783 Z-5.0000 S1000
G1 F750 X-2.1839 Y151.0417 Z-5.0000 S1000
G1 F750 X-1.6264 Y151.8678 Z-5.0000 S1000
G1 F750 X-0.9741 Y152.5534 Z-5.0000 S1000
G1 F750 X-0.6542 Y152.8444 Z-5.0000 S1000
G1 F750 X-0.0647 Y153.2062 Z-5.0000 S1000
G1 F750 X0.7939 Y153.6051 Z-5.0000 S1000
G1 F750 X1.6925 Y153.8621 Z-5.0000 S1000
G1 F750 X2.6346 Y153.9777 Z-5.0000 S1000
G1 F750 X3.0000 Y154.0000 Z-5.0000 S1000
G1 F750 X232.0000 Y154.0000 Z-5.0000 S1000
G1 F750 X232.3654 Y153.9777 Z-5.0000 S1000
G1 F750 X233.3075 Y153.8621 Z-5.0000 S1000
G1 F750 X234.2061 Y153.6051 Z-5.0000 S1000
G1 F750 X235.0647 Y153.2062 Z-5.0000 S1000
G1 F750 X235.4428 Y152.9962 Z-5.0000 S1000
G1 F750 X235.9741 Y152.5534 Z-5.0000 S1000
G1 F750 X236.6264 Y151.8678 Z-5.0000 S1000
G1 F750 X237.1839 Y151.0417 Z-5.0000 S1000
G1 F750 X237.5765 Y150.1783 Z-5.0000 S1000
G1 F750 X237.8056 Y149.4245 Z-5.0000 S1000
G1 F750 X237.9600 Y148.4880 Z-5.0000 S1000
G1 F750 X238.0000 Y148.0000 Z-5.0000 S1000
G1 F750 X238.0000 Y3.0000 Z-5.0000 S1000
G1 F750 X237.9777 Y2.6346 Z-5.0000 S1000
G1 F750 X237.8621 Y1.6925 Z-5.0000 S1000
G1 F750 X237.6051 Y0.7939 Z-5.0000 S1000
G1 F750 X237.2062 Y-0.0647 Z-5.0000 S1000
G1 F750 X236.9962 Y-0.4428 Z-5.0000 S1000
G1 F750 X236.5534 Y-0.9741 Z-5.0000 S1000
G1 F750 X235.8678 Y-1.6264 Z-5.0000 S1000
G1 F750 X235.0417 Y-2.1839 Z-5.0000 S1000
G1 F750 X234.1783 Y-2.5765 Z-5.0000 S1000
G1 F750 X233.4245 Y-2.8056 Z-5.0000 S1000
G1 F750 X232.4880 Y-2.9600 Z-5.0000 S1000
G1 F750 X232.0000 Y-3.0000 Z-5.0000 S1000
G1 F100 Z-7.5000
G1 F750 X3.0000 Y-3.0000 Z-7.5000 S1000
G1 F750 X2.6346 Y-2.9777 Z-7.5000 S1000
G1 F750 X1.6925 Y-2.8621 Z-7.5000 S1000
G1 F750 X0.7939 Y-2.6051 Z-7.5000 S1000
G1 F750 X-0.0647 Y-2.2062 Z-7.5000 S1000
G1 F750 X-0.4428 Y-1.9962 Z-7.5000 S1000
G1 F750 X-0.9741 Y-1.5534 Z-7.5000 S1000
G1 F750 X-1.6264 Y-0.8678 Z-7.5000 S1000
G1 F750 X-2.1839 Y-0.0417 Z-7.5000 S1000
G1 F750 X-2.5765 Y0.8217 Z-7.5000 S1000
G1 F750 X-2.8056 Y1.5755 Z-7.5000 S1000
G1 F750 X-2.9600 Y2.5120 Z-7.5000 S1000
G1 F750 X-3.0000 Y3.0000 Z-7.5000 S1000
G1 F750 X-3.0000 Y148.0000 Z-7.5000 S1000
G1 F750 X-2.9600 Y148.4880 Z-7.5000 S1000
G1 F750 X-2.8056 Y149.4245 Z-7.5000 S1000
G1 F750 X-2.5765 Y150.1783 Z-7.5000 S1000
G1 F750 X-2.1839 Y151.0417 Z-7.5000 S1000
G1 F750 X-1.6264 Y151.8678 Z-7.5000 S1000
G1 F750 X-0.9741 Y152.5534 Z-7.5000 S1000
G1 F750 X-0.6542 Y152.8444 Z-7.5000 S1000
G1 F750 X-0.0647 Y153.2062 Z-7.5000 S1000
G1 F750 X0.7939 Y153.6051 Z-7.5000 S1000
G1 F750 X1.6925 Y153.8621 Z-7.5000 S1000
G1 F750 X2.6346 Y153.9777 Z-7.5000 S1000
G1 F750 X3.0000 Y154.0000 Z-7.5000 S1000
G1 F750 X232.0000 Y154.0000 Z-7.5000 S1000
G1 F750 X232.3654 Y153.9777 Z-7.5000 S1000
G1 F750 X233.3075 Y153.8621 Z-7.5000 S1000
G1 F750 X234.2061 Y153.6051 Z-7.5000 S1000
G1 F750 X235.0647 Y153.2062 Z-7.5000 S1000
G1 F750 X235.4428 Y152.9962 Z-7.5000 S1000
G1 F750 X235.9741 Y152.5534 Z-7.5000 S1000
G1 F750 X236.6264 Y151.8678 Z-7.5000 S1000
G1 F750 X237.1839 Y151.0417 Z-7.5000 S1000
G1 F750 X237.5765 Y150.1783 Z-7.5000 S1000
G1 F750 X237.8056 Y149.4245 Z-7.5000 S1000
G1 F750 X237.9600 Y148.4880 Z-7.5000 S1000
G1 F750 X238.0000 Y148.0000 Z-7.5000 S1000
G1 F750 X238.0000 Y3.0000 Z-7.5000 S1000
G1 F750 X237.9777 Y2.6346 Z-7.5000 S1000
G1 F750 X237.8621 Y1.6925 Z-7.5000 S1000
G1 F750 X237.6051 Y0.7939 Z-7.5000 S1000
G1 F750 X237.2062 Y-0.0647 Z-7.5000 S1000
G1 F750 X236.9962 Y-0.4428 Z-7.5000 S1000
G1 F750 X236.5534 Y-0.9741 Z-7.5000 S1000
G1 F750 X235.8678 Y-1.6264 Z-7.5000 S1000
G1 F750 X235.0417 Y-2.1839 Z-7.5000 S1000
G1 F750 X234.1783 Y-2.5765 Z-7.5000 S1000
G1 F750 X233.4245 Y-2.8056 Z-7.5000 S1000
G1 F750 X232.4880 Y-2.9600 Z-7.5000 S1000
G1 F750 X232.0000 Y-3.0000 Z-7.5000 S1000
G1 F100 Z-9.0000
G1 F750 X3.0000 Y-3.0000 Z-9.0000 S1000
G1 F750 X2.6346 Y-2.9777 Z-9.0000 S1000
G1 F750 X1.6925 Y-2.8621 Z-9.0000 S1000
G1 F750 X0.7939 Y-2.6051 Z-9.0000 S1000
G1 F750 X-0.0647 Y-2.2062 Z-9.0000 S1000
G1 F750 X-0.4428 Y-1.9962 Z-9.0000 S1000
G1 F750 X-0.9741 Y-1.5534 Z-9.0000 S1000
G1 F750 X-1.6264 Y-0.8678 Z-9.0000 S1000
G1 F750 X-2.1839 Y-0.0417 Z-9.0000 S1000
G1 F750 X-2.5765 Y0.8217 Z-9.0000 S1000
G1 F750 X-2.8056 Y1.5755 Z-9.0000 S1000
G1 F750 X-2.9600 Y2.5120 Z-9.0000 S1000
G1 F750 X-3.0000 Y3.0000 Z-9.0000 S1000
G1 F750 X-3.0000 Y148.0000 Z-9.0000 S1000
G1 F750 X-2.9600 Y148.4880 Z-9.0000 S1000
G1 F750 X-2.8056 Y149.4245 Z-9.0000 S1000
G1 F750 X-2.5765 Y150.1783 Z-9.0000 S1000
G1 F750 X-2.1839 Y151.0417 Z-9.0000 S1000
G1 F750 X-1.6264 Y151.8678 Z-9.0000 S1000
G1 F750 X-0.9741 Y152.5534 Z-9.0000 S1000
G1 F750 X-0.6542 Y152.8444 Z-9.0000 S1000
G1 F750 X-0.0647 Y153.2062 Z-9.0000 S1000
G1 F750 X0.7939 Y153.6051 Z-9.0000 S1000
G1 F750 X1.6925 Y153.8621 Z-9.0000 S1000
G1 F750 X2.6346 Y153.9777 Z-9.0000 S1000
G1 F750 X3.0000 Y154.0000 Z-9.0000 S1000
G1 F750 X232.0000 Y154.0000 Z-9.0000 S1000
G1 F750 X232.3654 Y153.9777 Z-9.0000 S1000
G1 F750 X233.3075 Y153.8621 Z-9.0000 S1000
G1 F750 X234.2061 Y153.6051 Z-9.0000 S1000
G1 F750 X235.0647 Y153.2062 Z-9.0000 S1000
G1 F750 X235.4428 Y152.9962 Z-9.0000 S1000
G1 F750 X235.9741 Y152.5534 Z-9.0000 S1000
G1 F750 X236.6264 Y151.8678 Z-9.0000 S1000
G1 F750 X237.1839 Y151.0417 Z-9.0000 S1000
G1 F750 X237.5765 Y150.1783 Z-9.0000 S1000
G1 F750 X237.8056 Y149.4245 Z-9.0000 S1000
G1 F750 X237.9600 Y148.4880 Z-9.0000 S1000
G1 F750 X238.0000 Y148.0000 Z-9.0000 S1000
G1 F750 X238.0000 Y3.0000 Z-9.0000 S1000
G1 F750 X237.9777 Y2.6346 Z-9.0000 S1000
G1 F750 X237.8621 Y1.6925 Z-9.0000 S1000
G1 F750 X237.6051 Y0.7939 Z-9.0000 S1000
G1 F750 X237.2062 Y-0.0647 Z-9.0000 S1000
G1 F750 X236.9962 Y-0.4428 Z-9.0000 S1000
G1 F750 X236.5534 Y-0.9741 Z-9.0000 S1000
G1 F750 X235.8678 Y-1.6264 Z-9.0000 S1000
G1 F750 X235.0417 Y-2.1839 Z-9.0000 S1000
G1 F750 X234.1783 Y-2.5765 Z-9.0000 S1000
G1 F750 X233.4245 Y-2.8056 Z-9.0000 S1000
G1 F750 X232.4880 Y-2.9600 Z-9.0000 S1000
G1 F750 X232.0000 Y-3.0000 Z-9.0000 S1000
; retracting back to z-safe
G0 Z10

M5 S0; Spindle Off
