; GCODE Generated by cam.openbuilds.com on 2021-03-08 
G21 ; mm-mode
G54; Work Coordinates
G21; mm-mode
G90; Absolute Positioning
M3 S1000; Spindle On

; Operation 0: Drill: Continuous (Centered)
; Endmill Diameter: 6

G0 Z10; move to z-safe height
G0 F1000 X7.6027 Y41.8204

G0 Z0
G1 F100 Z0.0000
G1 F1000 X7.6027 Y41.8204 Z-1.5000 S1000
G1 F1000 X7.6027 Y41.8204 Z0.0000 S1000

G0 Z10; move to z-safe height
G0 X7.6027 Y77.4038

G0 Z0
G1 F100 Z0.0000
G1 F1000 X7.6027 Y77.4038 Z-1.5000 S1000
G1 F1000 X7.6027 Y77.4038 Z0.0000 S1000

G0 Z10; move to z-safe height
G0 X188.7646 Y41.8204

G0 Z0
G1 F100 Z0.0000
G1 F1000 X188.7646 Y41.8204 Z-1.5000 S1000
G1 F1000 X188.7646 Y41.8204 Z0.0000 S1000

G0 Z10; move to z-safe height
G0 X188.7646 Y77.4038

G0 Z0
G1 F100 Z0.0000
G1 F1000 X188.7646 Y77.4038 Z-1.5000 S1000
G1 F1000 X188.7646 Y77.4038 Z0.0000 S1000
; retracting back to z-safe
G0 Z10
; Operation 1: CNC: Vector (path outside)
; Endmill Diameter: 6

G0 Z10; move to z-safe height
G0 F1000 X193.3673 Y-3.0000

G0 Z0
G1 F100 Z-2.5000
G1 F750 X3.0000 Y-3.0000 Z-2.5000 S1000
G1 F750 X2.6346 Y-2.9777 Z-2.5000 S1000
G1 F750 X1.6925 Y-2.8621 Z-2.5000 S1000
G1 F750 X0.7939 Y-2.6051 Z-2.5000 S1000
G1 F750 X-0.0647 Y-2.2062 Z-2.5000 S1000
G1 F750 X-0.4428 Y-1.9962 Z-2.5000 S1000
G1 F750 X-0.9741 Y-1.5534 Z-2.5000 S1000
G1 F750 X-1.6264 Y-0.8678 Z-2.5000 S1000
G1 F750 X-2.1839 Y-0.0417 Z-2.5000 S1000
G1 F750 X-2.5765 Y0.8217 Z-2.5000 S1000
G1 F750 X-2.8056 Y1.5755 Z-2.5000 S1000
G1 F750 X-2.9600 Y2.5120 Z-2.5000 S1000
G1 F750 X-3.0000 Y3.0000 Z-2.5000 S1000
G1 F750 X-3.0000 Y110.0000 Z-2.5000 S1000
G1 F750 X-2.9600 Y110.4880 Z-2.5000 S1000
G1 F750 X-2.8056 Y111.4245 Z-2.5000 S1000
G1 F750 X-2.5765 Y112.1783 Z-2.5000 S1000
G1 F750 X-2.1839 Y113.0417 Z-2.5000 S1000
G1 F750 X-1.6264 Y113.8678 Z-2.5000 S1000
G1 F750 X-0.9741 Y114.5534 Z-2.5000 S1000
G1 F750 X-0.6542 Y114.8444 Z-2.5000 S1000
G1 F750 X-0.0647 Y115.2062 Z-2.5000 S1000
G1 F750 X0.7939 Y115.6051 Z-2.5000 S1000
G1 F750 X1.6925 Y115.8621 Z-2.5000 S1000
G1 F750 X2.6346 Y115.9777 Z-2.5000 S1000
G1 F750 X3.0000 Y116.0000 Z-2.5000 S1000
G1 F750 X193.3673 Y116.0000 Z-2.5000 S1000
G1 F750 X193.7326 Y115.9777 Z-2.5000 S1000
G1 F750 X194.6748 Y115.8621 Z-2.5000 S1000
G1 F750 X195.5736 Y115.6051 Z-2.5000 S1000
G1 F750 X196.4321 Y115.2062 Z-2.5000 S1000
G1 F750 X196.8101 Y114.9962 Z-2.5000 S1000
G1 F750 X197.3414 Y114.5534 Z-2.5000 S1000
G1 F750 X197.9937 Y113.8678 Z-2.5000 S1000
G1 F750 X198.5512 Y113.0417 Z-2.5000 S1000
G1 F750 X198.9438 Y112.1783 Z-2.5000 S1000
G1 F750 X199.1729 Y111.4245 Z-2.5000 S1000
G1 F750 X199.3273 Y110.4880 Z-2.5000 S1000
G1 F750 X199.3673 Y110.0000 Z-2.5000 S1000
G1 F750 X199.3673 Y3.0000 Z-2.5000 S1000
G1 F750 X199.3450 Y2.6346 Z-2.5000 S1000
G1 F750 X199.2294 Y1.6925 Z-2.5000 S1000
G1 F750 X198.9724 Y0.7939 Z-2.5000 S1000
G1 F750 X198.5735 Y-0.0647 Z-2.5000 S1000
G1 F750 X198.3635 Y-0.4428 Z-2.5000 S1000
G1 F750 X197.9207 Y-0.9741 Z-2.5000 S1000
G1 F750 X197.2351 Y-1.6264 Z-2.5000 S1000
G1 F750 X196.4090 Y-2.1839 Z-2.5000 S1000
G1 F750 X195.5456 Y-2.5765 Z-2.5000 S1000
G1 F750 X194.7918 Y-2.8056 Z-2.5000 S1000
G1 F750 X193.8553 Y-2.9600 Z-2.5000 S1000
G1 F750 X193.3673 Y-3.0000 Z-2.5000 S1000
G1 F100 Z-5.0000
G1 F750 X3.0000 Y-3.0000 Z-5.0000 S1000
G1 F750 X2.6346 Y-2.9777 Z-5.0000 S1000
G1 F750 X1.6925 Y-2.8621 Z-5.0000 S1000
G1 F750 X0.7939 Y-2.6051 Z-5.0000 S1000
G1 F750 X-0.0647 Y-2.2062 Z-5.0000 S1000
G1 F750 X-0.4428 Y-1.9962 Z-5.0000 S1000
G1 F750 X-0.9741 Y-1.5534 Z-5.0000 S1000
G1 F750 X-1.6264 Y-0.8678 Z-5.0000 S1000
G1 F750 X-2.1839 Y-0.0417 Z-5.0000 S1000
G1 F750 X-2.5765 Y0.8217 Z-5.0000 S1000
G1 F750 X-2.8056 Y1.5755 Z-5.0000 S1000
G1 F750 X-2.9600 Y2.5120 Z-5.0000 S1000
G1 F750 X-3.0000 Y3.0000 Z-5.0000 S1000
G1 F750 X-3.0000 Y110.0000 Z-5.0000 S1000
G1 F750 X-2.9600 Y110.4880 Z-5.0000 S1000
G1 F750 X-2.8056 Y111.4245 Z-5.0000 S1000
G1 F750 X-2.5765 Y112.1783 Z-5.0000 S1000
G1 F750 X-2.1839 Y113.0417 Z-5.0000 S1000
G1 F750 X-1.6264 Y113.8678 Z-5.0000 S1000
G1 F750 X-0.9741 Y114.5534 Z-5.0000 S1000
G1 F750 X-0.6542 Y114.8444 Z-5.0000 S1000
G1 F750 X-0.0647 Y115.2062 Z-5.0000 S1000
G1 F750 X0.7939 Y115.6051 Z-5.0000 S1000
G1 F750 X1.6925 Y115.8621 Z-5.0000 S1000
G1 F750 X2.6346 Y115.9777 Z-5.0000 S1000
G1 F750 X3.0000 Y116.0000 Z-5.0000 S1000
G1 F750 X193.3673 Y116.0000 Z-5.0000 S1000
G1 F750 X193.7326 Y115.9777 Z-5.0000 S1000
G1 F750 X194.6748 Y115.8621 Z-5.0000 S1000
G1 F750 X195.5736 Y115.6051 Z-5.0000 S1000
G1 F750 X196.4321 Y115.2062 Z-5.0000 S1000
G1 F750 X196.8101 Y114.9962 Z-5.0000 S1000
G1 F750 X197.3414 Y114.5534 Z-5.0000 S1000
G1 F750 X197.9937 Y113.8678 Z-5.0000 S1000
G1 F750 X198.5512 Y113.0417 Z-5.0000 S1000
G1 F750 X198.9438 Y112.1783 Z-5.0000 S1000
G1 F750 X199.1729 Y111.4245 Z-5.0000 S1000
G1 F750 X199.3273 Y110.4880 Z-5.0000 S1000
G1 F750 X199.3673 Y110.0000 Z-5.0000 S1000
G1 F750 X199.3673 Y3.0000 Z-5.0000 S1000
G1 F750 X199.3450 Y2.6346 Z-5.0000 S1000
G1 F750 X199.2294 Y1.6925 Z-5.0000 S1000
G1 F750 X198.9724 Y0.7939 Z-5.0000 S1000
G1 F750 X198.5735 Y-0.0647 Z-5.0000 S1000
G1 F750 X198.3635 Y-0.4428 Z-5.0000 S1000
G1 F750 X197.9207 Y-0.9741 Z-5.0000 S1000
G1 F750 X197.2351 Y-1.6264 Z-5.0000 S1000
G1 F750 X196.4090 Y-2.1839 Z-5.0000 S1000
G1 F750 X195.5456 Y-2.5765 Z-5.0000 S1000
G1 F750 X194.7918 Y-2.8056 Z-5.0000 S1000
G1 F750 X193.8553 Y-2.9600 Z-5.0000 S1000
G1 F750 X193.3673 Y-3.0000 Z-5.0000 S1000
G1 F100 Z-7.5000
G1 F750 X104.1837 Y-3.0000 Z-7.5000 S1000
G1 F750 X104.1837 Y-3.0000 Z-6.0000 S1000
G1 F750 X92.1837 Y-3.0000 Z-6.0000 S1000
G1 F750 X92.1837 Y-3.0000 Z-7.5000 S1000
G1 F750 X3.0000 Y-3.0000 Z-7.5000 S1000
G1 F750 X3.0000 Y-3.0000 Z-7.5000 S1000
G1 F750 X2.6346 Y-2.9777 Z-7.5000 S1000
G1 F750 X1.6925 Y-2.8621 Z-7.5000 S1000
G1 F750 X0.7939 Y-2.6051 Z-7.5000 S1000
G1 F750 X-0.0647 Y-2.2062 Z-7.5000 S1000
G1 F750 X-0.4428 Y-1.9962 Z-7.5000 S1000
G1 F750 X-0.9741 Y-1.5534 Z-7.5000 S1000
G1 F750 X-1.6264 Y-0.8678 Z-7.5000 S1000
G1 F750 X-2.1839 Y-0.0417 Z-7.5000 S1000
G1 F750 X-2.5765 Y0.8217 Z-7.5000 S1000
G1 F750 X-2.8056 Y1.5755 Z-7.5000 S1000
G1 F750 X-2.9600 Y2.5120 Z-7.5000 S1000
G1 F750 X-3.0000 Y3.0000 Z-7.5000 S1000
G1 F750 X-3.0000 Y50.5000 Z-7.5000 S1000
G1 F750 X-3.0000 Y50.5000 Z-6.0000 S1000
G1 F750 X-3.0000 Y62.5000 Z-6.0000 S1000
G1 F750 X-3.0000 Y62.5000 Z-7.5000 S1000
G1 F750 X-3.0000 Y110.0000 Z-7.5000 S1000
G1 F750 X-3.0000 Y110.0000 Z-7.5000 S1000
G1 F750 X-2.9600 Y110.4880 Z-7.5000 S1000
G1 F750 X-2.8056 Y111.4245 Z-7.5000 S1000
G1 F750 X-2.5765 Y112.1783 Z-7.5000 S1000
G1 F750 X-2.1839 Y113.0417 Z-7.5000 S1000
G1 F750 X-1.6264 Y113.8678 Z-7.5000 S1000
G1 F750 X-0.9741 Y114.5534 Z-7.5000 S1000
G1 F750 X-0.6542 Y114.8444 Z-7.5000 S1000
G1 F750 X-0.0647 Y115.2062 Z-7.5000 S1000
G1 F750 X0.7939 Y115.6051 Z-7.5000 S1000
G1 F750 X1.6925 Y115.8621 Z-7.5000 S1000
G1 F750 X2.6346 Y115.9777 Z-7.5000 S1000
G1 F750 X3.0000 Y116.0000 Z-7.5000 S1000
G1 F750 X193.3673 Y116.0000 Z-7.5000 S1000
G1 F750 X193.7326 Y115.9777 Z-7.5000 S1000
G1 F750 X194.6748 Y115.8621 Z-7.5000 S1000
G1 F750 X195.5736 Y115.6051 Z-7.5000 S1000
G1 F750 X196.4321 Y115.2062 Z-7.5000 S1000
G1 F750 X196.8101 Y114.9962 Z-7.5000 S1000
G1 F750 X197.3414 Y114.5534 Z-7.5000 S1000
G1 F750 X197.9937 Y113.8678 Z-7.5000 S1000
G1 F750 X198.5512 Y113.0417 Z-7.5000 S1000
G1 F750 X198.9438 Y112.1783 Z-7.5000 S1000
G1 F750 X199.1729 Y111.4245 Z-7.5000 S1000
G1 F750 X199.3273 Y110.4880 Z-7.5000 S1000
G1 F750 X199.3673 Y110.0000 Z-7.5000 S1000
G1 F750 X199.3673 Y62.5000 Z-7.5000 S1000
G1 F750 X199.3673 Y62.5000 Z-6.0000 S1000
G1 F750 X199.3673 Y50.5000 Z-6.0000 S1000
G1 F750 X199.3673 Y50.5000 Z-7.5000 S1000
G1 F750 X199.3673 Y3.0000 Z-7.5000 S1000
G1 F750 X199.3673 Y3.0000 Z-7.5000 S1000
G1 F750 X199.3450 Y2.6346 Z-7.5000 S1000
G1 F750 X199.2294 Y1.6925 Z-7.5000 S1000
G1 F750 X198.9724 Y0.7939 Z-7.5000 S1000
G1 F750 X198.5735 Y-0.0647 Z-7.5000 S1000
G1 F750 X198.3635 Y-0.4428 Z-7.5000 S1000
G1 F750 X197.9207 Y-0.9741 Z-7.5000 S1000
G1 F750 X197.2351 Y-1.6264 Z-7.5000 S1000
G1 F750 X196.4090 Y-2.1839 Z-7.5000 S1000
G1 F750 X195.5456 Y-2.5765 Z-7.5000 S1000
G1 F750 X194.7918 Y-2.8056 Z-7.5000 S1000
G1 F750 X193.8553 Y-2.9600 Z-7.5000 S1000
G1 F750 X193.3673 Y-3.0000 Z-7.5000 S1000
G1 F100 Z-9.0000
G1 F750 X104.1837 Y-3.0000 Z-9.0000 S1000
G1 F750 X104.1837 Y-3.0000 Z-6.0000 S1000
G1 F750 X92.1837 Y-3.0000 Z-6.0000 S1000
G1 F750 X92.1837 Y-3.0000 Z-9.0000 S1000
G1 F750 X3.0000 Y-3.0000 Z-9.0000 S1000
G1 F750 X3.0000 Y-3.0000 Z-9.0000 S1000
G1 F750 X2.6346 Y-2.9777 Z-9.0000 S1000
G1 F750 X1.6925 Y-2.8621 Z-9.0000 S1000
G1 F750 X0.7939 Y-2.6051 Z-9.0000 S1000
G1 F750 X-0.0647 Y-2.2062 Z-9.0000 S1000
G1 F750 X-0.4428 Y-1.9962 Z-9.0000 S1000
G1 F750 X-0.9741 Y-1.5534 Z-9.0000 S1000
G1 F750 X-1.6264 Y-0.8678 Z-9.0000 S1000
G1 F750 X-2.1839 Y-0.0417 Z-9.0000 S1000
G1 F750 X-2.5765 Y0.8217 Z-9.0000 S1000
G1 F750 X-2.8056 Y1.5755 Z-9.0000 S1000
G1 F750 X-2.9600 Y2.5120 Z-9.0000 S1000
G1 F750 X-3.0000 Y3.0000 Z-9.0000 S1000
G1 F750 X-3.0000 Y50.5000 Z-9.0000 S1000
G1 F750 X-3.0000 Y50.5000 Z-6.0000 S1000
G1 F750 X-3.0000 Y62.5000 Z-6.0000 S1000
G1 F750 X-3.0000 Y62.5000 Z-9.0000 S1000
G1 F750 X-3.0000 Y110.0000 Z-9.0000 S1000
G1 F750 X-3.0000 Y110.0000 Z-9.0000 S1000
G1 F750 X-2.9600 Y110.4880 Z-9.0000 S1000
G1 F750 X-2.8056 Y111.4245 Z-9.0000 S1000
G1 F750 X-2.5765 Y112.1783 Z-9.0000 S1000
G1 F750 X-2.1839 Y113.0417 Z-9.0000 S1000
G1 F750 X-1.6264 Y113.8678 Z-9.0000 S1000
G1 F750 X-0.9741 Y114.5534 Z-9.0000 S1000
G1 F750 X-0.6542 Y114.8444 Z-9.0000 S1000
G1 F750 X-0.0647 Y115.2062 Z-9.0000 S1000
G1 F750 X0.7939 Y115.6051 Z-9.0000 S1000
G1 F750 X1.6925 Y115.8621 Z-9.0000 S1000
G1 F750 X2.6346 Y115.9777 Z-9.0000 S1000
G1 F750 X3.0000 Y116.0000 Z-9.0000 S1000
G1 F750 X193.3673 Y116.0000 Z-9.0000 S1000
G1 F750 X193.7326 Y115.9777 Z-9.0000 S1000
G1 F750 X194.6748 Y115.8621 Z-9.0000 S1000
G1 F750 X195.5736 Y115.6051 Z-9.0000 S1000
G1 F750 X196.4321 Y115.2062 Z-9.0000 S1000
G1 F750 X196.8101 Y114.9962 Z-9.0000 S1000
G1 F750 X197.3414 Y114.5534 Z-9.0000 S1000
G1 F750 X197.9937 Y113.8678 Z-9.0000 S1000
G1 F750 X198.5512 Y113.0417 Z-9.0000 S1000
G1 F750 X198.9438 Y112.1783 Z-9.0000 S1000
G1 F750 X199.1729 Y111.4245 Z-9.0000 S1000
G1 F750 X199.3273 Y110.4880 Z-9.0000 S1000
G1 F750 X199.3673 Y110.0000 Z-9.0000 S1000
G1 F750 X199.3673 Y62.5000 Z-9.0000 S1000
G1 F750 X199.3673 Y62.5000 Z-6.0000 S1000
G1 F750 X199.3673 Y50.5000 Z-6.0000 S1000
G1 F750 X199.3673 Y50.5000 Z-9.0000 S1000
G1 F750 X199.3673 Y3.0000 Z-9.0000 S1000
G1 F750 X199.3673 Y3.0000 Z-9.0000 S1000
G1 F750 X199.3450 Y2.6346 Z-9.0000 S1000
G1 F750 X199.2294 Y1.6925 Z-9.0000 S1000
G1 F750 X198.9724 Y0.7939 Z-9.0000 S1000
G1 F750 X198.5735 Y-0.0647 Z-9.0000 S1000
G1 F750 X198.3635 Y-0.4428 Z-9.0000 S1000
G1 F750 X197.9207 Y-0.9741 Z-9.0000 S1000
G1 F750 X197.2351 Y-1.6264 Z-9.0000 S1000
G1 F750 X196.4090 Y-2.1839 Z-9.0000 S1000
G1 F750 X195.5456 Y-2.5765 Z-9.0000 S1000
G1 F750 X194.7918 Y-2.8056 Z-9.0000 S1000
G1 F750 X193.8553 Y-2.9600 Z-9.0000 S1000
G1 F750 X193.3673 Y-3.0000 Z-9.0000 S1000
; retracting back to z-safe
G0 Z10

M5 S0; Spindle Off
