; GCODE Generated by cam.openbuilds.com on 2021-03-08 
G21 ; mm-mode
G54; Work Coordinates
G21; mm-mode
G90; Absolute Positioning
M3 S1000; Spindle On

; Operation 0: Drill: Continuous (Centered)
; Endmill Diameter: 6

G0 Z10; move to z-safe height
G0 F1000 X188.7649 Y41.8204

G0 Z0
G1 F100 Z0.0000
G1 F500 X188.7649 Y41.8204 Z-1.5000 S1000
G1 F500 X188.7649 Y41.8204 Z0.0000 S1000

G0 Z10; move to z-safe height
G0 X7.6029 Y77.4038

G0 Z0
G1 F100 Z0.0000
G1 F500 X7.6029 Y77.4038 Z-1.5000 S1000
G1 F500 X7.6029 Y77.4038 Z0.0000 S1000

G0 Z10; move to z-safe height
G0 X7.6029 Y41.8204

G0 Z0
G1 F100 Z0.0000
G1 F500 X7.6029 Y41.8204 Z-1.5000 S1000
G1 F500 X7.6029 Y41.8204 Z0.0000 S1000

G0 Z10; move to z-safe height
G0 X188.7649 Y77.4038

G0 Z0
G1 F100 Z0.0000
G1 F500 X188.7649 Y77.4038 Z-1.5000 S1000
G1 F500 X188.7649 Y77.4038 Z0.0000 S1000
; retracting back to z-safe
G0 Z10
; Operation 1: CNC: Vector (path outside)
; Endmill Diameter: 6

G0 Z10; move to z-safe height
G0 F1000 X3.0003 Y-3.0000

G0 Z0
G1 F100 Z-2.5000
G1 F500 X2.6115 Y-2.9862 Z-2.5000 S1000
G1 F500 X2.0941 Y-2.9305 Z-2.5000 S1000
G1 F500 X1.5804 Y-2.8296 Z-2.5000 S1000
G1 F500 X1.0762 Y-2.6837 Z-2.5000 S1000
G1 F500 X0.5868 Y-2.4942 Z-2.5000 S1000
G1 F500 X0.1156 Y-2.2624 Z-2.5000 S1000
G1 F500 X-0.3325 Y-1.9909 Z-2.5000 S1000
G1 F500 X-0.7559 Y-1.6806 Z-2.5000 S1000
G1 F500 X-1.1496 Y-1.3355 Z-2.5000 S1000
G1 F500 X-1.5121 Y-0.9568 Z-2.5000 S1000
G1 F500 X-1.8393 Y-0.5491 Z-2.5000 S1000
G1 F500 X-2.1304 Y-0.1134 Z-2.5000 S1000
G1 F500 X-2.3828 Y0.3471 Z-2.5000 S1000
G1 F500 X-2.5938 Y0.8280 Z-2.5000 S1000
G1 F500 X-2.7619 Y1.3256 Z-2.5000 S1000
G1 F500 X-2.8856 Y1.8357 Z-2.5000 S1000
G1 F500 X-2.9640 Y2.3532 Z-2.5000 S1000
G1 F500 X-2.9973 Y2.8715 Z-2.5000 S1000
G1 F500 X-3.0000 Y110.0000 Z-2.5000 S1000
G1 F500 X-2.9861 Y110.3900 Z-2.5000 S1000
G1 F500 X-2.9304 Y110.9063 Z-2.5000 S1000
G1 F500 X-2.8295 Y111.4199 Z-2.5000 S1000
G1 F500 X-2.6836 Y111.9241 Z-2.5000 S1000
G1 F500 X-2.4939 Y112.4138 Z-2.5000 S1000
G1 F500 X-2.2620 Y112.8851 Z-2.5000 S1000
G1 F500 X-1.9897 Y113.3341 Z-2.5000 S1000
G1 F500 X-1.6799 Y113.7566 Z-2.5000 S1000
G1 F500 X-1.3352 Y114.1497 Z-2.5000 S1000
G1 F500 X-0.9565 Y114.5122 Z-2.5000 S1000
G1 F500 X-0.5481 Y114.8398 Z-2.5000 S1000
G1 F500 X-0.1115 Y115.1313 Z-2.5000 S1000
G1 F500 X0.3479 Y115.3829 Z-2.5000 S1000
G1 F500 X0.8289 Y115.5939 Z-2.5000 S1000
G1 F500 X1.3261 Y115.7618 Z-2.5000 S1000
G1 F500 X1.8362 Y115.8855 Z-2.5000 S1000
G1 F500 X2.3539 Y115.9639 Z-2.5000 S1000
G1 F500 X2.8731 Y115.9971 Z-2.5000 S1000
G1 F500 X74.7344 Y115.9998 Z-2.5000 S1000
G1 F500 X75.2844 Y115.9489 Z-2.5000 S1000
G1 F500 X75.9452 Y115.7446 Z-2.5000 S1000
G1 F500 X76.5416 Y115.3944 Z-2.5000 S1000
G1 F500 X77.0420 Y114.9168 Z-2.5000 S1000
G1 F500 X77.4197 Y114.3374 Z-2.5000 S1000
G1 F500 X77.6547 Y113.6869 Z-2.5000 S1000
G1 F500 X77.7344 Y112.9998 Z-2.5000 S1000
G1 F500 X77.7344 Y110.9092 Z-2.5000 S1000
G1 F500 X116.7343 Y110.9092 Z-2.5000 S1000
G1 F500 X116.7343 Y112.9998 Z-2.5000 S1000
G1 F500 X116.7852 Y113.5498 Z-2.5000 S1000
G1 F500 X116.9895 Y114.2106 Z-2.5000 S1000
G1 F500 X117.3397 Y114.8070 Z-2.5000 S1000
G1 F500 X117.8173 Y115.3074 Z-2.5000 S1000
G1 F500 X118.3967 Y115.6851 Z-2.5000 S1000
G1 F500 X119.0472 Y115.9201 Z-2.5000 S1000
G1 F500 X119.7343 Y115.9998 Z-2.5000 S1000
G1 F500 X193.3675 Y115.9998 Z-2.5000 S1000
G1 F500 X193.7563 Y115.9860 Z-2.5000 S1000
G1 F500 X194.2738 Y115.9303 Z-2.5000 S1000
G1 F500 X194.7875 Y115.8293 Z-2.5000 S1000
G1 F500 X195.2915 Y115.6835 Z-2.5000 S1000
G1 F500 X195.7809 Y115.4940 Z-2.5000 S1000
G1 F500 X196.2517 Y115.2624 Z-2.5000 S1000
G1 F500 X196.7007 Y114.9903 Z-2.5000 S1000
G1 F500 X197.1241 Y114.6800 Z-2.5000 S1000
G1 F500 X197.5178 Y114.3346 Z-2.5000 S1000
G1 F500 X197.8792 Y113.9572 Z-2.5000 S1000
G1 F500 X198.2073 Y113.5482 Z-2.5000 S1000
G1 F500 X198.4984 Y113.1122 Z-2.5000 S1000
G1 F500 X198.7500 Y112.6532 Z-2.5000 S1000
G1 F500 X198.9615 Y112.1713 Z-2.5000 S1000
G1 F500 X199.1296 Y111.6730 Z-2.5000 S1000
G1 F500 X199.2530 Y111.1640 Z-2.5000 S1000
G1 F500 X199.3314 Y110.6465 Z-2.5000 S1000
G1 F500 X199.3646 Y110.1272 Z-2.5000 S1000
G1 F500 X199.3673 Y2.9998 Z-2.5000 S1000
G1 F500 X199.3535 Y2.6110 Z-2.5000 S1000
G1 F500 X199.2978 Y2.0936 Z-2.5000 S1000
G1 F500 X199.1969 Y1.5800 Z-2.5000 S1000
G1 F500 X199.0514 Y1.0769 Z-2.5000 S1000
G1 F500 X198.8616 Y0.5864 Z-2.5000 S1000
G1 F500 X198.6292 Y0.1143 Z-2.5000 S1000
G1 F500 X198.3578 Y-0.3333 Z-2.5000 S1000
G1 F500 X198.0479 Y-0.7562 Z-2.5000 S1000
G1 F500 X197.7023 Y-1.1504 Z-2.5000 S1000
G1 F500 X197.3247 Y-1.5118 Z-2.5000 S1000
G1 F500 X196.9164 Y-1.8396 Z-2.5000 S1000
G1 F500 X196.4798 Y-2.1311 Z-2.5000 S1000
G1 F500 X196.0193 Y-2.3833 Z-2.5000 S1000
G1 F500 X195.5388 Y-2.5941 Z-2.5000 S1000
G1 F500 X195.0416 Y-2.7620 Z-2.5000 S1000
G1 F500 X194.5318 Y-2.8856 Z-2.5000 S1000
G1 F500 X194.0141 Y-2.9641 Z-2.5000 S1000
G1 F500 X193.4946 Y-2.9973 Z-2.5000 S1000
G1 F500 X3.0003 Y-3.0000 Z-2.5000 S1000
G1 F100 Z-5.0000
G1 F500 X2.6115 Y-2.9862 Z-5.0000 S1000
G1 F500 X2.0941 Y-2.9305 Z-5.0000 S1000
G1 F500 X1.5804 Y-2.8296 Z-5.0000 S1000
G1 F500 X1.0762 Y-2.6837 Z-5.0000 S1000
G1 F500 X0.5868 Y-2.4942 Z-5.0000 S1000
G1 F500 X0.1156 Y-2.2624 Z-5.0000 S1000
G1 F500 X-0.3325 Y-1.9909 Z-5.0000 S1000
G1 F500 X-0.7559 Y-1.6806 Z-5.0000 S1000
G1 F500 X-1.1496 Y-1.3355 Z-5.0000 S1000
G1 F500 X-1.5121 Y-0.9568 Z-5.0000 S1000
G1 F500 X-1.8393 Y-0.5491 Z-5.0000 S1000
G1 F500 X-2.1304 Y-0.1134 Z-5.0000 S1000
G1 F500 X-2.3828 Y0.3471 Z-5.0000 S1000
G1 F500 X-2.5938 Y0.8280 Z-5.0000 S1000
G1 F500 X-2.7619 Y1.3256 Z-5.0000 S1000
G1 F500 X-2.8856 Y1.8357 Z-5.0000 S1000
G1 F500 X-2.9640 Y2.3532 Z-5.0000 S1000
G1 F500 X-2.9973 Y2.8715 Z-5.0000 S1000
G1 F500 X-3.0000 Y110.0000 Z-5.0000 S1000
G1 F500 X-2.9861 Y110.3900 Z-5.0000 S1000
G1 F500 X-2.9304 Y110.9063 Z-5.0000 S1000
G1 F500 X-2.8295 Y111.4199 Z-5.0000 S1000
G1 F500 X-2.6836 Y111.9241 Z-5.0000 S1000
G1 F500 X-2.4939 Y112.4138 Z-5.0000 S1000
G1 F500 X-2.2620 Y112.8851 Z-5.0000 S1000
G1 F500 X-1.9897 Y113.3341 Z-5.0000 S1000
G1 F500 X-1.6799 Y113.7566 Z-5.0000 S1000
G1 F500 X-1.3352 Y114.1497 Z-5.0000 S1000
G1 F500 X-0.9565 Y114.5122 Z-5.0000 S1000
G1 F500 X-0.5481 Y114.8398 Z-5.0000 S1000
G1 F500 X-0.1115 Y115.1313 Z-5.0000 S1000
G1 F500 X0.3479 Y115.3829 Z-5.0000 S1000
G1 F500 X0.8289 Y115.5939 Z-5.0000 S1000
G1 F500 X1.3261 Y115.7618 Z-5.0000 S1000
G1 F500 X1.8362 Y115.8855 Z-5.0000 S1000
G1 F500 X2.3539 Y115.9639 Z-5.0000 S1000
G1 F500 X2.8731 Y115.9971 Z-5.0000 S1000
G1 F500 X74.7344 Y115.9998 Z-5.0000 S1000
G1 F500 X75.2844 Y115.9489 Z-5.0000 S1000
G1 F500 X75.9452 Y115.7446 Z-5.0000 S1000
G1 F500 X76.5416 Y115.3944 Z-5.0000 S1000
G1 F500 X77.0420 Y114.9168 Z-5.0000 S1000
G1 F500 X77.4197 Y114.3374 Z-5.0000 S1000
G1 F500 X77.6547 Y113.6869 Z-5.0000 S1000
G1 F500 X77.7344 Y112.9998 Z-5.0000 S1000
G1 F500 X77.7344 Y110.9092 Z-5.0000 S1000
G1 F500 X116.7343 Y110.9092 Z-5.0000 S1000
G1 F500 X116.7343 Y112.9998 Z-5.0000 S1000
G1 F500 X116.7852 Y113.5498 Z-5.0000 S1000
G1 F500 X116.9895 Y114.2106 Z-5.0000 S1000
G1 F500 X117.3397 Y114.8070 Z-5.0000 S1000
G1 F500 X117.8173 Y115.3074 Z-5.0000 S1000
G1 F500 X118.3967 Y115.6851 Z-5.0000 S1000
G1 F500 X119.0472 Y115.9201 Z-5.0000 S1000
G1 F500 X119.7343 Y115.9998 Z-5.0000 S1000
G1 F500 X193.3675 Y115.9998 Z-5.0000 S1000
G1 F500 X193.7563 Y115.9860 Z-5.0000 S1000
G1 F500 X194.2738 Y115.9303 Z-5.0000 S1000
G1 F500 X194.7875 Y115.8293 Z-5.0000 S1000
G1 F500 X195.2915 Y115.6835 Z-5.0000 S1000
G1 F500 X195.7809 Y115.4940 Z-5.0000 S1000
G1 F500 X196.2517 Y115.2624 Z-5.0000 S1000
G1 F500 X196.7007 Y114.9903 Z-5.0000 S1000
G1 F500 X197.1241 Y114.6800 Z-5.0000 S1000
G1 F500 X197.5178 Y114.3346 Z-5.0000 S1000
G1 F500 X197.8792 Y113.9572 Z-5.0000 S1000
G1 F500 X198.2073 Y113.5482 Z-5.0000 S1000
G1 F500 X198.4984 Y113.1122 Z-5.0000 S1000
G1 F500 X198.7500 Y112.6532 Z-5.0000 S1000
G1 F500 X198.9615 Y112.1713 Z-5.0000 S1000
G1 F500 X199.1296 Y111.6730 Z-5.0000 S1000
G1 F500 X199.2530 Y111.1640 Z-5.0000 S1000
G1 F500 X199.3314 Y110.6465 Z-5.0000 S1000
G1 F500 X199.3646 Y110.1272 Z-5.0000 S1000
G1 F500 X199.3673 Y2.9998 Z-5.0000 S1000
G1 F500 X199.3535 Y2.6110 Z-5.0000 S1000
G1 F500 X199.2978 Y2.0936 Z-5.0000 S1000
G1 F500 X199.1969 Y1.5800 Z-5.0000 S1000
G1 F500 X199.0514 Y1.0769 Z-5.0000 S1000
G1 F500 X198.8616 Y0.5864 Z-5.0000 S1000
G1 F500 X198.6292 Y0.1143 Z-5.0000 S1000
G1 F500 X198.3578 Y-0.3333 Z-5.0000 S1000
G1 F500 X198.0479 Y-0.7562 Z-5.0000 S1000
G1 F500 X197.7023 Y-1.1504 Z-5.0000 S1000
G1 F500 X197.3247 Y-1.5118 Z-5.0000 S1000
G1 F500 X196.9164 Y-1.8396 Z-5.0000 S1000
G1 F500 X196.4798 Y-2.1311 Z-5.0000 S1000
G1 F500 X196.0193 Y-2.3833 Z-5.0000 S1000
G1 F500 X195.5388 Y-2.5941 Z-5.0000 S1000
G1 F500 X195.0416 Y-2.7620 Z-5.0000 S1000
G1 F500 X194.5318 Y-2.8856 Z-5.0000 S1000
G1 F500 X194.0141 Y-2.9641 Z-5.0000 S1000
G1 F500 X193.4946 Y-2.9973 Z-5.0000 S1000
G1 F500 X3.0003 Y-3.0000 Z-5.0000 S1000
G1 F100 Z-7.5000
G1 F500 X2.6115 Y-2.9862 Z-7.5000 S1000
G1 F500 X2.0941 Y-2.9305 Z-7.5000 S1000
G1 F500 X1.5804 Y-2.8296 Z-7.5000 S1000
G1 F500 X1.0762 Y-2.6837 Z-7.5000 S1000
G1 F500 X0.5868 Y-2.4942 Z-7.5000 S1000
G1 F500 X0.1156 Y-2.2624 Z-7.5000 S1000
G1 F500 X-0.3325 Y-1.9909 Z-7.5000 S1000
G1 F500 X-0.7559 Y-1.6806 Z-7.5000 S1000
G1 F500 X-1.1496 Y-1.3355 Z-7.5000 S1000
G1 F500 X-1.5121 Y-0.9568 Z-7.5000 S1000
G1 F500 X-1.8393 Y-0.5491 Z-7.5000 S1000
G1 F500 X-2.1304 Y-0.1134 Z-7.5000 S1000
G1 F500 X-2.3828 Y0.3471 Z-7.5000 S1000
G1 F500 X-2.5938 Y0.8280 Z-7.5000 S1000
G1 F500 X-2.7619 Y1.3256 Z-7.5000 S1000
G1 F500 X-2.8856 Y1.8357 Z-7.5000 S1000
G1 F500 X-2.9640 Y2.3532 Z-7.5000 S1000
G1 F500 X-2.9973 Y2.8715 Z-7.5000 S1000
G1 F500 X-2.9985 Y50.9358 Z-7.5000 S1000
G1 F500 X-2.9985 Y50.9358 Z-7.0000 S1000
G1 F500 X-2.9988 Y61.9357 Z-7.0000 S1000
G1 F500 X-2.9988 Y61.9357 Z-7.5000 S1000
G1 F500 X-3.0000 Y110.0000 Z-7.5000 S1000
G1 F500 X-3.0000 Y110.0000 Z-7.5000 S1000
G1 F500 X-2.9861 Y110.3900 Z-7.5000 S1000
G1 F500 X-2.9304 Y110.9063 Z-7.5000 S1000
G1 F500 X-2.8295 Y111.4199 Z-7.5000 S1000
G1 F500 X-2.6836 Y111.9241 Z-7.5000 S1000
G1 F500 X-2.4939 Y112.4138 Z-7.5000 S1000
G1 F500 X-2.2620 Y112.8851 Z-7.5000 S1000
G1 F500 X-1.9897 Y113.3341 Z-7.5000 S1000
G1 F500 X-1.6799 Y113.7566 Z-7.5000 S1000
G1 F500 X-1.3352 Y114.1497 Z-7.5000 S1000
G1 F500 X-0.9565 Y114.5122 Z-7.5000 S1000
G1 F500 X-0.5481 Y114.8398 Z-7.5000 S1000
G1 F500 X-0.1115 Y115.1313 Z-7.5000 S1000
G1 F500 X0.3479 Y115.3829 Z-7.5000 S1000
G1 F500 X0.8289 Y115.5939 Z-7.5000 S1000
G1 F500 X1.3261 Y115.7618 Z-7.5000 S1000
G1 F500 X1.8362 Y115.8855 Z-7.5000 S1000
G1 F500 X2.3539 Y115.9639 Z-7.5000 S1000
G1 F500 X2.8731 Y115.9971 Z-7.5000 S1000
G1 F500 X74.7344 Y115.9998 Z-7.5000 S1000
G1 F500 X75.2844 Y115.9489 Z-7.5000 S1000
G1 F500 X75.9452 Y115.7446 Z-7.5000 S1000
G1 F500 X76.5416 Y115.3944 Z-7.5000 S1000
G1 F500 X77.0420 Y114.9168 Z-7.5000 S1000
G1 F500 X77.4197 Y114.3374 Z-7.5000 S1000
G1 F500 X77.6547 Y113.6869 Z-7.5000 S1000
G1 F500 X77.7344 Y112.9998 Z-7.5000 S1000
G1 F500 X77.7344 Y110.9092 Z-7.5000 S1000
G1 F500 X116.7343 Y110.9092 Z-7.5000 S1000
G1 F500 X116.7343 Y112.9998 Z-7.5000 S1000
G1 F500 X116.7852 Y113.5498 Z-7.5000 S1000
G1 F500 X116.9895 Y114.2106 Z-7.5000 S1000
G1 F500 X117.3397 Y114.8070 Z-7.5000 S1000
G1 F500 X117.8173 Y115.3074 Z-7.5000 S1000
G1 F500 X118.3967 Y115.6851 Z-7.5000 S1000
G1 F500 X119.0472 Y115.9201 Z-7.5000 S1000
G1 F500 X119.7343 Y115.9998 Z-7.5000 S1000
G1 F500 X193.3675 Y115.9998 Z-7.5000 S1000
G1 F500 X193.7563 Y115.9860 Z-7.5000 S1000
G1 F500 X194.2738 Y115.9303 Z-7.5000 S1000
G1 F500 X194.7875 Y115.8293 Z-7.5000 S1000
G1 F500 X195.2915 Y115.6835 Z-7.5000 S1000
G1 F500 X195.7809 Y115.4940 Z-7.5000 S1000
G1 F500 X196.2517 Y115.2624 Z-7.5000 S1000
G1 F500 X196.7007 Y114.9903 Z-7.5000 S1000
G1 F500 X197.1241 Y114.6800 Z-7.5000 S1000
G1 F500 X197.5178 Y114.3346 Z-7.5000 S1000
G1 F500 X197.8792 Y113.9572 Z-7.5000 S1000
G1 F500 X198.2073 Y113.5482 Z-7.5000 S1000
G1 F500 X198.4984 Y113.1122 Z-7.5000 S1000
G1 F500 X198.7500 Y112.6532 Z-7.5000 S1000
G1 F500 X198.9615 Y112.1713 Z-7.5000 S1000
G1 F500 X199.1296 Y111.6730 Z-7.5000 S1000
G1 F500 X199.2530 Y111.1640 Z-7.5000 S1000
G1 F500 X199.3314 Y110.6465 Z-7.5000 S1000
G1 F500 X199.3646 Y110.1272 Z-7.5000 S1000
G1 F500 X199.3673 Y2.9998 Z-7.5000 S1000
G1 F500 X199.3535 Y2.6110 Z-7.5000 S1000
G1 F500 X199.2978 Y2.0936 Z-7.5000 S1000
G1 F500 X199.1969 Y1.5800 Z-7.5000 S1000
G1 F500 X199.0514 Y1.0769 Z-7.5000 S1000
G1 F500 X198.8616 Y0.5864 Z-7.5000 S1000
G1 F500 X198.6292 Y0.1143 Z-7.5000 S1000
G1 F500 X198.3578 Y-0.3333 Z-7.5000 S1000
G1 F500 X198.0479 Y-0.7562 Z-7.5000 S1000
G1 F500 X197.7023 Y-1.1504 Z-7.5000 S1000
G1 F500 X197.3247 Y-1.5118 Z-7.5000 S1000
G1 F500 X196.9164 Y-1.8396 Z-7.5000 S1000
G1 F500 X196.4798 Y-2.1311 Z-7.5000 S1000
G1 F500 X196.0193 Y-2.3833 Z-7.5000 S1000
G1 F500 X195.5388 Y-2.5941 Z-7.5000 S1000
G1 F500 X195.0416 Y-2.7620 Z-7.5000 S1000
G1 F500 X194.5318 Y-2.8856 Z-7.5000 S1000
G1 F500 X194.0141 Y-2.9641 Z-7.5000 S1000
G1 F500 X193.4946 Y-2.9973 Z-7.5000 S1000
G1 F500 X3.0003 Y-3.0000 Z-7.5000 S1000
G1 F100 Z-9.0000
G1 F500 X2.6115 Y-2.9862 Z-9.0000 S1000
G1 F500 X2.0941 Y-2.9305 Z-9.0000 S1000
G1 F500 X1.5804 Y-2.8296 Z-9.0000 S1000
G1 F500 X1.0762 Y-2.6837 Z-9.0000 S1000
G1 F500 X0.5868 Y-2.4942 Z-9.0000 S1000
G1 F500 X0.1156 Y-2.2624 Z-9.0000 S1000
G1 F500 X-0.3325 Y-1.9909 Z-9.0000 S1000
G1 F500 X-0.7559 Y-1.6806 Z-9.0000 S1000
G1 F500 X-1.1496 Y-1.3355 Z-9.0000 S1000
G1 F500 X-1.5121 Y-0.9568 Z-9.0000 S1000
G1 F500 X-1.8393 Y-0.5491 Z-9.0000 S1000
G1 F500 X-2.1304 Y-0.1134 Z-9.0000 S1000
G1 F500 X-2.3828 Y0.3471 Z-9.0000 S1000
G1 F500 X-2.5938 Y0.8280 Z-9.0000 S1000
G1 F500 X-2.7619 Y1.3256 Z-9.0000 S1000
G1 F500 X-2.8856 Y1.8357 Z-9.0000 S1000
G1 F500 X-2.9640 Y2.3532 Z-9.0000 S1000
G1 F500 X-2.9973 Y2.8715 Z-9.0000 S1000
G1 F500 X-2.9985 Y50.9358 Z-9.0000 S1000
G1 F500 X-2.9985 Y50.9358 Z-7.0000 S1000
G1 F500 X-2.9988 Y61.9357 Z-7.0000 S1000
G1 F500 X-2.9988 Y61.9357 Z-9.0000 S1000
G1 F500 X-3.0000 Y110.0000 Z-9.0000 S1000
G1 F500 X-3.0000 Y110.0000 Z-9.0000 S1000
G1 F500 X-2.9861 Y110.3900 Z-9.0000 S1000
G1 F500 X-2.9304 Y110.9063 Z-9.0000 S1000
G1 F500 X-2.8295 Y111.4199 Z-9.0000 S1000
G1 F500 X-2.6836 Y111.9241 Z-9.0000 S1000
G1 F500 X-2.4939 Y112.4138 Z-9.0000 S1000
G1 F500 X-2.2620 Y112.8851 Z-9.0000 S1000
G1 F500 X-1.9897 Y113.3341 Z-9.0000 S1000
G1 F500 X-1.6799 Y113.7566 Z-9.0000 S1000
G1 F500 X-1.3352 Y114.1497 Z-9.0000 S1000
G1 F500 X-0.9565 Y114.5122 Z-9.0000 S1000
G1 F500 X-0.5481 Y114.8398 Z-9.0000 S1000
G1 F500 X-0.1115 Y115.1313 Z-9.0000 S1000
G1 F500 X0.3479 Y115.3829 Z-9.0000 S1000
G1 F500 X0.8289 Y115.5939 Z-9.0000 S1000
G1 F500 X1.3261 Y115.7618 Z-9.0000 S1000
G1 F500 X1.8362 Y115.8855 Z-9.0000 S1000
G1 F500 X2.3539 Y115.9639 Z-9.0000 S1000
G1 F500 X2.8731 Y115.9971 Z-9.0000 S1000
G1 F500 X74.7344 Y115.9998 Z-9.0000 S1000
G1 F500 X75.2844 Y115.9489 Z-9.0000 S1000
G1 F500 X75.9452 Y115.7446 Z-9.0000 S1000
G1 F500 X76.5416 Y115.3944 Z-9.0000 S1000
G1 F500 X77.0420 Y114.9168 Z-9.0000 S1000
G1 F500 X77.4197 Y114.3374 Z-9.0000 S1000
G1 F500 X77.6547 Y113.6869 Z-9.0000 S1000
G1 F500 X77.7344 Y112.9998 Z-9.0000 S1000
G1 F500 X77.7344 Y110.9092 Z-9.0000 S1000
G1 F500 X116.7343 Y110.9092 Z-9.0000 S1000
G1 F500 X116.7343 Y112.9998 Z-9.0000 S1000
G1 F500 X116.7852 Y113.5498 Z-9.0000 S1000
G1 F500 X116.9895 Y114.2106 Z-9.0000 S1000
G1 F500 X117.3397 Y114.8070 Z-9.0000 S1000
G1 F500 X117.8173 Y115.3074 Z-9.0000 S1000
G1 F500 X118.3967 Y115.6851 Z-9.0000 S1000
G1 F500 X119.0472 Y115.9201 Z-9.0000 S1000
G1 F500 X119.7343 Y115.9998 Z-9.0000 S1000
G1 F500 X193.3675 Y115.9998 Z-9.0000 S1000
G1 F500 X193.7563 Y115.9860 Z-9.0000 S1000
G1 F500 X194.2738 Y115.9303 Z-9.0000 S1000
G1 F500 X194.7875 Y115.8293 Z-9.0000 S1000
G1 F500 X195.2915 Y115.6835 Z-9.0000 S1000
G1 F500 X195.7809 Y115.4940 Z-9.0000 S1000
G1 F500 X196.2517 Y115.2624 Z-9.0000 S1000
G1 F500 X196.7007 Y114.9903 Z-9.0000 S1000
G1 F500 X197.1241 Y114.6800 Z-9.0000 S1000
G1 F500 X197.5178 Y114.3346 Z-9.0000 S1000
G1 F500 X197.8792 Y113.9572 Z-9.0000 S1000
G1 F500 X198.2073 Y113.5482 Z-9.0000 S1000
G1 F500 X198.4984 Y113.1122 Z-9.0000 S1000
G1 F500 X198.7500 Y112.6532 Z-9.0000 S1000
G1 F500 X198.9615 Y112.1713 Z-9.0000 S1000
G1 F500 X199.1296 Y111.6730 Z-9.0000 S1000
G1 F500 X199.2530 Y111.1640 Z-9.0000 S1000
G1 F500 X199.3314 Y110.6465 Z-9.0000 S1000
G1 F500 X199.3646 Y110.1272 Z-9.0000 S1000
G1 F500 X199.3673 Y2.9998 Z-9.0000 S1000
G1 F500 X199.3535 Y2.6110 Z-9.0000 S1000
G1 F500 X199.2978 Y2.0936 Z-9.0000 S1000
G1 F500 X199.1969 Y1.5800 Z-9.0000 S1000
G1 F500 X199.0514 Y1.0769 Z-9.0000 S1000
G1 F500 X198.8616 Y0.5864 Z-9.0000 S1000
G1 F500 X198.6292 Y0.1143 Z-9.0000 S1000
G1 F500 X198.3578 Y-0.3333 Z-9.0000 S1000
G1 F500 X198.0479 Y-0.7562 Z-9.0000 S1000
G1 F500 X197.7023 Y-1.1504 Z-9.0000 S1000
G1 F500 X197.3247 Y-1.5118 Z-9.0000 S1000
G1 F500 X196.9164 Y-1.8396 Z-9.0000 S1000
G1 F500 X196.4798 Y-2.1311 Z-9.0000 S1000
G1 F500 X196.0193 Y-2.3833 Z-9.0000 S1000
G1 F500 X195.5388 Y-2.5941 Z-9.0000 S1000
G1 F500 X195.0416 Y-2.7620 Z-9.0000 S1000
G1 F500 X194.5318 Y-2.8856 Z-9.0000 S1000
G1 F500 X194.0141 Y-2.9641 Z-9.0000 S1000
G1 F500 X193.4946 Y-2.9973 Z-9.0000 S1000
G1 F500 X3.0003 Y-3.0000 Z-9.0000 S1000
; retracting back to z-safe
G0 Z10

M5 S0; Spindle Off
