; GCODE Generated by cam.openbuilds.com on 2021-03-08 
G21 ; mm-mode
G54; Work Coordinates
G21; mm-mode
G90; Absolute Positioning
M3 S1000; Spindle On

; Operation 0: Drill: Continuous (Centered)
; Endmill Diameter: 6

G0 Z10; move to z-safe height
G0 F1000 X188.7649 Y77.4037

G0 Z0
G1 F100 Z0.0000
G1 F500 X188.7649 Y77.4037 Z-1.5000 S1000
G1 F500 X188.7649 Y77.4037 Z0.0000 S1000

G0 Z10; move to z-safe height
G0 X7.6029 Y77.4037

G0 Z0
G1 F100 Z0.0000
G1 F500 X7.6029 Y77.4037 Z-1.5000 S1000
G1 F500 X7.6029 Y77.4037 Z0.0000 S1000

G0 Z10; move to z-safe height
G0 X7.6029 Y41.8203

G0 Z0
G1 F100 Z0.0000
G1 F500 X7.6029 Y41.8203 Z-1.5000 S1000
G1 F500 X7.6029 Y41.8203 Z0.0000 S1000

G0 Z10; move to z-safe height
G0 X188.7649 Y41.8203

G0 Z0
G1 F100 Z0.0000
G1 F500 X188.7649 Y41.8203 Z-1.5000 S1000
G1 F500 X188.7649 Y41.8203 Z0.0000 S1000
; retracting back to z-safe
G0 Z10
; Operation 1: CNC: Vector (path inside)
; Endmill Diameter: 6

G0 Z10; move to z-safe height
G0 F1000 X131.3268 Y87.8365

G0 Z0
G1 F100 Z-2.5000
G1 F500 X42.6417 Y87.8365 Z-2.5000 S1000
G1 F500 X42.6417 Y25.1638 Z-2.5000 S1000
G1 F500 X131.3268 Y25.1638 Z-2.5000 S1000
G1 F500 X131.3268 Y87.8365 Z-2.5000 S1000
G1 F100 Z-5.0000
G1 F500 X42.6417 Y87.8365 Z-5.0000 S1000
G1 F500 X42.6417 Y25.1638 Z-5.0000 S1000
G1 F500 X131.3268 Y25.1638 Z-5.0000 S1000
G1 F500 X131.3268 Y87.8365 Z-5.0000 S1000
G1 F100 Z-7.5000
G1 F500 X42.6417 Y87.8365 Z-7.5000 S1000
G1 F500 X42.6417 Y25.1638 Z-7.5000 S1000
G1 F500 X131.3268 Y25.1638 Z-7.5000 S1000
G1 F500 X131.3268 Y87.8365 Z-7.5000 S1000
G1 F100 Z-10.0000
G1 F500 X42.6417 Y87.8365 Z-10.0000 S1000
G1 F500 X42.6417 Y25.1638 Z-10.0000 S1000
G1 F500 X131.3268 Y25.1638 Z-10.0000 S1000
G1 F500 X131.3268 Y87.8365 Z-10.0000 S1000
G1 F100 Z-12.5000
G1 F500 X42.6417 Y87.8365 Z-12.5000 S1000
G1 F500 X42.6417 Y25.1638 Z-12.5000 S1000
G1 F500 X131.3268 Y25.1638 Z-12.5000 S1000
G1 F500 X131.3268 Y87.8365 Z-12.5000 S1000
G1 F100 Z-15.0000
G1 F500 X42.6417 Y87.8365 Z-15.0000 S1000
G1 F500 X42.6417 Y25.1638 Z-15.0000 S1000
G1 F500 X131.3268 Y25.1638 Z-15.0000 S1000
G1 F500 X131.3268 Y87.8365 Z-15.0000 S1000
G1 F100 Z-17.5000
G1 F500 X42.6417 Y87.8365 Z-17.5000 S1000
G1 F500 X42.6417 Y25.1638 Z-17.5000 S1000
G1 F500 X131.3268 Y25.1638 Z-17.5000 S1000
G1 F500 X131.3268 Y87.8365 Z-17.5000 S1000
G1 F100 Z-19.0000
G1 F500 X42.6417 Y87.8365 Z-19.0000 S1000
G1 F500 X42.6417 Y25.1638 Z-19.0000 S1000
G1 F500 X131.3268 Y25.1638 Z-19.0000 S1000
G1 F500 X131.3268 Y87.8365 Z-19.0000 S1000
; retracting back to z-safe
G0 Z10
; Operation 2: CNC: Vector (path outside)
; Endmill Diameter: 6

G0 Z10; move to z-safe height
G0 F1000 X3.0003 Y-3.0000

G0 Z0
G1 F100 Z-2.5000
G1 F500 X2.6115 Y-2.9862 Z-2.5000 S1000
G1 F500 X2.0928 Y-2.9303 Z-2.5000 S1000
G1 F500 X1.5804 Y-2.8295 Z-2.5000 S1000
G1 F500 X1.0762 Y-2.6836 Z-2.5000 S1000
G1 F500 X0.5868 Y-2.4941 Z-2.5000 S1000
G1 F500 X0.1151 Y-2.2620 Z-2.5000 S1000
G1 F500 X-0.3330 Y-1.9903 Z-2.5000 S1000
G1 F500 X-0.7566 Y-1.6798 Z-2.5000 S1000
G1 F500 X-1.1496 Y-1.3352 Z-2.5000 S1000
G1 F500 X-1.5121 Y-0.9565 Z-2.5000 S1000
G1 F500 X-1.8393 Y-0.5488 Z-2.5000 S1000
G1 F500 X-2.1309 Y-0.1121 Z-2.5000 S1000
G1 F500 X-2.3828 Y0.3475 Z-2.5000 S1000
G1 F500 X-2.5940 Y0.8289 Z-2.5000 S1000
G1 F500 X-2.7619 Y1.3261 Z-2.5000 S1000
G1 F500 X-2.8856 Y1.8362 Z-2.5000 S1000
G1 F500 X-2.9640 Y2.3537 Z-2.5000 S1000
G1 F500 X-2.9973 Y2.8720 Z-2.5000 S1000
G1 F500 X-3.0000 Y110.0000 Z-2.5000 S1000
G1 F500 X-2.9861 Y110.3900 Z-2.5000 S1000
G1 F500 X-2.9304 Y110.9063 Z-2.5000 S1000
G1 F500 X-2.8295 Y111.4199 Z-2.5000 S1000
G1 F500 X-2.6836 Y111.9241 Z-2.5000 S1000
G1 F500 X-2.4939 Y112.4138 Z-2.5000 S1000
G1 F500 X-2.2620 Y112.8851 Z-2.5000 S1000
G1 F500 X-1.9897 Y113.3341 Z-2.5000 S1000
G1 F500 X-1.6799 Y113.7566 Z-2.5000 S1000
G1 F500 X-1.3352 Y114.1497 Z-2.5000 S1000
G1 F500 X-0.9565 Y114.5122 Z-2.5000 S1000
G1 F500 X-0.5481 Y114.8398 Z-2.5000 S1000
G1 F500 X-0.1115 Y115.1313 Z-2.5000 S1000
G1 F500 X0.3479 Y115.3829 Z-2.5000 S1000
G1 F500 X0.8289 Y115.5939 Z-2.5000 S1000
G1 F500 X1.3261 Y115.7618 Z-2.5000 S1000
G1 F500 X1.8362 Y115.8855 Z-2.5000 S1000
G1 F500 X2.3539 Y115.9639 Z-2.5000 S1000
G1 F500 X2.8731 Y115.9971 Z-2.5000 S1000
G1 F500 X74.7344 Y115.9998 Z-2.5000 S1000
G1 F500 X75.2844 Y115.9489 Z-2.5000 S1000
G1 F500 X75.9452 Y115.7446 Z-2.5000 S1000
G1 F500 X76.5416 Y115.3944 Z-2.5000 S1000
G1 F500 X77.0420 Y114.9168 Z-2.5000 S1000
G1 F500 X77.4197 Y114.3374 Z-2.5000 S1000
G1 F500 X77.6547 Y113.6869 Z-2.5000 S1000
G1 F500 X77.7344 Y112.9998 Z-2.5000 S1000
G1 F500 X77.7344 Y110.9092 Z-2.5000 S1000
G1 F500 X116.7343 Y110.9092 Z-2.5000 S1000
G1 F500 X116.7343 Y112.9998 Z-2.5000 S1000
G1 F500 X116.7852 Y113.5498 Z-2.5000 S1000
G1 F500 X116.9895 Y114.2106 Z-2.5000 S1000
G1 F500 X117.3397 Y114.8070 Z-2.5000 S1000
G1 F500 X117.8173 Y115.3074 Z-2.5000 S1000
G1 F500 X118.3967 Y115.6851 Z-2.5000 S1000
G1 F500 X119.0472 Y115.9201 Z-2.5000 S1000
G1 F500 X119.7343 Y115.9998 Z-2.5000 S1000
G1 F500 X193.3675 Y115.9998 Z-2.5000 S1000
G1 F500 X193.7563 Y115.9860 Z-2.5000 S1000
G1 F500 X194.2738 Y115.9303 Z-2.5000 S1000
G1 F500 X194.7875 Y115.8293 Z-2.5000 S1000
G1 F500 X195.2915 Y115.6835 Z-2.5000 S1000
G1 F500 X195.7809 Y115.4940 Z-2.5000 S1000
G1 F500 X196.2517 Y115.2624 Z-2.5000 S1000
G1 F500 X196.7007 Y114.9903 Z-2.5000 S1000
G1 F500 X197.1241 Y114.6800 Z-2.5000 S1000
G1 F500 X197.5178 Y114.3346 Z-2.5000 S1000
G1 F500 X197.8792 Y113.9572 Z-2.5000 S1000
G1 F500 X198.2073 Y113.5482 Z-2.5000 S1000
G1 F500 X198.4984 Y113.1122 Z-2.5000 S1000
G1 F500 X198.7500 Y112.6532 Z-2.5000 S1000
G1 F500 X198.9615 Y112.1713 Z-2.5000 S1000
G1 F500 X199.1296 Y111.6730 Z-2.5000 S1000
G1 F500 X199.2530 Y111.1640 Z-2.5000 S1000
G1 F500 X199.3314 Y110.6465 Z-2.5000 S1000
G1 F500 X199.3646 Y110.1272 Z-2.5000 S1000
G1 F500 X199.3673 Y3.0003 Z-2.5000 S1000
G1 F500 X199.3535 Y2.6115 Z-2.5000 S1000
G1 F500 X199.2978 Y2.0941 Z-2.5000 S1000
G1 F500 X199.1969 Y1.5804 Z-2.5000 S1000
G1 F500 X199.0514 Y1.0773 Z-2.5000 S1000
G1 F500 X198.8616 Y0.5868 Z-2.5000 S1000
G1 F500 X198.6292 Y0.1147 Z-2.5000 S1000
G1 F500 X198.3582 Y-0.3325 Z-2.5000 S1000
G1 F500 X198.0479 Y-0.7559 Z-2.5000 S1000
G1 F500 X197.7028 Y-1.1496 Z-2.5000 S1000
G1 F500 X197.3248 Y-1.5116 Z-2.5000 S1000
G1 F500 X196.9158 Y-1.8397 Z-2.5000 S1000
G1 F500 X196.4807 Y-2.1304 Z-2.5000 S1000
G1 F500 X196.0208 Y-2.3825 Z-2.5000 S1000
G1 F500 X195.5399 Y-2.5937 Z-2.5000 S1000
G1 F500 X195.0406 Y-2.7622 Z-2.5000 S1000
G1 F500 X194.5316 Y-2.8856 Z-2.5000 S1000
G1 F500 X194.0153 Y-2.9640 Z-2.5000 S1000
G1 F500 X193.4946 Y-2.9973 Z-2.5000 S1000
G1 F500 X3.0003 Y-3.0000 Z-2.5000 S1000
G1 F100 Z-5.0000
G1 F500 X2.6115 Y-2.9862 Z-5.0000 S1000
G1 F500 X2.0928 Y-2.9303 Z-5.0000 S1000
G1 F500 X1.5804 Y-2.8295 Z-5.0000 S1000
G1 F500 X1.0762 Y-2.6836 Z-5.0000 S1000
G1 F500 X0.5868 Y-2.4941 Z-5.0000 S1000
G1 F500 X0.1151 Y-2.2620 Z-5.0000 S1000
G1 F500 X-0.3330 Y-1.9903 Z-5.0000 S1000
G1 F500 X-0.7566 Y-1.6798 Z-5.0000 S1000
G1 F500 X-1.1496 Y-1.3352 Z-5.0000 S1000
G1 F500 X-1.5121 Y-0.9565 Z-5.0000 S1000
G1 F500 X-1.8393 Y-0.5488 Z-5.0000 S1000
G1 F500 X-2.1309 Y-0.1121 Z-5.0000 S1000
G1 F500 X-2.3828 Y0.3475 Z-5.0000 S1000
G1 F500 X-2.5940 Y0.8289 Z-5.0000 S1000
G1 F500 X-2.7619 Y1.3261 Z-5.0000 S1000
G1 F500 X-2.8856 Y1.8362 Z-5.0000 S1000
G1 F500 X-2.9640 Y2.3537 Z-5.0000 S1000
G1 F500 X-2.9973 Y2.8720 Z-5.0000 S1000
G1 F500 X-3.0000 Y110.0000 Z-5.0000 S1000
G1 F500 X-2.9861 Y110.3900 Z-5.0000 S1000
G1 F500 X-2.9304 Y110.9063 Z-5.0000 S1000
G1 F500 X-2.8295 Y111.4199 Z-5.0000 S1000
G1 F500 X-2.6836 Y111.9241 Z-5.0000 S1000
G1 F500 X-2.4939 Y112.4138 Z-5.0000 S1000
G1 F500 X-2.2620 Y112.8851 Z-5.0000 S1000
G1 F500 X-1.9897 Y113.3341 Z-5.0000 S1000
G1 F500 X-1.6799 Y113.7566 Z-5.0000 S1000
G1 F500 X-1.3352 Y114.1497 Z-5.0000 S1000
G1 F500 X-0.9565 Y114.5122 Z-5.0000 S1000
G1 F500 X-0.5481 Y114.8398 Z-5.0000 S1000
G1 F500 X-0.1115 Y115.1313 Z-5.0000 S1000
G1 F500 X0.3479 Y115.3829 Z-5.0000 S1000
G1 F500 X0.8289 Y115.5939 Z-5.0000 S1000
G1 F500 X1.3261 Y115.7618 Z-5.0000 S1000
G1 F500 X1.8362 Y115.8855 Z-5.0000 S1000
G1 F500 X2.3539 Y115.9639 Z-5.0000 S1000
G1 F500 X2.8731 Y115.9971 Z-5.0000 S1000
G1 F500 X74.7344 Y115.9998 Z-5.0000 S1000
G1 F500 X75.2844 Y115.9489 Z-5.0000 S1000
G1 F500 X75.9452 Y115.7446 Z-5.0000 S1000
G1 F500 X76.5416 Y115.3944 Z-5.0000 S1000
G1 F500 X77.0420 Y114.9168 Z-5.0000 S1000
G1 F500 X77.4197 Y114.3374 Z-5.0000 S1000
G1 F500 X77.6547 Y113.6869 Z-5.0000 S1000
G1 F500 X77.7344 Y112.9998 Z-5.0000 S1000
G1 F500 X77.7344 Y110.9092 Z-5.0000 S1000
G1 F500 X116.7343 Y110.9092 Z-5.0000 S1000
G1 F500 X116.7343 Y112.9998 Z-5.0000 S1000
G1 F500 X116.7852 Y113.5498 Z-5.0000 S1000
G1 F500 X116.9895 Y114.2106 Z-5.0000 S1000
G1 F500 X117.3397 Y114.8070 Z-5.0000 S1000
G1 F500 X117.8173 Y115.3074 Z-5.0000 S1000
G1 F500 X118.3967 Y115.6851 Z-5.0000 S1000
G1 F500 X119.0472 Y115.9201 Z-5.0000 S1000
G1 F500 X119.7343 Y115.9998 Z-5.0000 S1000
G1 F500 X193.3675 Y115.9998 Z-5.0000 S1000
G1 F500 X193.7563 Y115.9860 Z-5.0000 S1000
G1 F500 X194.2738 Y115.9303 Z-5.0000 S1000
G1 F500 X194.7875 Y115.8293 Z-5.0000 S1000
G1 F500 X195.2915 Y115.6835 Z-5.0000 S1000
G1 F500 X195.7809 Y115.4940 Z-5.0000 S1000
G1 F500 X196.2517 Y115.2624 Z-5.0000 S1000
G1 F500 X196.7007 Y114.9903 Z-5.0000 S1000
G1 F500 X197.1241 Y114.6800 Z-5.0000 S1000
G1 F500 X197.5178 Y114.3346 Z-5.0000 S1000
G1 F500 X197.8792 Y113.9572 Z-5.0000 S1000
G1 F500 X198.2073 Y113.5482 Z-5.0000 S1000
G1 F500 X198.4984 Y113.1122 Z-5.0000 S1000
G1 F500 X198.7500 Y112.6532 Z-5.0000 S1000
G1 F500 X198.9615 Y112.1713 Z-5.0000 S1000
G1 F500 X199.1296 Y111.6730 Z-5.0000 S1000
G1 F500 X199.2530 Y111.1640 Z-5.0000 S1000
G1 F500 X199.3314 Y110.6465 Z-5.0000 S1000
G1 F500 X199.3646 Y110.1272 Z-5.0000 S1000
G1 F500 X199.3673 Y3.0003 Z-5.0000 S1000
G1 F500 X199.3535 Y2.6115 Z-5.0000 S1000
G1 F500 X199.2978 Y2.0941 Z-5.0000 S1000
G1 F500 X199.1969 Y1.5804 Z-5.0000 S1000
G1 F500 X199.0514 Y1.0773 Z-5.0000 S1000
G1 F500 X198.8616 Y0.5868 Z-5.0000 S1000
G1 F500 X198.6292 Y0.1147 Z-5.0000 S1000
G1 F500 X198.3582 Y-0.3325 Z-5.0000 S1000
G1 F500 X198.0479 Y-0.7559 Z-5.0000 S1000
G1 F500 X197.7028 Y-1.1496 Z-5.0000 S1000
G1 F500 X197.3248 Y-1.5116 Z-5.0000 S1000
G1 F500 X196.9158 Y-1.8397 Z-5.0000 S1000
G1 F500 X196.4807 Y-2.1304 Z-5.0000 S1000
G1 F500 X196.0208 Y-2.3825 Z-5.0000 S1000
G1 F500 X195.5399 Y-2.5937 Z-5.0000 S1000
G1 F500 X195.0406 Y-2.7622 Z-5.0000 S1000
G1 F500 X194.5316 Y-2.8856 Z-5.0000 S1000
G1 F500 X194.0153 Y-2.9640 Z-5.0000 S1000
G1 F500 X193.4946 Y-2.9973 Z-5.0000 S1000
G1 F500 X3.0003 Y-3.0000 Z-5.0000 S1000
G1 F100 Z-7.5000
G1 F500 X2.6115 Y-2.9862 Z-7.5000 S1000
G1 F500 X2.0928 Y-2.9303 Z-7.5000 S1000
G1 F500 X1.5804 Y-2.8295 Z-7.5000 S1000
G1 F500 X1.0762 Y-2.6836 Z-7.5000 S1000
G1 F500 X0.5868 Y-2.4941 Z-7.5000 S1000
G1 F500 X0.1151 Y-2.2620 Z-7.5000 S1000
G1 F500 X-0.3330 Y-1.9903 Z-7.5000 S1000
G1 F500 X-0.7566 Y-1.6798 Z-7.5000 S1000
G1 F500 X-1.1496 Y-1.3352 Z-7.5000 S1000
G1 F500 X-1.5121 Y-0.9565 Z-7.5000 S1000
G1 F500 X-1.8393 Y-0.5488 Z-7.5000 S1000
G1 F500 X-2.1309 Y-0.1121 Z-7.5000 S1000
G1 F500 X-2.3828 Y0.3475 Z-7.5000 S1000
G1 F500 X-2.5940 Y0.8289 Z-7.5000 S1000
G1 F500 X-2.7619 Y1.3261 Z-7.5000 S1000
G1 F500 X-2.8856 Y1.8362 Z-7.5000 S1000
G1 F500 X-2.9640 Y2.3537 Z-7.5000 S1000
G1 F500 X-2.9973 Y2.8720 Z-7.5000 S1000
G1 F500 X-3.0000 Y110.0000 Z-7.5000 S1000
G1 F500 X-2.9861 Y110.3900 Z-7.5000 S1000
G1 F500 X-2.9304 Y110.9063 Z-7.5000 S1000
G1 F500 X-2.8295 Y111.4199 Z-7.5000 S1000
G1 F500 X-2.6836 Y111.9241 Z-7.5000 S1000
G1 F500 X-2.4939 Y112.4138 Z-7.5000 S1000
G1 F500 X-2.2620 Y112.8851 Z-7.5000 S1000
G1 F500 X-1.9897 Y113.3341 Z-7.5000 S1000
G1 F500 X-1.6799 Y113.7566 Z-7.5000 S1000
G1 F500 X-1.3352 Y114.1497 Z-7.5000 S1000
G1 F500 X-0.9565 Y114.5122 Z-7.5000 S1000
G1 F500 X-0.5481 Y114.8398 Z-7.5000 S1000
G1 F500 X-0.1115 Y115.1313 Z-7.5000 S1000
G1 F500 X0.3479 Y115.3829 Z-7.5000 S1000
G1 F500 X0.8289 Y115.5939 Z-7.5000 S1000
G1 F500 X1.3261 Y115.7618 Z-7.5000 S1000
G1 F500 X1.8362 Y115.8855 Z-7.5000 S1000
G1 F500 X2.3539 Y115.9639 Z-7.5000 S1000
G1 F500 X2.8731 Y115.9971 Z-7.5000 S1000
G1 F500 X74.7344 Y115.9998 Z-7.5000 S1000
G1 F500 X75.2844 Y115.9489 Z-7.5000 S1000
G1 F500 X75.9452 Y115.7446 Z-7.5000 S1000
G1 F500 X76.5416 Y115.3944 Z-7.5000 S1000
G1 F500 X77.0420 Y114.9168 Z-7.5000 S1000
G1 F500 X77.4197 Y114.3374 Z-7.5000 S1000
G1 F500 X77.6547 Y113.6869 Z-7.5000 S1000
G1 F500 X77.7344 Y112.9998 Z-7.5000 S1000
G1 F500 X77.7344 Y110.9092 Z-7.5000 S1000
G1 F500 X116.7343 Y110.9092 Z-7.5000 S1000
G1 F500 X116.7343 Y112.9998 Z-7.5000 S1000
G1 F500 X116.7852 Y113.5498 Z-7.5000 S1000
G1 F500 X116.9895 Y114.2106 Z-7.5000 S1000
G1 F500 X117.3397 Y114.8070 Z-7.5000 S1000
G1 F500 X117.8173 Y115.3074 Z-7.5000 S1000
G1 F500 X118.3967 Y115.6851 Z-7.5000 S1000
G1 F500 X119.0472 Y115.9201 Z-7.5000 S1000
G1 F500 X119.7343 Y115.9998 Z-7.5000 S1000
G1 F500 X193.3675 Y115.9998 Z-7.5000 S1000
G1 F500 X193.7563 Y115.9860 Z-7.5000 S1000
G1 F500 X194.2738 Y115.9303 Z-7.5000 S1000
G1 F500 X194.7875 Y115.8293 Z-7.5000 S1000
G1 F500 X195.2915 Y115.6835 Z-7.5000 S1000
G1 F500 X195.7809 Y115.4940 Z-7.5000 S1000
G1 F500 X196.2517 Y115.2624 Z-7.5000 S1000
G1 F500 X196.7007 Y114.9903 Z-7.5000 S1000
G1 F500 X197.1241 Y114.6800 Z-7.5000 S1000
G1 F500 X197.5178 Y114.3346 Z-7.5000 S1000
G1 F500 X197.8792 Y113.9572 Z-7.5000 S1000
G1 F500 X198.2073 Y113.5482 Z-7.5000 S1000
G1 F500 X198.4984 Y113.1122 Z-7.5000 S1000
G1 F500 X198.7500 Y112.6532 Z-7.5000 S1000
G1 F500 X198.9615 Y112.1713 Z-7.5000 S1000
G1 F500 X199.1296 Y111.6730 Z-7.5000 S1000
G1 F500 X199.2530 Y111.1640 Z-7.5000 S1000
G1 F500 X199.3314 Y110.6465 Z-7.5000 S1000
G1 F500 X199.3646 Y110.1272 Z-7.5000 S1000
G1 F500 X199.3673 Y3.0003 Z-7.5000 S1000
G1 F500 X199.3535 Y2.6115 Z-7.5000 S1000
G1 F500 X199.2978 Y2.0941 Z-7.5000 S1000
G1 F500 X199.1969 Y1.5804 Z-7.5000 S1000
G1 F500 X199.0514 Y1.0773 Z-7.5000 S1000
G1 F500 X198.8616 Y0.5868 Z-7.5000 S1000
G1 F500 X198.6292 Y0.1147 Z-7.5000 S1000
G1 F500 X198.3582 Y-0.3325 Z-7.5000 S1000
G1 F500 X198.0479 Y-0.7559 Z-7.5000 S1000
G1 F500 X197.7028 Y-1.1496 Z-7.5000 S1000
G1 F500 X197.3248 Y-1.5116 Z-7.5000 S1000
G1 F500 X196.9158 Y-1.8397 Z-7.5000 S1000
G1 F500 X196.4807 Y-2.1304 Z-7.5000 S1000
G1 F500 X196.0208 Y-2.3825 Z-7.5000 S1000
G1 F500 X195.5399 Y-2.5937 Z-7.5000 S1000
G1 F500 X195.0406 Y-2.7622 Z-7.5000 S1000
G1 F500 X194.5316 Y-2.8856 Z-7.5000 S1000
G1 F500 X194.0153 Y-2.9640 Z-7.5000 S1000
G1 F500 X193.4946 Y-2.9973 Z-7.5000 S1000
G1 F500 X3.0003 Y-3.0000 Z-7.5000 S1000
G1 F100 Z-10.0000
G1 F500 X2.6115 Y-2.9862 Z-10.0000 S1000
G1 F500 X2.0928 Y-2.9303 Z-10.0000 S1000
G1 F500 X1.5804 Y-2.8295 Z-10.0000 S1000
G1 F500 X1.0762 Y-2.6836 Z-10.0000 S1000
G1 F500 X0.5868 Y-2.4941 Z-10.0000 S1000
G1 F500 X0.1151 Y-2.2620 Z-10.0000 S1000
G1 F500 X-0.3330 Y-1.9903 Z-10.0000 S1000
G1 F500 X-0.7566 Y-1.6798 Z-10.0000 S1000
G1 F500 X-1.1496 Y-1.3352 Z-10.0000 S1000
G1 F500 X-1.5121 Y-0.9565 Z-10.0000 S1000
G1 F500 X-1.8393 Y-0.5488 Z-10.0000 S1000
G1 F500 X-2.1309 Y-0.1121 Z-10.0000 S1000
G1 F500 X-2.3828 Y0.3475 Z-10.0000 S1000
G1 F500 X-2.5940 Y0.8289 Z-10.0000 S1000
G1 F500 X-2.7619 Y1.3261 Z-10.0000 S1000
G1 F500 X-2.8856 Y1.8362 Z-10.0000 S1000
G1 F500 X-2.9640 Y2.3537 Z-10.0000 S1000
G1 F500 X-2.9973 Y2.8720 Z-10.0000 S1000
G1 F500 X-3.0000 Y110.0000 Z-10.0000 S1000
G1 F500 X-2.9861 Y110.3900 Z-10.0000 S1000
G1 F500 X-2.9304 Y110.9063 Z-10.0000 S1000
G1 F500 X-2.8295 Y111.4199 Z-10.0000 S1000
G1 F500 X-2.6836 Y111.9241 Z-10.0000 S1000
G1 F500 X-2.4939 Y112.4138 Z-10.0000 S1000
G1 F500 X-2.2620 Y112.8851 Z-10.0000 S1000
G1 F500 X-1.9897 Y113.3341 Z-10.0000 S1000
G1 F500 X-1.6799 Y113.7566 Z-10.0000 S1000
G1 F500 X-1.3352 Y114.1497 Z-10.0000 S1000
G1 F500 X-0.9565 Y114.5122 Z-10.0000 S1000
G1 F500 X-0.5481 Y114.8398 Z-10.0000 S1000
G1 F500 X-0.1115 Y115.1313 Z-10.0000 S1000
G1 F500 X0.3479 Y115.3829 Z-10.0000 S1000
G1 F500 X0.8289 Y115.5939 Z-10.0000 S1000
G1 F500 X1.3261 Y115.7618 Z-10.0000 S1000
G1 F500 X1.8362 Y115.8855 Z-10.0000 S1000
G1 F500 X2.3539 Y115.9639 Z-10.0000 S1000
G1 F500 X2.8731 Y115.9971 Z-10.0000 S1000
G1 F500 X74.7344 Y115.9998 Z-10.0000 S1000
G1 F500 X75.2844 Y115.9489 Z-10.0000 S1000
G1 F500 X75.9452 Y115.7446 Z-10.0000 S1000
G1 F500 X76.5416 Y115.3944 Z-10.0000 S1000
G1 F500 X77.0420 Y114.9168 Z-10.0000 S1000
G1 F500 X77.4197 Y114.3374 Z-10.0000 S1000
G1 F500 X77.6547 Y113.6869 Z-10.0000 S1000
G1 F500 X77.7344 Y112.9998 Z-10.0000 S1000
G1 F500 X77.7344 Y110.9092 Z-10.0000 S1000
G1 F500 X116.7343 Y110.9092 Z-10.0000 S1000
G1 F500 X116.7343 Y112.9998 Z-10.0000 S1000
G1 F500 X116.7852 Y113.5498 Z-10.0000 S1000
G1 F500 X116.9895 Y114.2106 Z-10.0000 S1000
G1 F500 X117.3397 Y114.8070 Z-10.0000 S1000
G1 F500 X117.8173 Y115.3074 Z-10.0000 S1000
G1 F500 X118.3967 Y115.6851 Z-10.0000 S1000
G1 F500 X119.0472 Y115.9201 Z-10.0000 S1000
G1 F500 X119.7343 Y115.9998 Z-10.0000 S1000
G1 F500 X193.3675 Y115.9998 Z-10.0000 S1000
G1 F500 X193.7563 Y115.9860 Z-10.0000 S1000
G1 F500 X194.2738 Y115.9303 Z-10.0000 S1000
G1 F500 X194.7875 Y115.8293 Z-10.0000 S1000
G1 F500 X195.2915 Y115.6835 Z-10.0000 S1000
G1 F500 X195.7809 Y115.4940 Z-10.0000 S1000
G1 F500 X196.2517 Y115.2624 Z-10.0000 S1000
G1 F500 X196.7007 Y114.9903 Z-10.0000 S1000
G1 F500 X197.1241 Y114.6800 Z-10.0000 S1000
G1 F500 X197.5178 Y114.3346 Z-10.0000 S1000
G1 F500 X197.8792 Y113.9572 Z-10.0000 S1000
G1 F500 X198.2073 Y113.5482 Z-10.0000 S1000
G1 F500 X198.4984 Y113.1122 Z-10.0000 S1000
G1 F500 X198.7500 Y112.6532 Z-10.0000 S1000
G1 F500 X198.9615 Y112.1713 Z-10.0000 S1000
G1 F500 X199.1296 Y111.6730 Z-10.0000 S1000
G1 F500 X199.2530 Y111.1640 Z-10.0000 S1000
G1 F500 X199.3314 Y110.6465 Z-10.0000 S1000
G1 F500 X199.3646 Y110.1272 Z-10.0000 S1000
G1 F500 X199.3673 Y3.0003 Z-10.0000 S1000
G1 F500 X199.3535 Y2.6115 Z-10.0000 S1000
G1 F500 X199.2978 Y2.0941 Z-10.0000 S1000
G1 F500 X199.1969 Y1.5804 Z-10.0000 S1000
G1 F500 X199.0514 Y1.0773 Z-10.0000 S1000
G1 F500 X198.8616 Y0.5868 Z-10.0000 S1000
G1 F500 X198.6292 Y0.1147 Z-10.0000 S1000
G1 F500 X198.3582 Y-0.3325 Z-10.0000 S1000
G1 F500 X198.0479 Y-0.7559 Z-10.0000 S1000
G1 F500 X197.7028 Y-1.1496 Z-10.0000 S1000
G1 F500 X197.3248 Y-1.5116 Z-10.0000 S1000
G1 F500 X196.9158 Y-1.8397 Z-10.0000 S1000
G1 F500 X196.4807 Y-2.1304 Z-10.0000 S1000
G1 F500 X196.0208 Y-2.3825 Z-10.0000 S1000
G1 F500 X195.5399 Y-2.5937 Z-10.0000 S1000
G1 F500 X195.0406 Y-2.7622 Z-10.0000 S1000
G1 F500 X194.5316 Y-2.8856 Z-10.0000 S1000
G1 F500 X194.0153 Y-2.9640 Z-10.0000 S1000
G1 F500 X193.4946 Y-2.9973 Z-10.0000 S1000
G1 F500 X3.0003 Y-3.0000 Z-10.0000 S1000
G1 F100 Z-12.5000
G1 F500 X2.6115 Y-2.9862 Z-12.5000 S1000
G1 F500 X2.0928 Y-2.9303 Z-12.5000 S1000
G1 F500 X1.5804 Y-2.8295 Z-12.5000 S1000
G1 F500 X1.0762 Y-2.6836 Z-12.5000 S1000
G1 F500 X0.5868 Y-2.4941 Z-12.5000 S1000
G1 F500 X0.1151 Y-2.2620 Z-12.5000 S1000
G1 F500 X-0.3330 Y-1.9903 Z-12.5000 S1000
G1 F500 X-0.7566 Y-1.6798 Z-12.5000 S1000
G1 F500 X-1.1496 Y-1.3352 Z-12.5000 S1000
G1 F500 X-1.5121 Y-0.9565 Z-12.5000 S1000
G1 F500 X-1.8393 Y-0.5488 Z-12.5000 S1000
G1 F500 X-2.1309 Y-0.1121 Z-12.5000 S1000
G1 F500 X-2.3828 Y0.3475 Z-12.5000 S1000
G1 F500 X-2.5940 Y0.8289 Z-12.5000 S1000
G1 F500 X-2.7619 Y1.3261 Z-12.5000 S1000
G1 F500 X-2.8856 Y1.8362 Z-12.5000 S1000
G1 F500 X-2.9640 Y2.3537 Z-12.5000 S1000
G1 F500 X-2.9973 Y2.8720 Z-12.5000 S1000
G1 F500 X-3.0000 Y110.0000 Z-12.5000 S1000
G1 F500 X-2.9861 Y110.3900 Z-12.5000 S1000
G1 F500 X-2.9304 Y110.9063 Z-12.5000 S1000
G1 F500 X-2.8295 Y111.4199 Z-12.5000 S1000
G1 F500 X-2.6836 Y111.9241 Z-12.5000 S1000
G1 F500 X-2.4939 Y112.4138 Z-12.5000 S1000
G1 F500 X-2.2620 Y112.8851 Z-12.5000 S1000
G1 F500 X-1.9897 Y113.3341 Z-12.5000 S1000
G1 F500 X-1.6799 Y113.7566 Z-12.5000 S1000
G1 F500 X-1.3352 Y114.1497 Z-12.5000 S1000
G1 F500 X-0.9565 Y114.5122 Z-12.5000 S1000
G1 F500 X-0.5481 Y114.8398 Z-12.5000 S1000
G1 F500 X-0.1115 Y115.1313 Z-12.5000 S1000
G1 F500 X0.3479 Y115.3829 Z-12.5000 S1000
G1 F500 X0.8289 Y115.5939 Z-12.5000 S1000
G1 F500 X1.3261 Y115.7618 Z-12.5000 S1000
G1 F500 X1.8362 Y115.8855 Z-12.5000 S1000
G1 F500 X2.3539 Y115.9639 Z-12.5000 S1000
G1 F500 X2.8731 Y115.9971 Z-12.5000 S1000
G1 F500 X74.7344 Y115.9998 Z-12.5000 S1000
G1 F500 X75.2844 Y115.9489 Z-12.5000 S1000
G1 F500 X75.9452 Y115.7446 Z-12.5000 S1000
G1 F500 X76.5416 Y115.3944 Z-12.5000 S1000
G1 F500 X77.0420 Y114.9168 Z-12.5000 S1000
G1 F500 X77.4197 Y114.3374 Z-12.5000 S1000
G1 F500 X77.6547 Y113.6869 Z-12.5000 S1000
G1 F500 X77.7344 Y112.9998 Z-12.5000 S1000
G1 F500 X77.7344 Y110.9092 Z-12.5000 S1000
G1 F500 X116.7343 Y110.9092 Z-12.5000 S1000
G1 F500 X116.7343 Y112.9998 Z-12.5000 S1000
G1 F500 X116.7852 Y113.5498 Z-12.5000 S1000
G1 F500 X116.9895 Y114.2106 Z-12.5000 S1000
G1 F500 X117.3397 Y114.8070 Z-12.5000 S1000
G1 F500 X117.8173 Y115.3074 Z-12.5000 S1000
G1 F500 X118.3967 Y115.6851 Z-12.5000 S1000
G1 F500 X119.0472 Y115.9201 Z-12.5000 S1000
G1 F500 X119.7343 Y115.9998 Z-12.5000 S1000
G1 F500 X193.3675 Y115.9998 Z-12.5000 S1000
G1 F500 X193.7563 Y115.9860 Z-12.5000 S1000
G1 F500 X194.2738 Y115.9303 Z-12.5000 S1000
G1 F500 X194.7875 Y115.8293 Z-12.5000 S1000
G1 F500 X195.2915 Y115.6835 Z-12.5000 S1000
G1 F500 X195.7809 Y115.4940 Z-12.5000 S1000
G1 F500 X196.2517 Y115.2624 Z-12.5000 S1000
G1 F500 X196.7007 Y114.9903 Z-12.5000 S1000
G1 F500 X197.1241 Y114.6800 Z-12.5000 S1000
G1 F500 X197.5178 Y114.3346 Z-12.5000 S1000
G1 F500 X197.8792 Y113.9572 Z-12.5000 S1000
G1 F500 X198.2073 Y113.5482 Z-12.5000 S1000
G1 F500 X198.4984 Y113.1122 Z-12.5000 S1000
G1 F500 X198.7500 Y112.6532 Z-12.5000 S1000
G1 F500 X198.9615 Y112.1713 Z-12.5000 S1000
G1 F500 X199.1296 Y111.6730 Z-12.5000 S1000
G1 F500 X199.2530 Y111.1640 Z-12.5000 S1000
G1 F500 X199.3314 Y110.6465 Z-12.5000 S1000
G1 F500 X199.3646 Y110.1272 Z-12.5000 S1000
G1 F500 X199.3673 Y3.0003 Z-12.5000 S1000
G1 F500 X199.3535 Y2.6115 Z-12.5000 S1000
G1 F500 X199.2978 Y2.0941 Z-12.5000 S1000
G1 F500 X199.1969 Y1.5804 Z-12.5000 S1000
G1 F500 X199.0514 Y1.0773 Z-12.5000 S1000
G1 F500 X198.8616 Y0.5868 Z-12.5000 S1000
G1 F500 X198.6292 Y0.1147 Z-12.5000 S1000
G1 F500 X198.3582 Y-0.3325 Z-12.5000 S1000
G1 F500 X198.0479 Y-0.7559 Z-12.5000 S1000
G1 F500 X197.7028 Y-1.1496 Z-12.5000 S1000
G1 F500 X197.3248 Y-1.5116 Z-12.5000 S1000
G1 F500 X196.9158 Y-1.8397 Z-12.5000 S1000
G1 F500 X196.4807 Y-2.1304 Z-12.5000 S1000
G1 F500 X196.0208 Y-2.3825 Z-12.5000 S1000
G1 F500 X195.5399 Y-2.5937 Z-12.5000 S1000
G1 F500 X195.0406 Y-2.7622 Z-12.5000 S1000
G1 F500 X194.5316 Y-2.8856 Z-12.5000 S1000
G1 F500 X194.0153 Y-2.9640 Z-12.5000 S1000
G1 F500 X193.4946 Y-2.9973 Z-12.5000 S1000
G1 F500 X3.0003 Y-3.0000 Z-12.5000 S1000
G1 F100 Z-15.0000
G1 F500 X2.6115 Y-2.9862 Z-15.0000 S1000
G1 F500 X2.0928 Y-2.9303 Z-15.0000 S1000
G1 F500 X1.5804 Y-2.8295 Z-15.0000 S1000
G1 F500 X1.0762 Y-2.6836 Z-15.0000 S1000
G1 F500 X0.5868 Y-2.4941 Z-15.0000 S1000
G1 F500 X0.1151 Y-2.2620 Z-15.0000 S1000
G1 F500 X-0.3330 Y-1.9903 Z-15.0000 S1000
G1 F500 X-0.7566 Y-1.6798 Z-15.0000 S1000
G1 F500 X-1.1496 Y-1.3352 Z-15.0000 S1000
G1 F500 X-1.5121 Y-0.9565 Z-15.0000 S1000
G1 F500 X-1.8393 Y-0.5488 Z-15.0000 S1000
G1 F500 X-2.1309 Y-0.1121 Z-15.0000 S1000
G1 F500 X-2.3828 Y0.3475 Z-15.0000 S1000
G1 F500 X-2.5940 Y0.8289 Z-15.0000 S1000
G1 F500 X-2.7619 Y1.3261 Z-15.0000 S1000
G1 F500 X-2.8856 Y1.8362 Z-15.0000 S1000
G1 F500 X-2.9640 Y2.3537 Z-15.0000 S1000
G1 F500 X-2.9973 Y2.8720 Z-15.0000 S1000
G1 F500 X-3.0000 Y110.0000 Z-15.0000 S1000
G1 F500 X-2.9861 Y110.3900 Z-15.0000 S1000
G1 F500 X-2.9304 Y110.9063 Z-15.0000 S1000
G1 F500 X-2.8295 Y111.4199 Z-15.0000 S1000
G1 F500 X-2.6836 Y111.9241 Z-15.0000 S1000
G1 F500 X-2.4939 Y112.4138 Z-15.0000 S1000
G1 F500 X-2.2620 Y112.8851 Z-15.0000 S1000
G1 F500 X-1.9897 Y113.3341 Z-15.0000 S1000
G1 F500 X-1.6799 Y113.7566 Z-15.0000 S1000
G1 F500 X-1.3352 Y114.1497 Z-15.0000 S1000
G1 F500 X-0.9565 Y114.5122 Z-15.0000 S1000
G1 F500 X-0.5481 Y114.8398 Z-15.0000 S1000
G1 F500 X-0.1115 Y115.1313 Z-15.0000 S1000
G1 F500 X0.3479 Y115.3829 Z-15.0000 S1000
G1 F500 X0.8289 Y115.5939 Z-15.0000 S1000
G1 F500 X1.3261 Y115.7618 Z-15.0000 S1000
G1 F500 X1.8362 Y115.8855 Z-15.0000 S1000
G1 F500 X2.3539 Y115.9639 Z-15.0000 S1000
G1 F500 X2.8731 Y115.9971 Z-15.0000 S1000
G1 F500 X74.7344 Y115.9998 Z-15.0000 S1000
G1 F500 X75.2844 Y115.9489 Z-15.0000 S1000
G1 F500 X75.9452 Y115.7446 Z-15.0000 S1000
G1 F500 X76.5416 Y115.3944 Z-15.0000 S1000
G1 F500 X77.0420 Y114.9168 Z-15.0000 S1000
G1 F500 X77.4197 Y114.3374 Z-15.0000 S1000
G1 F500 X77.6547 Y113.6869 Z-15.0000 S1000
G1 F500 X77.7344 Y112.9998 Z-15.0000 S1000
G1 F500 X77.7344 Y110.9092 Z-15.0000 S1000
G1 F500 X116.7343 Y110.9092 Z-15.0000 S1000
G1 F500 X116.7343 Y112.9998 Z-15.0000 S1000
G1 F500 X116.7852 Y113.5498 Z-15.0000 S1000
G1 F500 X116.9895 Y114.2106 Z-15.0000 S1000
G1 F500 X117.3397 Y114.8070 Z-15.0000 S1000
G1 F500 X117.8173 Y115.3074 Z-15.0000 S1000
G1 F500 X118.3967 Y115.6851 Z-15.0000 S1000
G1 F500 X119.0472 Y115.9201 Z-15.0000 S1000
G1 F500 X119.7343 Y115.9998 Z-15.0000 S1000
G1 F500 X193.3675 Y115.9998 Z-15.0000 S1000
G1 F500 X193.7563 Y115.9860 Z-15.0000 S1000
G1 F500 X194.2738 Y115.9303 Z-15.0000 S1000
G1 F500 X194.7875 Y115.8293 Z-15.0000 S1000
G1 F500 X195.2915 Y115.6835 Z-15.0000 S1000
G1 F500 X195.7809 Y115.4940 Z-15.0000 S1000
G1 F500 X196.2517 Y115.2624 Z-15.0000 S1000
G1 F500 X196.7007 Y114.9903 Z-15.0000 S1000
G1 F500 X197.1241 Y114.6800 Z-15.0000 S1000
G1 F500 X197.5178 Y114.3346 Z-15.0000 S1000
G1 F500 X197.8792 Y113.9572 Z-15.0000 S1000
G1 F500 X198.2073 Y113.5482 Z-15.0000 S1000
G1 F500 X198.4984 Y113.1122 Z-15.0000 S1000
G1 F500 X198.7500 Y112.6532 Z-15.0000 S1000
G1 F500 X198.9615 Y112.1713 Z-15.0000 S1000
G1 F500 X199.1296 Y111.6730 Z-15.0000 S1000
G1 F500 X199.2530 Y111.1640 Z-15.0000 S1000
G1 F500 X199.3314 Y110.6465 Z-15.0000 S1000
G1 F500 X199.3646 Y110.1272 Z-15.0000 S1000
G1 F500 X199.3673 Y3.0003 Z-15.0000 S1000
G1 F500 X199.3535 Y2.6115 Z-15.0000 S1000
G1 F500 X199.2978 Y2.0941 Z-15.0000 S1000
G1 F500 X199.1969 Y1.5804 Z-15.0000 S1000
G1 F500 X199.0514 Y1.0773 Z-15.0000 S1000
G1 F500 X198.8616 Y0.5868 Z-15.0000 S1000
G1 F500 X198.6292 Y0.1147 Z-15.0000 S1000
G1 F500 X198.3582 Y-0.3325 Z-15.0000 S1000
G1 F500 X198.0479 Y-0.7559 Z-15.0000 S1000
G1 F500 X197.7028 Y-1.1496 Z-15.0000 S1000
G1 F500 X197.3248 Y-1.5116 Z-15.0000 S1000
G1 F500 X196.9158 Y-1.8397 Z-15.0000 S1000
G1 F500 X196.4807 Y-2.1304 Z-15.0000 S1000
G1 F500 X196.0208 Y-2.3825 Z-15.0000 S1000
G1 F500 X195.5399 Y-2.5937 Z-15.0000 S1000
G1 F500 X195.0406 Y-2.7622 Z-15.0000 S1000
G1 F500 X194.5316 Y-2.8856 Z-15.0000 S1000
G1 F500 X194.0153 Y-2.9640 Z-15.0000 S1000
G1 F500 X193.4946 Y-2.9973 Z-15.0000 S1000
G1 F500 X3.0003 Y-3.0000 Z-15.0000 S1000
G1 F100 Z-17.5000
G1 F500 X2.6115 Y-2.9862 Z-17.5000 S1000
G1 F500 X2.0928 Y-2.9303 Z-17.5000 S1000
G1 F500 X1.5804 Y-2.8295 Z-17.5000 S1000
G1 F500 X1.0762 Y-2.6836 Z-17.5000 S1000
G1 F500 X0.5868 Y-2.4941 Z-17.5000 S1000
G1 F500 X0.1151 Y-2.2620 Z-17.5000 S1000
G1 F500 X-0.3330 Y-1.9903 Z-17.5000 S1000
G1 F500 X-0.7566 Y-1.6798 Z-17.5000 S1000
G1 F500 X-1.1496 Y-1.3352 Z-17.5000 S1000
G1 F500 X-1.5121 Y-0.9565 Z-17.5000 S1000
G1 F500 X-1.8393 Y-0.5488 Z-17.5000 S1000
G1 F500 X-2.1309 Y-0.1121 Z-17.5000 S1000
G1 F500 X-2.3828 Y0.3475 Z-17.5000 S1000
G1 F500 X-2.5940 Y0.8289 Z-17.5000 S1000
G1 F500 X-2.7619 Y1.3261 Z-17.5000 S1000
G1 F500 X-2.8856 Y1.8362 Z-17.5000 S1000
G1 F500 X-2.9640 Y2.3537 Z-17.5000 S1000
G1 F500 X-2.9973 Y2.8720 Z-17.5000 S1000
G1 F500 X-2.9985 Y50.4360 Z-17.5000 S1000
G1 F500 X-2.9985 Y50.4360 Z-17.0000 S1000
G1 F500 X-2.9988 Y62.4360 Z-17.0000 S1000
G1 F500 X-2.9988 Y62.4360 Z-17.5000 S1000
G1 F500 X-3.0000 Y110.0000 Z-17.5000 S1000
G1 F500 X-3.0000 Y110.0000 Z-17.5000 S1000
G1 F500 X-2.9861 Y110.3900 Z-17.5000 S1000
G1 F500 X-2.9304 Y110.9063 Z-17.5000 S1000
G1 F500 X-2.8295 Y111.4199 Z-17.5000 S1000
G1 F500 X-2.6836 Y111.9241 Z-17.5000 S1000
G1 F500 X-2.4939 Y112.4138 Z-17.5000 S1000
G1 F500 X-2.2620 Y112.8851 Z-17.5000 S1000
G1 F500 X-1.9897 Y113.3341 Z-17.5000 S1000
G1 F500 X-1.6799 Y113.7566 Z-17.5000 S1000
G1 F500 X-1.3352 Y114.1497 Z-17.5000 S1000
G1 F500 X-0.9565 Y114.5122 Z-17.5000 S1000
G1 F500 X-0.5481 Y114.8398 Z-17.5000 S1000
G1 F500 X-0.1115 Y115.1313 Z-17.5000 S1000
G1 F500 X0.3479 Y115.3829 Z-17.5000 S1000
G1 F500 X0.8289 Y115.5939 Z-17.5000 S1000
G1 F500 X1.3261 Y115.7618 Z-17.5000 S1000
G1 F500 X1.8362 Y115.8855 Z-17.5000 S1000
G1 F500 X2.3539 Y115.9639 Z-17.5000 S1000
G1 F500 X2.8731 Y115.9971 Z-17.5000 S1000
G1 F500 X74.7344 Y115.9998 Z-17.5000 S1000
G1 F500 X75.2844 Y115.9489 Z-17.5000 S1000
G1 F500 X75.9452 Y115.7446 Z-17.5000 S1000
G1 F500 X76.5416 Y115.3944 Z-17.5000 S1000
G1 F500 X77.0420 Y114.9168 Z-17.5000 S1000
G1 F500 X77.4197 Y114.3374 Z-17.5000 S1000
G1 F500 X77.6547 Y113.6869 Z-17.5000 S1000
G1 F500 X77.7344 Y112.9998 Z-17.5000 S1000
G1 F500 X77.7344 Y110.9092 Z-17.5000 S1000
G1 F500 X116.7343 Y110.9092 Z-17.5000 S1000
G1 F500 X116.7343 Y112.9998 Z-17.5000 S1000
G1 F500 X116.7852 Y113.5498 Z-17.5000 S1000
G1 F500 X116.9895 Y114.2106 Z-17.5000 S1000
G1 F500 X117.3397 Y114.8070 Z-17.5000 S1000
G1 F500 X117.8173 Y115.3074 Z-17.5000 S1000
G1 F500 X118.3967 Y115.6851 Z-17.5000 S1000
G1 F500 X119.0472 Y115.9201 Z-17.5000 S1000
G1 F500 X119.7343 Y115.9998 Z-17.5000 S1000
G1 F500 X193.3675 Y115.9998 Z-17.5000 S1000
G1 F500 X193.7563 Y115.9860 Z-17.5000 S1000
G1 F500 X194.2738 Y115.9303 Z-17.5000 S1000
G1 F500 X194.7875 Y115.8293 Z-17.5000 S1000
G1 F500 X195.2915 Y115.6835 Z-17.5000 S1000
G1 F500 X195.7809 Y115.4940 Z-17.5000 S1000
G1 F500 X196.2517 Y115.2624 Z-17.5000 S1000
G1 F500 X196.7007 Y114.9903 Z-17.5000 S1000
G1 F500 X197.1241 Y114.6800 Z-17.5000 S1000
G1 F500 X197.5178 Y114.3346 Z-17.5000 S1000
G1 F500 X197.8792 Y113.9572 Z-17.5000 S1000
G1 F500 X198.2073 Y113.5482 Z-17.5000 S1000
G1 F500 X198.4984 Y113.1122 Z-17.5000 S1000
G1 F500 X198.7500 Y112.6532 Z-17.5000 S1000
G1 F500 X198.9615 Y112.1713 Z-17.5000 S1000
G1 F500 X199.1296 Y111.6730 Z-17.5000 S1000
G1 F500 X199.2530 Y111.1640 Z-17.5000 S1000
G1 F500 X199.3314 Y110.6465 Z-17.5000 S1000
G1 F500 X199.3646 Y110.1272 Z-17.5000 S1000
G1 F500 X199.3673 Y3.0003 Z-17.5000 S1000
G1 F500 X199.3535 Y2.6115 Z-17.5000 S1000
G1 F500 X199.2978 Y2.0941 Z-17.5000 S1000
G1 F500 X199.1969 Y1.5804 Z-17.5000 S1000
G1 F500 X199.0514 Y1.0773 Z-17.5000 S1000
G1 F500 X198.8616 Y0.5868 Z-17.5000 S1000
G1 F500 X198.6292 Y0.1147 Z-17.5000 S1000
G1 F500 X198.3582 Y-0.3325 Z-17.5000 S1000
G1 F500 X198.0479 Y-0.7559 Z-17.5000 S1000
G1 F500 X197.7028 Y-1.1496 Z-17.5000 S1000
G1 F500 X197.3248 Y-1.5116 Z-17.5000 S1000
G1 F500 X196.9158 Y-1.8397 Z-17.5000 S1000
G1 F500 X196.4807 Y-2.1304 Z-17.5000 S1000
G1 F500 X196.0208 Y-2.3825 Z-17.5000 S1000
G1 F500 X195.5399 Y-2.5937 Z-17.5000 S1000
G1 F500 X195.0406 Y-2.7622 Z-17.5000 S1000
G1 F500 X194.5316 Y-2.8856 Z-17.5000 S1000
G1 F500 X194.0153 Y-2.9640 Z-17.5000 S1000
G1 F500 X193.4946 Y-2.9973 Z-17.5000 S1000
G1 F500 X3.0003 Y-3.0000 Z-17.5000 S1000
G1 F100 Z-19.0000
G1 F500 X2.6115 Y-2.9862 Z-19.0000 S1000
G1 F500 X2.0928 Y-2.9303 Z-19.0000 S1000
G1 F500 X1.5804 Y-2.8295 Z-19.0000 S1000
G1 F500 X1.0762 Y-2.6836 Z-19.0000 S1000
G1 F500 X0.5868 Y-2.4941 Z-19.0000 S1000
G1 F500 X0.1151 Y-2.2620 Z-19.0000 S1000
G1 F500 X-0.3330 Y-1.9903 Z-19.0000 S1000
G1 F500 X-0.7566 Y-1.6798 Z-19.0000 S1000
G1 F500 X-1.1496 Y-1.3352 Z-19.0000 S1000
G1 F500 X-1.5121 Y-0.9565 Z-19.0000 S1000
G1 F500 X-1.8393 Y-0.5488 Z-19.0000 S1000
G1 F500 X-2.1309 Y-0.1121 Z-19.0000 S1000
G1 F500 X-2.3828 Y0.3475 Z-19.0000 S1000
G1 F500 X-2.5940 Y0.8289 Z-19.0000 S1000
G1 F500 X-2.7619 Y1.3261 Z-19.0000 S1000
G1 F500 X-2.8856 Y1.8362 Z-19.0000 S1000
G1 F500 X-2.9640 Y2.3537 Z-19.0000 S1000
G1 F500 X-2.9973 Y2.8720 Z-19.0000 S1000
G1 F500 X-2.9985 Y50.4360 Z-19.0000 S1000
G1 F500 X-2.9985 Y50.4360 Z-17.0000 S1000
G1 F500 X-2.9988 Y62.4360 Z-17.0000 S1000
G1 F500 X-2.9988 Y62.4360 Z-19.0000 S1000
G1 F500 X-3.0000 Y110.0000 Z-19.0000 S1000
G1 F500 X-3.0000 Y110.0000 Z-19.0000 S1000
G1 F500 X-2.9861 Y110.3900 Z-19.0000 S1000
G1 F500 X-2.9304 Y110.9063 Z-19.0000 S1000
G1 F500 X-2.8295 Y111.4199 Z-19.0000 S1000
G1 F500 X-2.6836 Y111.9241 Z-19.0000 S1000
G1 F500 X-2.4939 Y112.4138 Z-19.0000 S1000
G1 F500 X-2.2620 Y112.8851 Z-19.0000 S1000
G1 F500 X-1.9897 Y113.3341 Z-19.0000 S1000
G1 F500 X-1.6799 Y113.7566 Z-19.0000 S1000
G1 F500 X-1.3352 Y114.1497 Z-19.0000 S1000
G1 F500 X-0.9565 Y114.5122 Z-19.0000 S1000
G1 F500 X-0.5481 Y114.8398 Z-19.0000 S1000
G1 F500 X-0.1115 Y115.1313 Z-19.0000 S1000
G1 F500 X0.3479 Y115.3829 Z-19.0000 S1000
G1 F500 X0.8289 Y115.5939 Z-19.0000 S1000
G1 F500 X1.3261 Y115.7618 Z-19.0000 S1000
G1 F500 X1.8362 Y115.8855 Z-19.0000 S1000
G1 F500 X2.3539 Y115.9639 Z-19.0000 S1000
G1 F500 X2.8731 Y115.9971 Z-19.0000 S1000
G1 F500 X74.7344 Y115.9998 Z-19.0000 S1000
G1 F500 X75.2844 Y115.9489 Z-19.0000 S1000
G1 F500 X75.9452 Y115.7446 Z-19.0000 S1000
G1 F500 X76.5416 Y115.3944 Z-19.0000 S1000
G1 F500 X77.0420 Y114.9168 Z-19.0000 S1000
G1 F500 X77.4197 Y114.3374 Z-19.0000 S1000
G1 F500 X77.6547 Y113.6869 Z-19.0000 S1000
G1 F500 X77.7344 Y112.9998 Z-19.0000 S1000
G1 F500 X77.7344 Y110.9092 Z-19.0000 S1000
G1 F500 X116.7343 Y110.9092 Z-19.0000 S1000
G1 F500 X116.7343 Y112.9998 Z-19.0000 S1000
G1 F500 X116.7852 Y113.5498 Z-19.0000 S1000
G1 F500 X116.9895 Y114.2106 Z-19.0000 S1000
G1 F500 X117.3397 Y114.8070 Z-19.0000 S1000
G1 F500 X117.8173 Y115.3074 Z-19.0000 S1000
G1 F500 X118.3967 Y115.6851 Z-19.0000 S1000
G1 F500 X119.0472 Y115.9201 Z-19.0000 S1000
G1 F500 X119.7343 Y115.9998 Z-19.0000 S1000
G1 F500 X193.3675 Y115.9998 Z-19.0000 S1000
G1 F500 X193.7563 Y115.9860 Z-19.0000 S1000
G1 F500 X194.2738 Y115.9303 Z-19.0000 S1000
G1 F500 X194.7875 Y115.8293 Z-19.0000 S1000
G1 F500 X195.2915 Y115.6835 Z-19.0000 S1000
G1 F500 X195.7809 Y115.4940 Z-19.0000 S1000
G1 F500 X196.2517 Y115.2624 Z-19.0000 S1000
G1 F500 X196.7007 Y114.9903 Z-19.0000 S1000
G1 F500 X197.1241 Y114.6800 Z-19.0000 S1000
G1 F500 X197.5178 Y114.3346 Z-19.0000 S1000
G1 F500 X197.8792 Y113.9572 Z-19.0000 S1000
G1 F500 X198.2073 Y113.5482 Z-19.0000 S1000
G1 F500 X198.4984 Y113.1122 Z-19.0000 S1000
G1 F500 X198.7500 Y112.6532 Z-19.0000 S1000
G1 F500 X198.9615 Y112.1713 Z-19.0000 S1000
G1 F500 X199.1296 Y111.6730 Z-19.0000 S1000
G1 F500 X199.2530 Y111.1640 Z-19.0000 S1000
G1 F500 X199.3314 Y110.6465 Z-19.0000 S1000
G1 F500 X199.3646 Y110.1272 Z-19.0000 S1000
G1 F500 X199.3673 Y3.0003 Z-19.0000 S1000
G1 F500 X199.3535 Y2.6115 Z-19.0000 S1000
G1 F500 X199.2978 Y2.0941 Z-19.0000 S1000
G1 F500 X199.1969 Y1.5804 Z-19.0000 S1000
G1 F500 X199.0514 Y1.0773 Z-19.0000 S1000
G1 F500 X198.8616 Y0.5868 Z-19.0000 S1000
G1 F500 X198.6292 Y0.1147 Z-19.0000 S1000
G1 F500 X198.3582 Y-0.3325 Z-19.0000 S1000
G1 F500 X198.0479 Y-0.7559 Z-19.0000 S1000
G1 F500 X197.7028 Y-1.1496 Z-19.0000 S1000
G1 F500 X197.3248 Y-1.5116 Z-19.0000 S1000
G1 F500 X196.9158 Y-1.8397 Z-19.0000 S1000
G1 F500 X196.4807 Y-2.1304 Z-19.0000 S1000
G1 F500 X196.0208 Y-2.3825 Z-19.0000 S1000
G1 F500 X195.5399 Y-2.5937 Z-19.0000 S1000
G1 F500 X195.0406 Y-2.7622 Z-19.0000 S1000
G1 F500 X194.5316 Y-2.8856 Z-19.0000 S1000
G1 F500 X194.0153 Y-2.9640 Z-19.0000 S1000
G1 F500 X193.4946 Y-2.9973 Z-19.0000 S1000
G1 F500 X3.0003 Y-3.0000 Z-19.0000 S1000
; retracting back to z-safe
G0 Z10

M5 S0; Spindle Off
