; GCODE Generated by cam.openbuilds.com on 2021-03-08 
G21 ; mm-mode
G54; Work Coordinates
G21; mm-mode
G90; Absolute Positioning
M3 S1000; Spindle On

; Operation 0: Drill: Continuous (Centered)
; Endmill Diameter: 6

G0 Z10; move to z-safe height
G0 F1000 X7.6027 Y41.8203

G0 Z0
G1 F100 Z0.0000
G1 F750 X7.6027 Y41.8203 Z-19.0000 S1000
G1 F750 X7.6027 Y41.8203 Z0.0000 S1000

G0 Z10; move to z-safe height
G0 X7.6027 Y77.4036

G0 Z0
G1 F100 Z0.0000
G1 F750 X7.6027 Y77.4036 Z-19.0000 S1000
G1 F750 X7.6027 Y77.4036 Z0.0000 S1000
; retracting back to z-safe
G0 Z10
; Operation 1: CNC: Vector (path outside)
; Endmill Diameter: 6

G0 Z10; move to z-safe height
G0 F1000 X12.0000 Y-3.0000

G0 Z0
G1 F100 Z-2.5000
G1 F750 X3.0000 Y-3.0000 Z-2.5000 S1000
G1 F750 X2.6346 Y-2.9777 Z-2.5000 S1000
G1 F750 X1.6925 Y-2.8621 Z-2.5000 S1000
G1 F750 X0.7939 Y-2.6051 Z-2.5000 S1000
G1 F750 X-0.0647 Y-2.2062 Z-2.5000 S1000
G1 F750 X-0.4428 Y-1.9962 Z-2.5000 S1000
G1 F750 X-0.9741 Y-1.5534 Z-2.5000 S1000
G1 F750 X-1.6264 Y-0.8678 Z-2.5000 S1000
G1 F750 X-2.1839 Y-0.0417 Z-2.5000 S1000
G1 F750 X-2.5765 Y0.8217 Z-2.5000 S1000
G1 F750 X-2.8056 Y1.5755 Z-2.5000 S1000
G1 F750 X-2.9600 Y2.5120 Z-2.5000 S1000
G1 F750 X-3.0000 Y3.0000 Z-2.5000 S1000
G1 F750 X-3.0000 Y110.0000 Z-2.5000 S1000
G1 F750 X-2.9600 Y110.4880 Z-2.5000 S1000
G1 F750 X-2.8056 Y111.4245 Z-2.5000 S1000
G1 F750 X-2.5765 Y112.1783 Z-2.5000 S1000
G1 F750 X-2.1839 Y113.0417 Z-2.5000 S1000
G1 F750 X-1.6264 Y113.8678 Z-2.5000 S1000
G1 F750 X-0.9741 Y114.5534 Z-2.5000 S1000
G1 F750 X-0.6542 Y114.8444 Z-2.5000 S1000
G1 F750 X-0.0647 Y115.2062 Z-2.5000 S1000
G1 F750 X0.7939 Y115.6051 Z-2.5000 S1000
G1 F750 X1.6925 Y115.8621 Z-2.5000 S1000
G1 F750 X2.6346 Y115.9777 Z-2.5000 S1000
G1 F750 X3.0000 Y116.0000 Z-2.5000 S1000
G1 F750 X12.0000 Y116.0000 Z-2.5000 S1000
G1 F750 X12.3654 Y115.9777 Z-2.5000 S1000
G1 F750 X13.3075 Y115.8621 Z-2.5000 S1000
G1 F750 X14.2061 Y115.6051 Z-2.5000 S1000
G1 F750 X15.0647 Y115.2062 Z-2.5000 S1000
G1 F750 X15.4428 Y114.9962 Z-2.5000 S1000
G1 F750 X15.9741 Y114.5534 Z-2.5000 S1000
G1 F750 X16.6264 Y113.8678 Z-2.5000 S1000
G1 F750 X17.1839 Y113.0417 Z-2.5000 S1000
G1 F750 X17.5765 Y112.1783 Z-2.5000 S1000
G1 F750 X17.8056 Y111.4245 Z-2.5000 S1000
G1 F750 X17.9600 Y110.4880 Z-2.5000 S1000
G1 F750 X18.0000 Y110.0000 Z-2.5000 S1000
G1 F750 X18.0000 Y3.0000 Z-2.5000 S1000
G1 F750 X17.9777 Y2.6346 Z-2.5000 S1000
G1 F750 X17.8621 Y1.6925 Z-2.5000 S1000
G1 F750 X17.6051 Y0.7939 Z-2.5000 S1000
G1 F750 X17.2062 Y-0.0647 Z-2.5000 S1000
G1 F750 X16.9962 Y-0.4428 Z-2.5000 S1000
G1 F750 X16.5534 Y-0.9741 Z-2.5000 S1000
G1 F750 X15.8678 Y-1.6264 Z-2.5000 S1000
G1 F750 X15.0417 Y-2.1839 Z-2.5000 S1000
G1 F750 X14.1783 Y-2.5765 Z-2.5000 S1000
G1 F750 X13.4245 Y-2.8056 Z-2.5000 S1000
G1 F750 X12.4880 Y-2.9600 Z-2.5000 S1000
G1 F750 X12.0000 Y-3.0000 Z-2.5000 S1000
G1 F100 Z-5.0000
G1 F750 X3.0000 Y-3.0000 Z-5.0000 S1000
G1 F750 X2.6346 Y-2.9777 Z-5.0000 S1000
G1 F750 X1.6925 Y-2.8621 Z-5.0000 S1000
G1 F750 X0.7939 Y-2.6051 Z-5.0000 S1000
G1 F750 X-0.0647 Y-2.2062 Z-5.0000 S1000
G1 F750 X-0.4428 Y-1.9962 Z-5.0000 S1000
G1 F750 X-0.9741 Y-1.5534 Z-5.0000 S1000
G1 F750 X-1.6264 Y-0.8678 Z-5.0000 S1000
G1 F750 X-2.1839 Y-0.0417 Z-5.0000 S1000
G1 F750 X-2.5765 Y0.8217 Z-5.0000 S1000
G1 F750 X-2.8056 Y1.5755 Z-5.0000 S1000
G1 F750 X-2.9600 Y2.5120 Z-5.0000 S1000
G1 F750 X-3.0000 Y3.0000 Z-5.0000 S1000
G1 F750 X-3.0000 Y110.0000 Z-5.0000 S1000
G1 F750 X-2.9600 Y110.4880 Z-5.0000 S1000
G1 F750 X-2.8056 Y111.4245 Z-5.0000 S1000
G1 F750 X-2.5765 Y112.1783 Z-5.0000 S1000
G1 F750 X-2.1839 Y113.0417 Z-5.0000 S1000
G1 F750 X-1.6264 Y113.8678 Z-5.0000 S1000
G1 F750 X-0.9741 Y114.5534 Z-5.0000 S1000
G1 F750 X-0.6542 Y114.8444 Z-5.0000 S1000
G1 F750 X-0.0647 Y115.2062 Z-5.0000 S1000
G1 F750 X0.7939 Y115.6051 Z-5.0000 S1000
G1 F750 X1.6925 Y115.8621 Z-5.0000 S1000
G1 F750 X2.6346 Y115.9777 Z-5.0000 S1000
G1 F750 X3.0000 Y116.0000 Z-5.0000 S1000
G1 F750 X12.0000 Y116.0000 Z-5.0000 S1000
G1 F750 X12.3654 Y115.9777 Z-5.0000 S1000
G1 F750 X13.3075 Y115.8621 Z-5.0000 S1000
G1 F750 X14.2061 Y115.6051 Z-5.0000 S1000
G1 F750 X15.0647 Y115.2062 Z-5.0000 S1000
G1 F750 X15.4428 Y114.9962 Z-5.0000 S1000
G1 F750 X15.9741 Y114.5534 Z-5.0000 S1000
G1 F750 X16.6264 Y113.8678 Z-5.0000 S1000
G1 F750 X17.1839 Y113.0417 Z-5.0000 S1000
G1 F750 X17.5765 Y112.1783 Z-5.0000 S1000
G1 F750 X17.8056 Y111.4245 Z-5.0000 S1000
G1 F750 X17.9600 Y110.4880 Z-5.0000 S1000
G1 F750 X18.0000 Y110.0000 Z-5.0000 S1000
G1 F750 X18.0000 Y3.0000 Z-5.0000 S1000
G1 F750 X17.9777 Y2.6346 Z-5.0000 S1000
G1 F750 X17.8621 Y1.6925 Z-5.0000 S1000
G1 F750 X17.6051 Y0.7939 Z-5.0000 S1000
G1 F750 X17.2062 Y-0.0647 Z-5.0000 S1000
G1 F750 X16.9962 Y-0.4428 Z-5.0000 S1000
G1 F750 X16.5534 Y-0.9741 Z-5.0000 S1000
G1 F750 X15.8678 Y-1.6264 Z-5.0000 S1000
G1 F750 X15.0417 Y-2.1839 Z-5.0000 S1000
G1 F750 X14.1783 Y-2.5765 Z-5.0000 S1000
G1 F750 X13.4245 Y-2.8056 Z-5.0000 S1000
G1 F750 X12.4880 Y-2.9600 Z-5.0000 S1000
G1 F750 X12.0000 Y-3.0000 Z-5.0000 S1000
G1 F100 Z-7.5000
G1 F750 X3.0000 Y-3.0000 Z-7.5000 S1000
G1 F750 X2.6346 Y-2.9777 Z-7.5000 S1000
G1 F750 X1.6925 Y-2.8621 Z-7.5000 S1000
G1 F750 X0.7939 Y-2.6051 Z-7.5000 S1000
G1 F750 X-0.0647 Y-2.2062 Z-7.5000 S1000
G1 F750 X-0.4428 Y-1.9962 Z-7.5000 S1000
G1 F750 X-0.9741 Y-1.5534 Z-7.5000 S1000
G1 F750 X-1.6264 Y-0.8678 Z-7.5000 S1000
G1 F750 X-2.1839 Y-0.0417 Z-7.5000 S1000
G1 F750 X-2.5765 Y0.8217 Z-7.5000 S1000
G1 F750 X-2.8056 Y1.5755 Z-7.5000 S1000
G1 F750 X-2.9600 Y2.5120 Z-7.5000 S1000
G1 F750 X-3.0000 Y3.0000 Z-7.5000 S1000
G1 F750 X-3.0000 Y110.0000 Z-7.5000 S1000
G1 F750 X-2.9600 Y110.4880 Z-7.5000 S1000
G1 F750 X-2.8056 Y111.4245 Z-7.5000 S1000
G1 F750 X-2.5765 Y112.1783 Z-7.5000 S1000
G1 F750 X-2.1839 Y113.0417 Z-7.5000 S1000
G1 F750 X-1.6264 Y113.8678 Z-7.5000 S1000
G1 F750 X-0.9741 Y114.5534 Z-7.5000 S1000
G1 F750 X-0.6542 Y114.8444 Z-7.5000 S1000
G1 F750 X-0.0647 Y115.2062 Z-7.5000 S1000
G1 F750 X0.7939 Y115.6051 Z-7.5000 S1000
G1 F750 X1.6925 Y115.8621 Z-7.5000 S1000
G1 F750 X2.6346 Y115.9777 Z-7.5000 S1000
G1 F750 X3.0000 Y116.0000 Z-7.5000 S1000
G1 F750 X12.0000 Y116.0000 Z-7.5000 S1000
G1 F750 X12.3654 Y115.9777 Z-7.5000 S1000
G1 F750 X13.3075 Y115.8621 Z-7.5000 S1000
G1 F750 X14.2061 Y115.6051 Z-7.5000 S1000
G1 F750 X15.0647 Y115.2062 Z-7.5000 S1000
G1 F750 X15.4428 Y114.9962 Z-7.5000 S1000
G1 F750 X15.9741 Y114.5534 Z-7.5000 S1000
G1 F750 X16.6264 Y113.8678 Z-7.5000 S1000
G1 F750 X17.1839 Y113.0417 Z-7.5000 S1000
G1 F750 X17.5765 Y112.1783 Z-7.5000 S1000
G1 F750 X17.8056 Y111.4245 Z-7.5000 S1000
G1 F750 X17.9600 Y110.4880 Z-7.5000 S1000
G1 F750 X18.0000 Y110.0000 Z-7.5000 S1000
G1 F750 X18.0000 Y3.0000 Z-7.5000 S1000
G1 F750 X17.9777 Y2.6346 Z-7.5000 S1000
G1 F750 X17.8621 Y1.6925 Z-7.5000 S1000
G1 F750 X17.6051 Y0.7939 Z-7.5000 S1000
G1 F750 X17.2062 Y-0.0647 Z-7.5000 S1000
G1 F750 X16.9962 Y-0.4428 Z-7.5000 S1000
G1 F750 X16.5534 Y-0.9741 Z-7.5000 S1000
G1 F750 X15.8678 Y-1.6264 Z-7.5000 S1000
G1 F750 X15.0417 Y-2.1839 Z-7.5000 S1000
G1 F750 X14.1783 Y-2.5765 Z-7.5000 S1000
G1 F750 X13.4245 Y-2.8056 Z-7.5000 S1000
G1 F750 X12.4880 Y-2.9600 Z-7.5000 S1000
G1 F750 X12.0000 Y-3.0000 Z-7.5000 S1000
G1 F100 Z-10.0000
G1 F750 X3.0000 Y-3.0000 Z-10.0000 S1000
G1 F750 X2.6346 Y-2.9777 Z-10.0000 S1000
G1 F750 X1.6925 Y-2.8621 Z-10.0000 S1000
G1 F750 X0.7939 Y-2.6051 Z-10.0000 S1000
G1 F750 X-0.0647 Y-2.2062 Z-10.0000 S1000
G1 F750 X-0.4428 Y-1.9962 Z-10.0000 S1000
G1 F750 X-0.9741 Y-1.5534 Z-10.0000 S1000
G1 F750 X-1.6264 Y-0.8678 Z-10.0000 S1000
G1 F750 X-2.1839 Y-0.0417 Z-10.0000 S1000
G1 F750 X-2.5765 Y0.8217 Z-10.0000 S1000
G1 F750 X-2.8056 Y1.5755 Z-10.0000 S1000
G1 F750 X-2.9600 Y2.5120 Z-10.0000 S1000
G1 F750 X-3.0000 Y3.0000 Z-10.0000 S1000
G1 F750 X-3.0000 Y110.0000 Z-10.0000 S1000
G1 F750 X-2.9600 Y110.4880 Z-10.0000 S1000
G1 F750 X-2.8056 Y111.4245 Z-10.0000 S1000
G1 F750 X-2.5765 Y112.1783 Z-10.0000 S1000
G1 F750 X-2.1839 Y113.0417 Z-10.0000 S1000
G1 F750 X-1.6264 Y113.8678 Z-10.0000 S1000
G1 F750 X-0.9741 Y114.5534 Z-10.0000 S1000
G1 F750 X-0.6542 Y114.8444 Z-10.0000 S1000
G1 F750 X-0.0647 Y115.2062 Z-10.0000 S1000
G1 F750 X0.7939 Y115.6051 Z-10.0000 S1000
G1 F750 X1.6925 Y115.8621 Z-10.0000 S1000
G1 F750 X2.6346 Y115.9777 Z-10.0000 S1000
G1 F750 X3.0000 Y116.0000 Z-10.0000 S1000
G1 F750 X12.0000 Y116.0000 Z-10.0000 S1000
G1 F750 X12.3654 Y115.9777 Z-10.0000 S1000
G1 F750 X13.3075 Y115.8621 Z-10.0000 S1000
G1 F750 X14.2061 Y115.6051 Z-10.0000 S1000
G1 F750 X15.0647 Y115.2062 Z-10.0000 S1000
G1 F750 X15.4428 Y114.9962 Z-10.0000 S1000
G1 F750 X15.9741 Y114.5534 Z-10.0000 S1000
G1 F750 X16.6264 Y113.8678 Z-10.0000 S1000
G1 F750 X17.1839 Y113.0417 Z-10.0000 S1000
G1 F750 X17.5765 Y112.1783 Z-10.0000 S1000
G1 F750 X17.8056 Y111.4245 Z-10.0000 S1000
G1 F750 X17.9600 Y110.4880 Z-10.0000 S1000
G1 F750 X18.0000 Y110.0000 Z-10.0000 S1000
G1 F750 X18.0000 Y3.0000 Z-10.0000 S1000
G1 F750 X17.9777 Y2.6346 Z-10.0000 S1000
G1 F750 X17.8621 Y1.6925 Z-10.0000 S1000
G1 F750 X17.6051 Y0.7939 Z-10.0000 S1000
G1 F750 X17.2062 Y-0.0647 Z-10.0000 S1000
G1 F750 X16.9962 Y-0.4428 Z-10.0000 S1000
G1 F750 X16.5534 Y-0.9741 Z-10.0000 S1000
G1 F750 X15.8678 Y-1.6264 Z-10.0000 S1000
G1 F750 X15.0417 Y-2.1839 Z-10.0000 S1000
G1 F750 X14.1783 Y-2.5765 Z-10.0000 S1000
G1 F750 X13.4245 Y-2.8056 Z-10.0000 S1000
G1 F750 X12.4880 Y-2.9600 Z-10.0000 S1000
G1 F750 X12.0000 Y-3.0000 Z-10.0000 S1000
G1 F100 Z-12.5000
G1 F750 X3.0000 Y-3.0000 Z-12.5000 S1000
G1 F750 X2.6346 Y-2.9777 Z-12.5000 S1000
G1 F750 X1.6925 Y-2.8621 Z-12.5000 S1000
G1 F750 X0.7939 Y-2.6051 Z-12.5000 S1000
G1 F750 X-0.0647 Y-2.2062 Z-12.5000 S1000
G1 F750 X-0.4428 Y-1.9962 Z-12.5000 S1000
G1 F750 X-0.9741 Y-1.5534 Z-12.5000 S1000
G1 F750 X-1.6264 Y-0.8678 Z-12.5000 S1000
G1 F750 X-2.1839 Y-0.0417 Z-12.5000 S1000
G1 F750 X-2.5765 Y0.8217 Z-12.5000 S1000
G1 F750 X-2.8056 Y1.5755 Z-12.5000 S1000
G1 F750 X-2.9600 Y2.5120 Z-12.5000 S1000
G1 F750 X-3.0000 Y3.0000 Z-12.5000 S1000
G1 F750 X-3.0000 Y110.0000 Z-12.5000 S1000
G1 F750 X-2.9600 Y110.4880 Z-12.5000 S1000
G1 F750 X-2.8056 Y111.4245 Z-12.5000 S1000
G1 F750 X-2.5765 Y112.1783 Z-12.5000 S1000
G1 F750 X-2.1839 Y113.0417 Z-12.5000 S1000
G1 F750 X-1.6264 Y113.8678 Z-12.5000 S1000
G1 F750 X-0.9741 Y114.5534 Z-12.5000 S1000
G1 F750 X-0.6542 Y114.8444 Z-12.5000 S1000
G1 F750 X-0.0647 Y115.2062 Z-12.5000 S1000
G1 F750 X0.7939 Y115.6051 Z-12.5000 S1000
G1 F750 X1.6925 Y115.8621 Z-12.5000 S1000
G1 F750 X2.6346 Y115.9777 Z-12.5000 S1000
G1 F750 X3.0000 Y116.0000 Z-12.5000 S1000
G1 F750 X12.0000 Y116.0000 Z-12.5000 S1000
G1 F750 X12.3654 Y115.9777 Z-12.5000 S1000
G1 F750 X13.3075 Y115.8621 Z-12.5000 S1000
G1 F750 X14.2061 Y115.6051 Z-12.5000 S1000
G1 F750 X15.0647 Y115.2062 Z-12.5000 S1000
G1 F750 X15.4428 Y114.9962 Z-12.5000 S1000
G1 F750 X15.9741 Y114.5534 Z-12.5000 S1000
G1 F750 X16.6264 Y113.8678 Z-12.5000 S1000
G1 F750 X17.1839 Y113.0417 Z-12.5000 S1000
G1 F750 X17.5765 Y112.1783 Z-12.5000 S1000
G1 F750 X17.8056 Y111.4245 Z-12.5000 S1000
G1 F750 X17.9600 Y110.4880 Z-12.5000 S1000
G1 F750 X18.0000 Y110.0000 Z-12.5000 S1000
G1 F750 X18.0000 Y3.0000 Z-12.5000 S1000
G1 F750 X17.9777 Y2.6346 Z-12.5000 S1000
G1 F750 X17.8621 Y1.6925 Z-12.5000 S1000
G1 F750 X17.6051 Y0.7939 Z-12.5000 S1000
G1 F750 X17.2062 Y-0.0647 Z-12.5000 S1000
G1 F750 X16.9962 Y-0.4428 Z-12.5000 S1000
G1 F750 X16.5534 Y-0.9741 Z-12.5000 S1000
G1 F750 X15.8678 Y-1.6264 Z-12.5000 S1000
G1 F750 X15.0417 Y-2.1839 Z-12.5000 S1000
G1 F750 X14.1783 Y-2.5765 Z-12.5000 S1000
G1 F750 X13.4245 Y-2.8056 Z-12.5000 S1000
G1 F750 X12.4880 Y-2.9600 Z-12.5000 S1000
G1 F750 X12.0000 Y-3.0000 Z-12.5000 S1000
G1 F100 Z-15.0000
G1 F750 X3.0000 Y-3.0000 Z-15.0000 S1000
G1 F750 X2.6346 Y-2.9777 Z-15.0000 S1000
G1 F750 X1.6925 Y-2.8621 Z-15.0000 S1000
G1 F750 X0.7939 Y-2.6051 Z-15.0000 S1000
G1 F750 X-0.0647 Y-2.2062 Z-15.0000 S1000
G1 F750 X-0.4428 Y-1.9962 Z-15.0000 S1000
G1 F750 X-0.9741 Y-1.5534 Z-15.0000 S1000
G1 F750 X-1.6264 Y-0.8678 Z-15.0000 S1000
G1 F750 X-2.1839 Y-0.0417 Z-15.0000 S1000
G1 F750 X-2.5765 Y0.8217 Z-15.0000 S1000
G1 F750 X-2.8056 Y1.5755 Z-15.0000 S1000
G1 F750 X-2.9600 Y2.5120 Z-15.0000 S1000
G1 F750 X-3.0000 Y3.0000 Z-15.0000 S1000
G1 F750 X-3.0000 Y110.0000 Z-15.0000 S1000
G1 F750 X-2.9600 Y110.4880 Z-15.0000 S1000
G1 F750 X-2.8056 Y111.4245 Z-15.0000 S1000
G1 F750 X-2.5765 Y112.1783 Z-15.0000 S1000
G1 F750 X-2.1839 Y113.0417 Z-15.0000 S1000
G1 F750 X-1.6264 Y113.8678 Z-15.0000 S1000
G1 F750 X-0.9741 Y114.5534 Z-15.0000 S1000
G1 F750 X-0.6542 Y114.8444 Z-15.0000 S1000
G1 F750 X-0.0647 Y115.2062 Z-15.0000 S1000
G1 F750 X0.7939 Y115.6051 Z-15.0000 S1000
G1 F750 X1.6925 Y115.8621 Z-15.0000 S1000
G1 F750 X2.6346 Y115.9777 Z-15.0000 S1000
G1 F750 X3.0000 Y116.0000 Z-15.0000 S1000
G1 F750 X12.0000 Y116.0000 Z-15.0000 S1000
G1 F750 X12.3654 Y115.9777 Z-15.0000 S1000
G1 F750 X13.3075 Y115.8621 Z-15.0000 S1000
G1 F750 X14.2061 Y115.6051 Z-15.0000 S1000
G1 F750 X15.0647 Y115.2062 Z-15.0000 S1000
G1 F750 X15.4428 Y114.9962 Z-15.0000 S1000
G1 F750 X15.9741 Y114.5534 Z-15.0000 S1000
G1 F750 X16.6264 Y113.8678 Z-15.0000 S1000
G1 F750 X17.1839 Y113.0417 Z-15.0000 S1000
G1 F750 X17.5765 Y112.1783 Z-15.0000 S1000
G1 F750 X17.8056 Y111.4245 Z-15.0000 S1000
G1 F750 X17.9600 Y110.4880 Z-15.0000 S1000
G1 F750 X18.0000 Y110.0000 Z-15.0000 S1000
G1 F750 X18.0000 Y3.0000 Z-15.0000 S1000
G1 F750 X17.9777 Y2.6346 Z-15.0000 S1000
G1 F750 X17.8621 Y1.6925 Z-15.0000 S1000
G1 F750 X17.6051 Y0.7939 Z-15.0000 S1000
G1 F750 X17.2062 Y-0.0647 Z-15.0000 S1000
G1 F750 X16.9962 Y-0.4428 Z-15.0000 S1000
G1 F750 X16.5534 Y-0.9741 Z-15.0000 S1000
G1 F750 X15.8678 Y-1.6264 Z-15.0000 S1000
G1 F750 X15.0417 Y-2.1839 Z-15.0000 S1000
G1 F750 X14.1783 Y-2.5765 Z-15.0000 S1000
G1 F750 X13.4245 Y-2.8056 Z-15.0000 S1000
G1 F750 X12.4880 Y-2.9600 Z-15.0000 S1000
G1 F750 X12.0000 Y-3.0000 Z-15.0000 S1000
G1 F100 Z-17.5000
G1 F750 X3.0000 Y-3.0000 Z-17.5000 S1000
G1 F750 X2.6346 Y-2.9777 Z-17.5000 S1000
G1 F750 X1.6925 Y-2.8621 Z-17.5000 S1000
G1 F750 X0.7939 Y-2.6051 Z-17.5000 S1000
G1 F750 X-0.0647 Y-2.2062 Z-17.5000 S1000
G1 F750 X-0.4428 Y-1.9962 Z-17.5000 S1000
G1 F750 X-0.9741 Y-1.5534 Z-17.5000 S1000
G1 F750 X-1.6264 Y-0.8678 Z-17.5000 S1000
G1 F750 X-2.1839 Y-0.0417 Z-17.5000 S1000
G1 F750 X-2.5765 Y0.8217 Z-17.5000 S1000
G1 F750 X-2.8056 Y1.5755 Z-17.5000 S1000
G1 F750 X-2.9600 Y2.5120 Z-17.5000 S1000
G1 F750 X-3.0000 Y3.0000 Z-17.5000 S1000
G1 F750 X-3.0000 Y110.0000 Z-17.5000 S1000
G1 F750 X-2.9600 Y110.4880 Z-17.5000 S1000
G1 F750 X-2.8056 Y111.4245 Z-17.5000 S1000
G1 F750 X-2.5765 Y112.1783 Z-17.5000 S1000
G1 F750 X-2.1839 Y113.0417 Z-17.5000 S1000
G1 F750 X-1.6264 Y113.8678 Z-17.5000 S1000
G1 F750 X-0.9741 Y114.5534 Z-17.5000 S1000
G1 F750 X-0.6542 Y114.8444 Z-17.5000 S1000
G1 F750 X-0.0647 Y115.2062 Z-17.5000 S1000
G1 F750 X0.7939 Y115.6051 Z-17.5000 S1000
G1 F750 X1.6925 Y115.8621 Z-17.5000 S1000
G1 F750 X2.6346 Y115.9777 Z-17.5000 S1000
G1 F750 X3.0000 Y116.0000 Z-17.5000 S1000
G1 F750 X12.0000 Y116.0000 Z-17.5000 S1000
G1 F750 X12.3654 Y115.9777 Z-17.5000 S1000
G1 F750 X13.3075 Y115.8621 Z-17.5000 S1000
G1 F750 X14.2061 Y115.6051 Z-17.5000 S1000
G1 F750 X15.0647 Y115.2062 Z-17.5000 S1000
G1 F750 X15.4428 Y114.9962 Z-17.5000 S1000
G1 F750 X15.9741 Y114.5534 Z-17.5000 S1000
G1 F750 X16.6264 Y113.8678 Z-17.5000 S1000
G1 F750 X17.1839 Y113.0417 Z-17.5000 S1000
G1 F750 X17.5765 Y112.1783 Z-17.5000 S1000
G1 F750 X17.8056 Y111.4245 Z-17.5000 S1000
G1 F750 X17.9600 Y110.4880 Z-17.5000 S1000
G1 F750 X18.0000 Y110.0000 Z-17.5000 S1000
G1 F750 X18.0000 Y3.0000 Z-17.5000 S1000
G1 F750 X17.9777 Y2.6346 Z-17.5000 S1000
G1 F750 X17.8621 Y1.6925 Z-17.5000 S1000
G1 F750 X17.6051 Y0.7939 Z-17.5000 S1000
G1 F750 X17.2062 Y-0.0647 Z-17.5000 S1000
G1 F750 X16.9962 Y-0.4428 Z-17.5000 S1000
G1 F750 X16.5534 Y-0.9741 Z-17.5000 S1000
G1 F750 X15.8678 Y-1.6264 Z-17.5000 S1000
G1 F750 X15.0417 Y-2.1839 Z-17.5000 S1000
G1 F750 X14.1783 Y-2.5765 Z-17.5000 S1000
G1 F750 X13.4245 Y-2.8056 Z-17.5000 S1000
G1 F750 X12.4880 Y-2.9600 Z-17.5000 S1000
G1 F750 X12.0000 Y-3.0000 Z-17.5000 S1000
G1 F100 Z-19.0000
G1 F750 X3.0000 Y-3.0000 Z-19.0000 S1000
G1 F750 X2.6346 Y-2.9777 Z-19.0000 S1000
G1 F750 X1.6925 Y-2.8621 Z-19.0000 S1000
G1 F750 X0.7939 Y-2.6051 Z-19.0000 S1000
G1 F750 X-0.0647 Y-2.2062 Z-19.0000 S1000
G1 F750 X-0.4428 Y-1.9962 Z-19.0000 S1000
G1 F750 X-0.9741 Y-1.5534 Z-19.0000 S1000
G1 F750 X-1.6264 Y-0.8678 Z-19.0000 S1000
G1 F750 X-2.1839 Y-0.0417 Z-19.0000 S1000
G1 F750 X-2.5765 Y0.8217 Z-19.0000 S1000
G1 F750 X-2.8056 Y1.5755 Z-19.0000 S1000
G1 F750 X-2.9600 Y2.5120 Z-19.0000 S1000
G1 F750 X-3.0000 Y3.0000 Z-19.0000 S1000
G1 F750 X-3.0000 Y110.0000 Z-19.0000 S1000
G1 F750 X-2.9600 Y110.4880 Z-19.0000 S1000
G1 F750 X-2.8056 Y111.4245 Z-19.0000 S1000
G1 F750 X-2.5765 Y112.1783 Z-19.0000 S1000
G1 F750 X-2.1839 Y113.0417 Z-19.0000 S1000
G1 F750 X-1.6264 Y113.8678 Z-19.0000 S1000
G1 F750 X-0.9741 Y114.5534 Z-19.0000 S1000
G1 F750 X-0.6542 Y114.8444 Z-19.0000 S1000
G1 F750 X-0.0647 Y115.2062 Z-19.0000 S1000
G1 F750 X0.7939 Y115.6051 Z-19.0000 S1000
G1 F750 X1.6925 Y115.8621 Z-19.0000 S1000
G1 F750 X2.6346 Y115.9777 Z-19.0000 S1000
G1 F750 X3.0000 Y116.0000 Z-19.0000 S1000
G1 F750 X12.0000 Y116.0000 Z-19.0000 S1000
G1 F750 X12.3654 Y115.9777 Z-19.0000 S1000
G1 F750 X13.3075 Y115.8621 Z-19.0000 S1000
G1 F750 X14.2061 Y115.6051 Z-19.0000 S1000
G1 F750 X15.0647 Y115.2062 Z-19.0000 S1000
G1 F750 X15.4428 Y114.9962 Z-19.0000 S1000
G1 F750 X15.9741 Y114.5534 Z-19.0000 S1000
G1 F750 X16.6264 Y113.8678 Z-19.0000 S1000
G1 F750 X17.1839 Y113.0417 Z-19.0000 S1000
G1 F750 X17.5765 Y112.1783 Z-19.0000 S1000
G1 F750 X17.8056 Y111.4245 Z-19.0000 S1000
G1 F750 X17.9600 Y110.4880 Z-19.0000 S1000
G1 F750 X18.0000 Y110.0000 Z-19.0000 S1000
G1 F750 X18.0000 Y3.0000 Z-19.0000 S1000
G1 F750 X17.9777 Y2.6346 Z-19.0000 S1000
G1 F750 X17.8621 Y1.6925 Z-19.0000 S1000
G1 F750 X17.6051 Y0.7939 Z-19.0000 S1000
G1 F750 X17.2062 Y-0.0647 Z-19.0000 S1000
G1 F750 X16.9962 Y-0.4428 Z-19.0000 S1000
G1 F750 X16.5534 Y-0.9741 Z-19.0000 S1000
G1 F750 X15.8678 Y-1.6264 Z-19.0000 S1000
G1 F750 X15.0417 Y-2.1839 Z-19.0000 S1000
G1 F750 X14.1783 Y-2.5765 Z-19.0000 S1000
G1 F750 X13.4245 Y-2.8056 Z-19.0000 S1000
G1 F750 X12.4880 Y-2.9600 Z-19.0000 S1000
G1 F750 X12.0000 Y-3.0000 Z-19.0000 S1000
; retracting back to z-safe
G0 Z10

M5 S0; Spindle Off
