; GCODE Generated by cam.openbuilds.com on 2021-03-11 
G21 ; mm-mode
G54; Work Coordinates
G21; mm-mode
G90; Absolute Positioning
M3 S1000; Spindle On

; Operation 0: CNC: Pocket
; Endmill Diameter: 6

G0 Z10; move to z-safe height
G0 F1000 X8.8000 Y172.8000

G0 Z0
G1 F100 Z-1.5000
G1 F1000 X7.2000 Y172.8000 Z-1.5000 S1000
G1 F1000 X7.2000 Y7.2000 Z-1.5000 S1000
G1 F1000 X8.8000 Y7.2000 Z-1.5000 S1000
G1 F1000 X8.8000 Y172.8000 Z-1.5000 S1000
G1 F100 Z-3.0000
G1 F1000 X7.2000 Y172.8000 Z-3.0000 S1000
G1 F1000 X7.2000 Y7.2000 Z-3.0000 S1000
G1 F1000 X8.8000 Y7.2000 Z-3.0000 S1000
G1 F1000 X8.8000 Y172.8000 Z-3.0000 S1000

G0 Z10; move to z-safe height
G0 X11.2000 Y175.2000

G0 Z0
G1 F100 Z-1.5000
G1 F1000 X4.8000 Y175.2000 Z-1.5000 S1000
G1 F1000 X4.8000 Y4.8000 Z-1.5000 S1000
G1 F1000 X11.2000 Y4.8000 Z-1.5000 S1000
G1 F1000 X11.2000 Y175.2000 Z-1.5000 S1000
G1 F100 Z-3.0000
G1 F1000 X4.8000 Y175.2000 Z-3.0000 S1000
G1 F1000 X4.8000 Y4.8000 Z-3.0000 S1000
G1 F1000 X11.2000 Y4.8000 Z-3.0000 S1000
G1 F1000 X11.2000 Y175.2000 Z-3.0000 S1000

G0 Z10; move to z-safe height
G0 X13.0000 Y177.0000

G0 Z0
G1 F100 Z-1.5000
G1 F1000 X3.0000 Y177.0000 Z-1.5000 S1000
G1 F1000 X3.0000 Y3.0000 Z-1.5000 S1000
G1 F1000 X13.0000 Y3.0000 Z-1.5000 S1000
G1 F1000 X13.0000 Y177.0000 Z-1.5000 S1000
G1 F100 Z-3.0000
G1 F1000 X3.0000 Y177.0000 Z-3.0000 S1000
G1 F1000 X3.0000 Y3.0000 Z-3.0000 S1000
G1 F1000 X13.0000 Y3.0000 Z-3.0000 S1000
G1 F1000 X13.0000 Y177.0000 Z-3.0000 S1000
; retracting back to z-safe
G0 Z10
; Operation 1: CNC: Vector (path outside)
; Endmill Diameter: 6

G0 Z10; move to z-safe height
G0 F1000 X27.0000 Y11.5000

G0 Z0
G1 F100 Z-2.5000
G1 F1000 X3.0000 Y11.5000 Z-2.5000 S1000
G1 F1000 X2.6346 Y11.5223 Z-2.5000 S1000
G1 F1000 X1.6925 Y11.6379 Z-2.5000 S1000
G1 F1000 X0.7939 Y11.8949 Z-2.5000 S1000
G1 F1000 X-0.0647 Y12.2938 Z-2.5000 S1000
G1 F1000 X-0.4428 Y12.5038 Z-2.5000 S1000
G1 F1000 X-0.9741 Y12.9466 Z-2.5000 S1000
G1 F1000 X-1.6264 Y13.6322 Z-2.5000 S1000
G1 F1000 X-2.1839 Y14.4583 Z-2.5000 S1000
G1 F1000 X-2.5765 Y15.3217 Z-2.5000 S1000
G1 F1000 X-2.8056 Y16.0755 Z-2.5000 S1000
G1 F1000 X-2.9600 Y17.0120 Z-2.5000 S1000
G1 F1000 X-3.0000 Y17.5000 Z-2.5000 S1000
G1 F1000 X-3.0000 Y162.5000 Z-2.5000 S1000
G1 F1000 X-2.9600 Y162.9880 Z-2.5000 S1000
G1 F1000 X-2.8056 Y163.9245 Z-2.5000 S1000
G1 F1000 X-2.5765 Y164.6783 Z-2.5000 S1000
G1 F1000 X-2.1839 Y165.5417 Z-2.5000 S1000
G1 F1000 X-1.6264 Y166.3678 Z-2.5000 S1000
G1 F1000 X-0.9741 Y167.0534 Z-2.5000 S1000
G1 F1000 X-0.6542 Y167.3444 Z-2.5000 S1000
G1 F1000 X-0.0647 Y167.7062 Z-2.5000 S1000
G1 F1000 X0.7939 Y168.1051 Z-2.5000 S1000
G1 F1000 X1.6925 Y168.3621 Z-2.5000 S1000
G1 F1000 X2.6346 Y168.4777 Z-2.5000 S1000
G1 F1000 X3.0000 Y168.5000 Z-2.5000 S1000
G1 F1000 X27.0000 Y168.5000 Z-2.5000 S1000
G1 F1000 X27.3654 Y168.4777 Z-2.5000 S1000
G1 F1000 X28.3075 Y168.3621 Z-2.5000 S1000
G1 F1000 X29.2061 Y168.1051 Z-2.5000 S1000
G1 F1000 X30.0647 Y167.7062 Z-2.5000 S1000
G1 F1000 X30.4428 Y167.4962 Z-2.5000 S1000
G1 F1000 X30.9741 Y167.0534 Z-2.5000 S1000
G1 F1000 X31.6264 Y166.3678 Z-2.5000 S1000
G1 F1000 X32.1839 Y165.5417 Z-2.5000 S1000
G1 F1000 X32.5765 Y164.6783 Z-2.5000 S1000
G1 F1000 X32.8056 Y163.9245 Z-2.5000 S1000
G1 F1000 X32.9600 Y162.9880 Z-2.5000 S1000
G1 F1000 X33.0000 Y162.5000 Z-2.5000 S1000
G1 F1000 X33.0000 Y17.5000 Z-2.5000 S1000
G1 F1000 X32.9777 Y17.1346 Z-2.5000 S1000
G1 F1000 X32.8621 Y16.1925 Z-2.5000 S1000
G1 F1000 X32.6051 Y15.2939 Z-2.5000 S1000
G1 F1000 X32.2062 Y14.4353 Z-2.5000 S1000
G1 F1000 X31.9962 Y14.0572 Z-2.5000 S1000
G1 F1000 X31.5534 Y13.5259 Z-2.5000 S1000
G1 F1000 X30.8678 Y12.8736 Z-2.5000 S1000
G1 F1000 X30.0417 Y12.3161 Z-2.5000 S1000
G1 F1000 X29.1783 Y11.9235 Z-2.5000 S1000
G1 F1000 X28.4245 Y11.6944 Z-2.5000 S1000
G1 F1000 X27.4880 Y11.5400 Z-2.5000 S1000
G1 F1000 X27.0000 Y11.5000 Z-2.5000 S1000
G1 F100 Z-5.0000
G1 F1000 X3.0000 Y11.5000 Z-5.0000 S1000
G1 F1000 X2.6346 Y11.5223 Z-5.0000 S1000
G1 F1000 X1.6925 Y11.6379 Z-5.0000 S1000
G1 F1000 X0.7939 Y11.8949 Z-5.0000 S1000
G1 F1000 X-0.0647 Y12.2938 Z-5.0000 S1000
G1 F1000 X-0.4428 Y12.5038 Z-5.0000 S1000
G1 F1000 X-0.9741 Y12.9466 Z-5.0000 S1000
G1 F1000 X-1.6264 Y13.6322 Z-5.0000 S1000
G1 F1000 X-2.1839 Y14.4583 Z-5.0000 S1000
G1 F1000 X-2.5765 Y15.3217 Z-5.0000 S1000
G1 F1000 X-2.8056 Y16.0755 Z-5.0000 S1000
G1 F1000 X-2.9600 Y17.0120 Z-5.0000 S1000
G1 F1000 X-3.0000 Y17.5000 Z-5.0000 S1000
G1 F1000 X-3.0000 Y162.5000 Z-5.0000 S1000
G1 F1000 X-2.9600 Y162.9880 Z-5.0000 S1000
G1 F1000 X-2.8056 Y163.9245 Z-5.0000 S1000
G1 F1000 X-2.5765 Y164.6783 Z-5.0000 S1000
G1 F1000 X-2.1839 Y165.5417 Z-5.0000 S1000
G1 F1000 X-1.6264 Y166.3678 Z-5.0000 S1000
G1 F1000 X-0.9741 Y167.0534 Z-5.0000 S1000
G1 F1000 X-0.6542 Y167.3444 Z-5.0000 S1000
G1 F1000 X-0.0647 Y167.7062 Z-5.0000 S1000
G1 F1000 X0.7939 Y168.1051 Z-5.0000 S1000
G1 F1000 X1.6925 Y168.3621 Z-5.0000 S1000
G1 F1000 X2.6346 Y168.4777 Z-5.0000 S1000
G1 F1000 X3.0000 Y168.5000 Z-5.0000 S1000
G1 F1000 X27.0000 Y168.5000 Z-5.0000 S1000
G1 F1000 X27.3654 Y168.4777 Z-5.0000 S1000
G1 F1000 X28.3075 Y168.3621 Z-5.0000 S1000
G1 F1000 X29.2061 Y168.1051 Z-5.0000 S1000
G1 F1000 X30.0647 Y167.7062 Z-5.0000 S1000
G1 F1000 X30.4428 Y167.4962 Z-5.0000 S1000
G1 F1000 X30.9741 Y167.0534 Z-5.0000 S1000
G1 F1000 X31.6264 Y166.3678 Z-5.0000 S1000
G1 F1000 X32.1839 Y165.5417 Z-5.0000 S1000
G1 F1000 X32.5765 Y164.6783 Z-5.0000 S1000
G1 F1000 X32.8056 Y163.9245 Z-5.0000 S1000
G1 F1000 X32.9600 Y162.9880 Z-5.0000 S1000
G1 F1000 X33.0000 Y162.5000 Z-5.0000 S1000
G1 F1000 X33.0000 Y17.5000 Z-5.0000 S1000
G1 F1000 X32.9777 Y17.1346 Z-5.0000 S1000
G1 F1000 X32.8621 Y16.1925 Z-5.0000 S1000
G1 F1000 X32.6051 Y15.2939 Z-5.0000 S1000
G1 F1000 X32.2062 Y14.4353 Z-5.0000 S1000
G1 F1000 X31.9962 Y14.0572 Z-5.0000 S1000
G1 F1000 X31.5534 Y13.5259 Z-5.0000 S1000
G1 F1000 X30.8678 Y12.8736 Z-5.0000 S1000
G1 F1000 X30.0417 Y12.3161 Z-5.0000 S1000
G1 F1000 X29.1783 Y11.9235 Z-5.0000 S1000
G1 F1000 X28.4245 Y11.6944 Z-5.0000 S1000
G1 F1000 X27.4880 Y11.5400 Z-5.0000 S1000
G1 F1000 X27.0000 Y11.5000 Z-5.0000 S1000
G1 F100 Z-7.5000
G1 F1000 X20.0000 Y11.5000 Z-7.5000 S1000
G1 F1000 X20.0000 Y11.5000 Z-5.0000 S1000
G1 F1000 X10.0000 Y11.5000 Z-5.0000 S1000
G1 F1000 X10.0000 Y11.5000 Z-7.5000 S1000
G1 F1000 X3.0000 Y11.5000 Z-7.5000 S1000
G1 F1000 X3.0000 Y11.5000 Z-7.5000 S1000
G1 F1000 X2.6346 Y11.5223 Z-7.5000 S1000
G1 F1000 X1.6925 Y11.6379 Z-7.5000 S1000
G1 F1000 X0.7939 Y11.8949 Z-7.5000 S1000
G1 F1000 X-0.0647 Y12.2938 Z-7.5000 S1000
G1 F1000 X-0.4428 Y12.5038 Z-7.5000 S1000
G1 F1000 X-0.9741 Y12.9466 Z-7.5000 S1000
G1 F1000 X-1.6264 Y13.6322 Z-7.5000 S1000
G1 F1000 X-2.1839 Y14.4583 Z-7.5000 S1000
G1 F1000 X-2.5765 Y15.3217 Z-7.5000 S1000
G1 F1000 X-2.8056 Y16.0755 Z-7.5000 S1000
G1 F1000 X-2.9600 Y17.0120 Z-7.5000 S1000
G1 F1000 X-3.0000 Y17.5000 Z-7.5000 S1000
G1 F1000 X-3.0000 Y162.5000 Z-7.5000 S1000
G1 F1000 X-2.9600 Y162.9880 Z-7.5000 S1000
G1 F1000 X-2.8056 Y163.9245 Z-7.5000 S1000
G1 F1000 X-2.5765 Y164.6783 Z-7.5000 S1000
G1 F1000 X-2.1839 Y165.5417 Z-7.5000 S1000
G1 F1000 X-1.6264 Y166.3678 Z-7.5000 S1000
G1 F1000 X-0.9741 Y167.0534 Z-7.5000 S1000
G1 F1000 X-0.6542 Y167.3444 Z-7.5000 S1000
G1 F1000 X-0.0647 Y167.7062 Z-7.5000 S1000
G1 F1000 X0.7939 Y168.1051 Z-7.5000 S1000
G1 F1000 X1.6925 Y168.3621 Z-7.5000 S1000
G1 F1000 X2.6346 Y168.4777 Z-7.5000 S1000
G1 F1000 X3.0000 Y168.5000 Z-7.5000 S1000
G1 F1000 X10.0000 Y168.5000 Z-7.5000 S1000
G1 F1000 X10.0000 Y168.5000 Z-5.0000 S1000
G1 F1000 X20.0000 Y168.5000 Z-5.0000 S1000
G1 F1000 X20.0000 Y168.5000 Z-7.5000 S1000
G1 F1000 X27.0000 Y168.5000 Z-7.5000 S1000
G1 F1000 X27.0000 Y168.5000 Z-7.5000 S1000
G1 F1000 X27.3654 Y168.4777 Z-7.5000 S1000
G1 F1000 X28.3075 Y168.3621 Z-7.5000 S1000
G1 F1000 X29.2061 Y168.1051 Z-7.5000 S1000
G1 F1000 X30.0647 Y167.7062 Z-7.5000 S1000
G1 F1000 X30.4428 Y167.4962 Z-7.5000 S1000
G1 F1000 X30.9741 Y167.0534 Z-7.5000 S1000
G1 F1000 X31.6264 Y166.3678 Z-7.5000 S1000
G1 F1000 X32.1839 Y165.5417 Z-7.5000 S1000
G1 F1000 X32.5765 Y164.6783 Z-7.5000 S1000
G1 F1000 X32.8056 Y163.9245 Z-7.5000 S1000
G1 F1000 X32.9600 Y162.9880 Z-7.5000 S1000
G1 F1000 X33.0000 Y162.5000 Z-7.5000 S1000
G1 F1000 X33.0000 Y17.5000 Z-7.5000 S1000
G1 F1000 X32.9777 Y17.1346 Z-7.5000 S1000
G1 F1000 X32.8621 Y16.1925 Z-7.5000 S1000
G1 F1000 X32.6051 Y15.2939 Z-7.5000 S1000
G1 F1000 X32.2062 Y14.4353 Z-7.5000 S1000
G1 F1000 X31.9962 Y14.0572 Z-7.5000 S1000
G1 F1000 X31.5534 Y13.5259 Z-7.5000 S1000
G1 F1000 X30.8678 Y12.8736 Z-7.5000 S1000
G1 F1000 X30.0417 Y12.3161 Z-7.5000 S1000
G1 F1000 X29.1783 Y11.9235 Z-7.5000 S1000
G1 F1000 X28.4245 Y11.6944 Z-7.5000 S1000
G1 F1000 X27.4880 Y11.5400 Z-7.5000 S1000
G1 F1000 X27.0000 Y11.5000 Z-7.5000 S1000
G1 F100 Z-9.0000
G1 F1000 X20.0000 Y11.5000 Z-9.0000 S1000
G1 F1000 X20.0000 Y11.5000 Z-5.0000 S1000
G1 F1000 X10.0000 Y11.5000 Z-5.0000 S1000
G1 F1000 X10.0000 Y11.5000 Z-9.0000 S1000
G1 F1000 X3.0000 Y11.5000 Z-9.0000 S1000
G1 F1000 X3.0000 Y11.5000 Z-9.0000 S1000
G1 F1000 X2.6346 Y11.5223 Z-9.0000 S1000
G1 F1000 X1.6925 Y11.6379 Z-9.0000 S1000
G1 F1000 X0.7939 Y11.8949 Z-9.0000 S1000
G1 F1000 X-0.0647 Y12.2938 Z-9.0000 S1000
G1 F1000 X-0.4428 Y12.5038 Z-9.0000 S1000
G1 F1000 X-0.9741 Y12.9466 Z-9.0000 S1000
G1 F1000 X-1.6264 Y13.6322 Z-9.0000 S1000
G1 F1000 X-2.1839 Y14.4583 Z-9.0000 S1000
G1 F1000 X-2.5765 Y15.3217 Z-9.0000 S1000
G1 F1000 X-2.8056 Y16.0755 Z-9.0000 S1000
G1 F1000 X-2.9600 Y17.0120 Z-9.0000 S1000
G1 F1000 X-3.0000 Y17.5000 Z-9.0000 S1000
G1 F1000 X-3.0000 Y162.5000 Z-9.0000 S1000
G1 F1000 X-2.9600 Y162.9880 Z-9.0000 S1000
G1 F1000 X-2.8056 Y163.9245 Z-9.0000 S1000
G1 F1000 X-2.5765 Y164.6783 Z-9.0000 S1000
G1 F1000 X-2.1839 Y165.5417 Z-9.0000 S1000
G1 F1000 X-1.6264 Y166.3678 Z-9.0000 S1000
G1 F1000 X-0.9741 Y167.0534 Z-9.0000 S1000
G1 F1000 X-0.6542 Y167.3444 Z-9.0000 S1000
G1 F1000 X-0.0647 Y167.7062 Z-9.0000 S1000
G1 F1000 X0.7939 Y168.1051 Z-9.0000 S1000
G1 F1000 X1.6925 Y168.3621 Z-9.0000 S1000
G1 F1000 X2.6346 Y168.4777 Z-9.0000 S1000
G1 F1000 X3.0000 Y168.5000 Z-9.0000 S1000
G1 F1000 X10.0000 Y168.5000 Z-9.0000 S1000
G1 F1000 X10.0000 Y168.5000 Z-5.0000 S1000
G1 F1000 X20.0000 Y168.5000 Z-5.0000 S1000
G1 F1000 X20.0000 Y168.5000 Z-9.0000 S1000
G1 F1000 X27.0000 Y168.5000 Z-9.0000 S1000
G1 F1000 X27.0000 Y168.5000 Z-9.0000 S1000
G1 F1000 X27.3654 Y168.4777 Z-9.0000 S1000
G1 F1000 X28.3075 Y168.3621 Z-9.0000 S1000
G1 F1000 X29.2061 Y168.1051 Z-9.0000 S1000
G1 F1000 X30.0647 Y167.7062 Z-9.0000 S1000
G1 F1000 X30.4428 Y167.4962 Z-9.0000 S1000
G1 F1000 X30.9741 Y167.0534 Z-9.0000 S1000
G1 F1000 X31.6264 Y166.3678 Z-9.0000 S1000
G1 F1000 X32.1839 Y165.5417 Z-9.0000 S1000
G1 F1000 X32.5765 Y164.6783 Z-9.0000 S1000
G1 F1000 X32.8056 Y163.9245 Z-9.0000 S1000
G1 F1000 X32.9600 Y162.9880 Z-9.0000 S1000
G1 F1000 X33.0000 Y162.5000 Z-9.0000 S1000
G1 F1000 X33.0000 Y17.5000 Z-9.0000 S1000
G1 F1000 X32.9777 Y17.1346 Z-9.0000 S1000
G1 F1000 X32.8621 Y16.1925 Z-9.0000 S1000
G1 F1000 X32.6051 Y15.2939 Z-9.0000 S1000
G1 F1000 X32.2062 Y14.4353 Z-9.0000 S1000
G1 F1000 X31.9962 Y14.0572 Z-9.0000 S1000
G1 F1000 X31.5534 Y13.5259 Z-9.0000 S1000
G1 F1000 X30.8678 Y12.8736 Z-9.0000 S1000
G1 F1000 X30.0417 Y12.3161 Z-9.0000 S1000
G1 F1000 X29.1783 Y11.9235 Z-9.0000 S1000
G1 F1000 X28.4245 Y11.6944 Z-9.0000 S1000
G1 F1000 X27.4880 Y11.5400 Z-9.0000 S1000
G1 F1000 X27.0000 Y11.5000 Z-9.0000 S1000
; retracting back to z-safe
G0 Z10

M5 S0; Spindle Off
