; GCODE Generated by cam.openbuilds.com on 2021-03-08 
G21 ; mm-mode
G54; Work Coordinates
G21; mm-mode
G90; Absolute Positioning
M3 S1000; Spindle On

; Operation 0: CNC: Vector (path inside)
; Endmill Diameter: 6

G0 Z10; move to z-safe height
G0 F1000 X173.1837 Y97.5000

G0 Z0
G1 F100 Z-2.5000
G1 F500 X23.1837 Y97.5000 Z-2.5000 S1000
G1 F500 X23.1837 Y15.5000 Z-2.5000 S1000
G1 F500 X173.1837 Y15.5000 Z-2.5000 S1000
G1 F500 X173.1837 Y97.5000 Z-2.5000 S1000
G1 F100 Z-5.0000
G1 F500 X23.1837 Y97.5000 Z-5.0000 S1000
G1 F500 X23.1837 Y15.5000 Z-5.0000 S1000
G1 F500 X173.1837 Y15.5000 Z-5.0000 S1000
G1 F500 X173.1837 Y97.5000 Z-5.0000 S1000
G1 F100 Z-7.5000
G1 F500 X23.1837 Y97.5000 Z-7.5000 S1000
G1 F500 X23.1837 Y15.5000 Z-7.5000 S1000
G1 F500 X173.1837 Y15.5000 Z-7.5000 S1000
G1 F500 X173.1837 Y97.5000 Z-7.5000 S1000
G1 F100 Z-9.0000
G1 F500 X23.1837 Y97.5000 Z-9.0000 S1000
G1 F500 X23.1837 Y15.5000 Z-9.0000 S1000
G1 F500 X173.1837 Y15.5000 Z-9.0000 S1000
G1 F500 X173.1837 Y97.5000 Z-9.0000 S1000
; retracting back to z-safe
G0 Z10
; Operation 1: CNC: Pocket
; Endmill Diameter: 6

G0 Z10; move to z-safe height
G0 F1000 X175.6841 Y103.1001

G0 Z0
G1 F100 Z-1.1000
G1 F500 X122.2339 Y103.1001 Z-1.1000 S1000
G1 F500 X121.3621 Y103.1799 Z-1.1000 S1000
G1 F500 X120.5193 Y103.4168 Z-1.1000 S1000
G1 F500 X119.7335 Y103.8028 Z-1.1000 S1000
G1 F500 X119.0310 Y104.3250 Z-1.1000 S1000
G1 F500 X118.6939 Y104.6876 Z-1.1000 S1000
G1 F500 X75.7986 Y104.6876 Z-1.1000 S1000
G1 F500 X75.1677 Y104.1011 Z-1.1000 S1000
G1 F500 X74.4289 Y103.6314 Z-1.1000 S1000
G1 F500 X73.6171 Y103.3037 Z-1.1000 S1000
G1 F500 X72.7593 Y103.1290 Z-1.1000 S1000
G1 F500 X72.2338 Y103.1001 Z-1.1000 S1000
G1 F500 X18.7842 Y103.1001 Z-1.1000 S1000
G1 F500 X18.7842 Y102.7001 Z-1.1000 S1000
G1 F500 X175.6841 Y102.7001 Z-1.1000 S1000
G1 F500 X175.6841 Y103.1001 Z-1.1000 S1000
G1 F100 Z-3.6000
G1 F500 X122.2339 Y103.1001 Z-3.6000 S1000
G1 F500 X121.3621 Y103.1799 Z-3.6000 S1000
G1 F500 X120.5193 Y103.4168 Z-3.6000 S1000
G1 F500 X119.7335 Y103.8028 Z-3.6000 S1000
G1 F500 X119.0310 Y104.3250 Z-3.6000 S1000
G1 F500 X118.6939 Y104.6876 Z-3.6000 S1000
G1 F500 X75.7986 Y104.6876 Z-3.6000 S1000
G1 F500 X75.1677 Y104.1011 Z-3.6000 S1000
G1 F500 X74.4289 Y103.6314 Z-3.6000 S1000
G1 F500 X73.6171 Y103.3037 Z-3.6000 S1000
G1 F500 X72.7593 Y103.1290 Z-3.6000 S1000
G1 F500 X72.2338 Y103.1001 Z-3.6000 S1000
G1 F500 X18.7842 Y103.1001 Z-3.6000 S1000
G1 F500 X18.7842 Y102.7001 Z-3.6000 S1000
G1 F500 X175.6841 Y102.7001 Z-3.6000 S1000
G1 F500 X175.6841 Y103.1001 Z-3.6000 S1000
G1 F100 Z-6.1000
G1 F500 X122.2339 Y103.1001 Z-6.1000 S1000
G1 F500 X121.3621 Y103.1799 Z-6.1000 S1000
G1 F500 X120.5193 Y103.4168 Z-6.1000 S1000
G1 F500 X119.7335 Y103.8028 Z-6.1000 S1000
G1 F500 X119.0310 Y104.3250 Z-6.1000 S1000
G1 F500 X118.6939 Y104.6876 Z-6.1000 S1000
G1 F500 X75.7986 Y104.6876 Z-6.1000 S1000
G1 F500 X75.1677 Y104.1011 Z-6.1000 S1000
G1 F500 X74.4289 Y103.6314 Z-6.1000 S1000
G1 F500 X73.6171 Y103.3037 Z-6.1000 S1000
G1 F500 X72.7593 Y103.1290 Z-6.1000 S1000
G1 F500 X72.2338 Y103.1001 Z-6.1000 S1000
G1 F500 X18.7842 Y103.1001 Z-6.1000 S1000
G1 F500 X18.7842 Y102.7001 Z-6.1000 S1000
G1 F500 X175.6841 Y102.7001 Z-6.1000 S1000
G1 F500 X175.6841 Y103.1001 Z-6.1000 S1000

G0 Z10; move to z-safe height
G0 X177.4841 Y104.9001

G0 Z0
G1 F100 Z-1.1000
G1 F500 X122.2339 Y104.9001 Z-1.1000 S1000
G1 F500 X121.5468 Y104.9798 Z-1.1000 S1000
G1 F500 X120.8963 Y105.2148 Z-1.1000 S1000
G1 F500 X120.3169 Y105.5925 Z-1.1000 S1000
G1 F500 X119.8393 Y106.0929 Z-1.1000 S1000
G1 F500 X119.6075 Y106.4876 Z-1.1000 S1000
G1 F500 X74.8703 Y106.4876 Z-1.1000 S1000
G1 F500 X74.5414 Y105.9831 Z-1.1000 S1000
G1 F500 X74.0410 Y105.5055 Z-1.1000 S1000
G1 F500 X73.4446 Y105.1553 Z-1.1000 S1000
G1 F500 X72.7838 Y104.9510 Z-1.1000 S1000
G1 F500 X72.2338 Y104.9001 Z-1.1000 S1000
G1 F500 X16.9842 Y104.9001 Z-1.1000 S1000
G1 F500 X16.9842 Y100.9001 Z-1.1000 S1000
G1 F500 X177.4841 Y100.9001 Z-1.1000 S1000
G1 F500 X177.4841 Y104.9001 Z-1.1000 S1000
G1 F100 Z-3.6000
G1 F500 X122.2339 Y104.9001 Z-3.6000 S1000
G1 F500 X121.5468 Y104.9798 Z-3.6000 S1000
G1 F500 X120.8963 Y105.2148 Z-3.6000 S1000
G1 F500 X120.3169 Y105.5925 Z-3.6000 S1000
G1 F500 X119.8393 Y106.0929 Z-3.6000 S1000
G1 F500 X119.6075 Y106.4876 Z-3.6000 S1000
G1 F500 X74.8703 Y106.4876 Z-3.6000 S1000
G1 F500 X74.5414 Y105.9831 Z-3.6000 S1000
G1 F500 X74.0410 Y105.5055 Z-3.6000 S1000
G1 F500 X73.4446 Y105.1553 Z-3.6000 S1000
G1 F500 X72.7838 Y104.9510 Z-3.6000 S1000
G1 F500 X72.2338 Y104.9001 Z-3.6000 S1000
G1 F500 X16.9842 Y104.9001 Z-3.6000 S1000
G1 F500 X16.9842 Y100.9001 Z-3.6000 S1000
G1 F500 X177.4841 Y100.9001 Z-3.6000 S1000
G1 F500 X177.4841 Y104.9001 Z-3.6000 S1000
G1 F100 Z-6.1000
G1 F500 X122.2339 Y104.9001 Z-6.1000 S1000
G1 F500 X121.5468 Y104.9798 Z-6.1000 S1000
G1 F500 X120.8963 Y105.2148 Z-6.1000 S1000
G1 F500 X120.3169 Y105.5925 Z-6.1000 S1000
G1 F500 X119.8393 Y106.0929 Z-6.1000 S1000
G1 F500 X119.6075 Y106.4876 Z-6.1000 S1000
G1 F500 X74.8703 Y106.4876 Z-6.1000 S1000
G1 F500 X74.5414 Y105.9831 Z-6.1000 S1000
G1 F500 X74.0410 Y105.5055 Z-6.1000 S1000
G1 F500 X73.4446 Y105.1553 Z-6.1000 S1000
G1 F500 X72.7838 Y104.9510 Z-6.1000 S1000
G1 F500 X72.2338 Y104.9001 Z-6.1000 S1000
G1 F500 X16.9842 Y104.9001 Z-6.1000 S1000
G1 F500 X16.9842 Y100.9001 Z-6.1000 S1000
G1 F500 X177.4841 Y100.9001 Z-6.1000 S1000
G1 F500 X177.4841 Y104.9001 Z-6.1000 S1000
; retracting back to z-safe
G0 Z10
; Operation 2: CNC: Pocket
; Endmill Diameter: 6

G0 Z10; move to z-safe height
G0 F1000 X20.1454 Y104.9002

G0 Z0
G1 F100 Z-1.1000
G1 F500 X16.9840 Y104.9002 Z-1.1000 S1000
G1 F500 X16.9840 Y9.6002 Z-1.1000 S1000
G1 F500 X20.1454 Y9.6002 Z-1.1000 S1000
G1 F500 X20.1454 Y104.9002 Z-1.1000 S1000
G1 F100 Z-3.6000
G1 F500 X16.9840 Y104.9002 Z-3.6000 S1000
G1 F500 X16.9840 Y9.6002 Z-3.6000 S1000
G1 F500 X20.1454 Y9.6002 Z-3.6000 S1000
G1 F500 X20.1454 Y104.9002 Z-3.6000 S1000
G1 F100 Z-6.1000
G1 F500 X16.9840 Y104.9002 Z-6.1000 S1000
G1 F500 X16.9840 Y9.6002 Z-6.1000 S1000
G1 F500 X20.1454 Y9.6002 Z-6.1000 S1000
G1 F500 X20.1454 Y104.9002 Z-6.1000 S1000
; retracting back to z-safe
G0 Z10
; Operation 3: CNC: Pocket
; Endmill Diameter: 6

G0 Z10; move to z-safe height
G0 F1000 X175.6840 Y11.8002

G0 Z0
G1 F100 Z-1.1000
G1 F500 X18.7840 Y11.8002 Z-1.1000 S1000
G1 F500 X18.7840 Y11.4002 Z-1.1000 S1000
G1 F500 X175.6840 Y11.4002 Z-1.1000 S1000
G1 F500 X175.6840 Y11.8002 Z-1.1000 S1000
G1 F100 Z-3.6000
G1 F500 X18.7840 Y11.8002 Z-3.6000 S1000
G1 F500 X18.7840 Y11.4002 Z-3.6000 S1000
G1 F500 X175.6840 Y11.4002 Z-3.6000 S1000
G1 F500 X175.6840 Y11.8002 Z-3.6000 S1000
G1 F100 Z-6.1000
G1 F500 X18.7840 Y11.8002 Z-6.1000 S1000
G1 F500 X18.7840 Y11.4002 Z-6.1000 S1000
G1 F500 X175.6840 Y11.4002 Z-6.1000 S1000
G1 F500 X175.6840 Y11.8002 Z-6.1000 S1000

G0 Z10; move to z-safe height
G0 X177.4840 Y13.6002

G0 Z0
G1 F100 Z-1.1000
G1 F500 X16.9840 Y13.6002 Z-1.1000 S1000
G1 F500 X16.9840 Y9.6002 Z-1.1000 S1000
G1 F500 X177.4840 Y9.6002 Z-1.1000 S1000
G1 F500 X177.4840 Y13.6002 Z-1.1000 S1000
G1 F100 Z-3.6000
G1 F500 X16.9840 Y13.6002 Z-3.6000 S1000
G1 F500 X16.9840 Y9.6002 Z-3.6000 S1000
G1 F500 X177.4840 Y9.6002 Z-3.6000 S1000
G1 F500 X177.4840 Y13.6002 Z-3.6000 S1000
G1 F100 Z-6.1000
G1 F500 X16.9840 Y13.6002 Z-6.1000 S1000
G1 F500 X16.9840 Y9.6002 Z-6.1000 S1000
G1 F500 X177.4840 Y9.6002 Z-6.1000 S1000
G1 F500 X177.4840 Y13.6002 Z-6.1000 S1000
; retracting back to z-safe
G0 Z10
; Operation 4: CNC: Pocket
; Endmill Diameter: 6

G0 Z10; move to z-safe height
G0 F1000 X177.4840 Y104.9002

G0 Z0
G1 F100 Z-1.1000
G1 F500 X174.3225 Y104.9002 Z-1.1000 S1000
G1 F500 X174.3225 Y9.6002 Z-1.1000 S1000
G1 F500 X177.4840 Y9.6002 Z-1.1000 S1000
G1 F500 X177.4840 Y104.9002 Z-1.1000 S1000
G1 F100 Z-3.6000
G1 F500 X174.3225 Y104.9002 Z-3.6000 S1000
G1 F500 X174.3225 Y9.6002 Z-3.6000 S1000
G1 F500 X177.4840 Y9.6002 Z-3.6000 S1000
G1 F500 X177.4840 Y104.9002 Z-3.6000 S1000
G1 F100 Z-6.1000
G1 F500 X174.3225 Y104.9002 Z-6.1000 S1000
G1 F500 X174.3225 Y9.6002 Z-6.1000 S1000
G1 F500 X177.4840 Y9.6002 Z-6.1000 S1000
G1 F500 X177.4840 Y104.9002 Z-6.1000 S1000
; retracting back to z-safe
G0 Z10
; Operation 5: Drill: Continuous (Centered)
; Endmill Diameter: 6

G0 Z10; move to z-safe height
G0 F1000 X179.5442 Y107.2690

G0 Z0
G1 F100 Z0.0000
G1 F500 X179.5442 Y107.2690 Z-6.1000 S1000
G1 F500 X179.5442 Y107.2690 Z0.0000 S1000

G0 Z10; move to z-safe height
G0 X14.4441 Y107.2690

G0 Z0
G1 F100 Z0.0000
G1 F500 X14.4441 Y107.2690 Z-6.1000 S1000
G1 F500 X14.4441 Y107.2690 Z0.0000 S1000

G0 Z10; move to z-safe height
G0 X14.4441 Y7.2565

G0 Z0
G1 F100 Z0.0000
G1 F500 X14.4441 Y7.2565 Z-6.1000 S1000
G1 F500 X14.4441 Y7.2565 Z0.0000 S1000

G0 Z10; move to z-safe height
G0 X179.5442 Y7.2565

G0 Z0
G1 F100 Z0.0000
G1 F500 X179.5442 Y7.2565 Z-6.1000 S1000
G1 F500 X179.5442 Y7.2565 Z0.0000 S1000
; retracting back to z-safe
G0 Z10
; Operation 6: Drill: Continuous (Centered)
; Endmill Diameter: 6

G0 Z10; move to z-safe height
G0 F1000 X7.6027 Y77.4038

G0 Z0
G1 F100 Z0.0000
G1 F500 X7.6027 Y77.4038 Z-1.5000 S1000
G1 F500 X7.6027 Y77.4038 Z0.0000 S1000

G0 Z10; move to z-safe height
G0 X7.6027 Y41.8204

G0 Z0
G1 F100 Z0.0000
G1 F500 X7.6027 Y41.8204 Z-1.5000 S1000
G1 F500 X7.6027 Y41.8204 Z0.0000 S1000

G0 Z10; move to z-safe height
G0 X188.7646 Y77.4038

G0 Z0
G1 F100 Z0.0000
G1 F500 X188.7646 Y77.4038 Z-1.5000 S1000
G1 F500 X188.7646 Y77.4038 Z0.0000 S1000

G0 Z10; move to z-safe height
G0 X188.7646 Y41.8204

G0 Z0
G1 F100 Z0.0000
G1 F500 X188.7646 Y41.8204 Z-1.5000 S1000
G1 F500 X188.7646 Y41.8204 Z0.0000 S1000
; retracting back to z-safe
G0 Z10
; Operation 7: CNC: Vector (path outside)
; Endmill Diameter: 6

G0 Z10; move to z-safe height
G0 F1000 X193.3673 Y-3.0000

G0 Z0
G1 F100 Z-2.5000
G1 F500 X3.0000 Y-3.0000 Z-2.5000 S1000
G1 F500 X2.6346 Y-2.9777 Z-2.5000 S1000
G1 F500 X1.6925 Y-2.8621 Z-2.5000 S1000
G1 F500 X0.7939 Y-2.6051 Z-2.5000 S1000
G1 F500 X-0.0647 Y-2.2062 Z-2.5000 S1000
G1 F500 X-0.4428 Y-1.9962 Z-2.5000 S1000
G1 F500 X-0.9741 Y-1.5534 Z-2.5000 S1000
G1 F500 X-1.6264 Y-0.8678 Z-2.5000 S1000
G1 F500 X-2.1839 Y-0.0417 Z-2.5000 S1000
G1 F500 X-2.5765 Y0.8217 Z-2.5000 S1000
G1 F500 X-2.8056 Y1.5755 Z-2.5000 S1000
G1 F500 X-2.9600 Y2.5120 Z-2.5000 S1000
G1 F500 X-3.0000 Y3.0000 Z-2.5000 S1000
G1 F500 X-3.0000 Y110.0000 Z-2.5000 S1000
G1 F500 X-2.9600 Y110.4880 Z-2.5000 S1000
G1 F500 X-2.8056 Y111.4245 Z-2.5000 S1000
G1 F500 X-2.5765 Y112.1783 Z-2.5000 S1000
G1 F500 X-2.1839 Y113.0417 Z-2.5000 S1000
G1 F500 X-1.6264 Y113.8678 Z-2.5000 S1000
G1 F500 X-0.9741 Y114.5534 Z-2.5000 S1000
G1 F500 X-0.6542 Y114.8444 Z-2.5000 S1000
G1 F500 X-0.0647 Y115.2062 Z-2.5000 S1000
G1 F500 X0.7939 Y115.6051 Z-2.5000 S1000
G1 F500 X1.6925 Y115.8621 Z-2.5000 S1000
G1 F500 X2.6346 Y115.9777 Z-2.5000 S1000
G1 F500 X3.0000 Y116.0000 Z-2.5000 S1000
G1 F500 X193.3673 Y116.0000 Z-2.5000 S1000
G1 F500 X193.7326 Y115.9777 Z-2.5000 S1000
G1 F500 X194.6748 Y115.8621 Z-2.5000 S1000
G1 F500 X195.5736 Y115.6051 Z-2.5000 S1000
G1 F500 X196.4321 Y115.2062 Z-2.5000 S1000
G1 F500 X196.8101 Y114.9962 Z-2.5000 S1000
G1 F500 X197.3414 Y114.5534 Z-2.5000 S1000
G1 F500 X197.9937 Y113.8678 Z-2.5000 S1000
G1 F500 X198.5512 Y113.0417 Z-2.5000 S1000
G1 F500 X198.9438 Y112.1783 Z-2.5000 S1000
G1 F500 X199.1729 Y111.4245 Z-2.5000 S1000
G1 F500 X199.3273 Y110.4880 Z-2.5000 S1000
G1 F500 X199.3673 Y110.0000 Z-2.5000 S1000
G1 F500 X199.3673 Y3.0000 Z-2.5000 S1000
G1 F500 X199.3450 Y2.6346 Z-2.5000 S1000
G1 F500 X199.2294 Y1.6925 Z-2.5000 S1000
G1 F500 X198.9724 Y0.7939 Z-2.5000 S1000
G1 F500 X198.5735 Y-0.0647 Z-2.5000 S1000
G1 F500 X198.3635 Y-0.4428 Z-2.5000 S1000
G1 F500 X197.9207 Y-0.9741 Z-2.5000 S1000
G1 F500 X197.2351 Y-1.6264 Z-2.5000 S1000
G1 F500 X196.4090 Y-2.1839 Z-2.5000 S1000
G1 F500 X195.5456 Y-2.5765 Z-2.5000 S1000
G1 F500 X194.7918 Y-2.8056 Z-2.5000 S1000
G1 F500 X193.8553 Y-2.9600 Z-2.5000 S1000
G1 F500 X193.3673 Y-3.0000 Z-2.5000 S1000
G1 F100 Z-5.0000
G1 F500 X3.0000 Y-3.0000 Z-5.0000 S1000
G1 F500 X2.6346 Y-2.9777 Z-5.0000 S1000
G1 F500 X1.6925 Y-2.8621 Z-5.0000 S1000
G1 F500 X0.7939 Y-2.6051 Z-5.0000 S1000
G1 F500 X-0.0647 Y-2.2062 Z-5.0000 S1000
G1 F500 X-0.4428 Y-1.9962 Z-5.0000 S1000
G1 F500 X-0.9741 Y-1.5534 Z-5.0000 S1000
G1 F500 X-1.6264 Y-0.8678 Z-5.0000 S1000
G1 F500 X-2.1839 Y-0.0417 Z-5.0000 S1000
G1 F500 X-2.5765 Y0.8217 Z-5.0000 S1000
G1 F500 X-2.8056 Y1.5755 Z-5.0000 S1000
G1 F500 X-2.9600 Y2.5120 Z-5.0000 S1000
G1 F500 X-3.0000 Y3.0000 Z-5.0000 S1000
G1 F500 X-3.0000 Y110.0000 Z-5.0000 S1000
G1 F500 X-2.9600 Y110.4880 Z-5.0000 S1000
G1 F500 X-2.8056 Y111.4245 Z-5.0000 S1000
G1 F500 X-2.5765 Y112.1783 Z-5.0000 S1000
G1 F500 X-2.1839 Y113.0417 Z-5.0000 S1000
G1 F500 X-1.6264 Y113.8678 Z-5.0000 S1000
G1 F500 X-0.9741 Y114.5534 Z-5.0000 S1000
G1 F500 X-0.6542 Y114.8444 Z-5.0000 S1000
G1 F500 X-0.0647 Y115.2062 Z-5.0000 S1000
G1 F500 X0.7939 Y115.6051 Z-5.0000 S1000
G1 F500 X1.6925 Y115.8621 Z-5.0000 S1000
G1 F500 X2.6346 Y115.9777 Z-5.0000 S1000
G1 F500 X3.0000 Y116.0000 Z-5.0000 S1000
G1 F500 X193.3673 Y116.0000 Z-5.0000 S1000
G1 F500 X193.7326 Y115.9777 Z-5.0000 S1000
G1 F500 X194.6748 Y115.8621 Z-5.0000 S1000
G1 F500 X195.5736 Y115.6051 Z-5.0000 S1000
G1 F500 X196.4321 Y115.2062 Z-5.0000 S1000
G1 F500 X196.8101 Y114.9962 Z-5.0000 S1000
G1 F500 X197.3414 Y114.5534 Z-5.0000 S1000
G1 F500 X197.9937 Y113.8678 Z-5.0000 S1000
G1 F500 X198.5512 Y113.0417 Z-5.0000 S1000
G1 F500 X198.9438 Y112.1783 Z-5.0000 S1000
G1 F500 X199.1729 Y111.4245 Z-5.0000 S1000
G1 F500 X199.3273 Y110.4880 Z-5.0000 S1000
G1 F500 X199.3673 Y110.0000 Z-5.0000 S1000
G1 F500 X199.3673 Y3.0000 Z-5.0000 S1000
G1 F500 X199.3450 Y2.6346 Z-5.0000 S1000
G1 F500 X199.2294 Y1.6925 Z-5.0000 S1000
G1 F500 X198.9724 Y0.7939 Z-5.0000 S1000
G1 F500 X198.5735 Y-0.0647 Z-5.0000 S1000
G1 F500 X198.3635 Y-0.4428 Z-5.0000 S1000
G1 F500 X197.9207 Y-0.9741 Z-5.0000 S1000
G1 F500 X197.2351 Y-1.6264 Z-5.0000 S1000
G1 F500 X196.4090 Y-2.1839 Z-5.0000 S1000
G1 F500 X195.5456 Y-2.5765 Z-5.0000 S1000
G1 F500 X194.7918 Y-2.8056 Z-5.0000 S1000
G1 F500 X193.8553 Y-2.9600 Z-5.0000 S1000
G1 F500 X193.3673 Y-3.0000 Z-5.0000 S1000
G1 F100 Z-7.5000
G1 F500 X104.1837 Y-3.0000 Z-7.5000 S1000
G1 F500 X104.1837 Y-3.0000 Z-6.0000 S1000
G1 F500 X92.1837 Y-3.0000 Z-6.0000 S1000
G1 F500 X92.1837 Y-3.0000 Z-7.5000 S1000
G1 F500 X3.0000 Y-3.0000 Z-7.5000 S1000
G1 F500 X3.0000 Y-3.0000 Z-7.5000 S1000
G1 F500 X2.6346 Y-2.9777 Z-7.5000 S1000
G1 F500 X1.6925 Y-2.8621 Z-7.5000 S1000
G1 F500 X0.7939 Y-2.6051 Z-7.5000 S1000
G1 F500 X-0.0647 Y-2.2062 Z-7.5000 S1000
G1 F500 X-0.4428 Y-1.9962 Z-7.5000 S1000
G1 F500 X-0.9741 Y-1.5534 Z-7.5000 S1000
G1 F500 X-1.6264 Y-0.8678 Z-7.5000 S1000
G1 F500 X-2.1839 Y-0.0417 Z-7.5000 S1000
G1 F500 X-2.5765 Y0.8217 Z-7.5000 S1000
G1 F500 X-2.8056 Y1.5755 Z-7.5000 S1000
G1 F500 X-2.9600 Y2.5120 Z-7.5000 S1000
G1 F500 X-3.0000 Y3.0000 Z-7.5000 S1000
G1 F500 X-3.0000 Y50.5000 Z-7.5000 S1000
G1 F500 X-3.0000 Y50.5000 Z-6.0000 S1000
G1 F500 X-3.0000 Y62.5000 Z-6.0000 S1000
G1 F500 X-3.0000 Y62.5000 Z-7.5000 S1000
G1 F500 X-3.0000 Y110.0000 Z-7.5000 S1000
G1 F500 X-3.0000 Y110.0000 Z-7.5000 S1000
G1 F500 X-2.9600 Y110.4880 Z-7.5000 S1000
G1 F500 X-2.8056 Y111.4245 Z-7.5000 S1000
G1 F500 X-2.5765 Y112.1783 Z-7.5000 S1000
G1 F500 X-2.1839 Y113.0417 Z-7.5000 S1000
G1 F500 X-1.6264 Y113.8678 Z-7.5000 S1000
G1 F500 X-0.9741 Y114.5534 Z-7.5000 S1000
G1 F500 X-0.6542 Y114.8444 Z-7.5000 S1000
G1 F500 X-0.0647 Y115.2062 Z-7.5000 S1000
G1 F500 X0.7939 Y115.6051 Z-7.5000 S1000
G1 F500 X1.6925 Y115.8621 Z-7.5000 S1000
G1 F500 X2.6346 Y115.9777 Z-7.5000 S1000
G1 F500 X3.0000 Y116.0000 Z-7.5000 S1000
G1 F500 X193.3673 Y116.0000 Z-7.5000 S1000
G1 F500 X193.7326 Y115.9777 Z-7.5000 S1000
G1 F500 X194.6748 Y115.8621 Z-7.5000 S1000
G1 F500 X195.5736 Y115.6051 Z-7.5000 S1000
G1 F500 X196.4321 Y115.2062 Z-7.5000 S1000
G1 F500 X196.8101 Y114.9962 Z-7.5000 S1000
G1 F500 X197.3414 Y114.5534 Z-7.5000 S1000
G1 F500 X197.9937 Y113.8678 Z-7.5000 S1000
G1 F500 X198.5512 Y113.0417 Z-7.5000 S1000
G1 F500 X198.9438 Y112.1783 Z-7.5000 S1000
G1 F500 X199.1729 Y111.4245 Z-7.5000 S1000
G1 F500 X199.3273 Y110.4880 Z-7.5000 S1000
G1 F500 X199.3673 Y110.0000 Z-7.5000 S1000
G1 F500 X199.3673 Y62.5000 Z-7.5000 S1000
G1 F500 X199.3673 Y62.5000 Z-6.0000 S1000
G1 F500 X199.3673 Y50.5000 Z-6.0000 S1000
G1 F500 X199.3673 Y50.5000 Z-7.5000 S1000
G1 F500 X199.3673 Y3.0000 Z-7.5000 S1000
G1 F500 X199.3673 Y3.0000 Z-7.5000 S1000
G1 F500 X199.3450 Y2.6346 Z-7.5000 S1000
G1 F500 X199.2294 Y1.6925 Z-7.5000 S1000
G1 F500 X198.9724 Y0.7939 Z-7.5000 S1000
G1 F500 X198.5735 Y-0.0647 Z-7.5000 S1000
G1 F500 X198.3635 Y-0.4428 Z-7.5000 S1000
G1 F500 X197.9207 Y-0.9741 Z-7.5000 S1000
G1 F500 X197.2351 Y-1.6264 Z-7.5000 S1000
G1 F500 X196.4090 Y-2.1839 Z-7.5000 S1000
G1 F500 X195.5456 Y-2.5765 Z-7.5000 S1000
G1 F500 X194.7918 Y-2.8056 Z-7.5000 S1000
G1 F500 X193.8553 Y-2.9600 Z-7.5000 S1000
G1 F500 X193.3673 Y-3.0000 Z-7.5000 S1000
G1 F100 Z-9.0000
G1 F500 X104.1837 Y-3.0000 Z-9.0000 S1000
G1 F500 X104.1837 Y-3.0000 Z-6.0000 S1000
G1 F500 X92.1837 Y-3.0000 Z-6.0000 S1000
G1 F500 X92.1837 Y-3.0000 Z-9.0000 S1000
G1 F500 X3.0000 Y-3.0000 Z-9.0000 S1000
G1 F500 X3.0000 Y-3.0000 Z-9.0000 S1000
G1 F500 X2.6346 Y-2.9777 Z-9.0000 S1000
G1 F500 X1.6925 Y-2.8621 Z-9.0000 S1000
G1 F500 X0.7939 Y-2.6051 Z-9.0000 S1000
G1 F500 X-0.0647 Y-2.2062 Z-9.0000 S1000
G1 F500 X-0.4428 Y-1.9962 Z-9.0000 S1000
G1 F500 X-0.9741 Y-1.5534 Z-9.0000 S1000
G1 F500 X-1.6264 Y-0.8678 Z-9.0000 S1000
G1 F500 X-2.1839 Y-0.0417 Z-9.0000 S1000
G1 F500 X-2.5765 Y0.8217 Z-9.0000 S1000
G1 F500 X-2.8056 Y1.5755 Z-9.0000 S1000
G1 F500 X-2.9600 Y2.5120 Z-9.0000 S1000
G1 F500 X-3.0000 Y3.0000 Z-9.0000 S1000
G1 F500 X-3.0000 Y50.5000 Z-9.0000 S1000
G1 F500 X-3.0000 Y50.5000 Z-6.0000 S1000
G1 F500 X-3.0000 Y62.5000 Z-6.0000 S1000
G1 F500 X-3.0000 Y62.5000 Z-9.0000 S1000
G1 F500 X-3.0000 Y110.0000 Z-9.0000 S1000
G1 F500 X-3.0000 Y110.0000 Z-9.0000 S1000
G1 F500 X-2.9600 Y110.4880 Z-9.0000 S1000
G1 F500 X-2.8056 Y111.4245 Z-9.0000 S1000
G1 F500 X-2.5765 Y112.1783 Z-9.0000 S1000
G1 F500 X-2.1839 Y113.0417 Z-9.0000 S1000
G1 F500 X-1.6264 Y113.8678 Z-9.0000 S1000
G1 F500 X-0.9741 Y114.5534 Z-9.0000 S1000
G1 F500 X-0.6542 Y114.8444 Z-9.0000 S1000
G1 F500 X-0.0647 Y115.2062 Z-9.0000 S1000
G1 F500 X0.7939 Y115.6051 Z-9.0000 S1000
G1 F500 X1.6925 Y115.8621 Z-9.0000 S1000
G1 F500 X2.6346 Y115.9777 Z-9.0000 S1000
G1 F500 X3.0000 Y116.0000 Z-9.0000 S1000
G1 F500 X193.3673 Y116.0000 Z-9.0000 S1000
G1 F500 X193.7326 Y115.9777 Z-9.0000 S1000
G1 F500 X194.6748 Y115.8621 Z-9.0000 S1000
G1 F500 X195.5736 Y115.6051 Z-9.0000 S1000
G1 F500 X196.4321 Y115.2062 Z-9.0000 S1000
G1 F500 X196.8101 Y114.9962 Z-9.0000 S1000
G1 F500 X197.3414 Y114.5534 Z-9.0000 S1000
G1 F500 X197.9937 Y113.8678 Z-9.0000 S1000
G1 F500 X198.5512 Y113.0417 Z-9.0000 S1000
G1 F500 X198.9438 Y112.1783 Z-9.0000 S1000
G1 F500 X199.1729 Y111.4245 Z-9.0000 S1000
G1 F500 X199.3273 Y110.4880 Z-9.0000 S1000
G1 F500 X199.3673 Y110.0000 Z-9.0000 S1000
G1 F500 X199.3673 Y62.5000 Z-9.0000 S1000
G1 F500 X199.3673 Y62.5000 Z-6.0000 S1000
G1 F500 X199.3673 Y50.5000 Z-6.0000 S1000
G1 F500 X199.3673 Y50.5000 Z-9.0000 S1000
G1 F500 X199.3673 Y3.0000 Z-9.0000 S1000
G1 F500 X199.3673 Y3.0000 Z-9.0000 S1000
G1 F500 X199.3450 Y2.6346 Z-9.0000 S1000
G1 F500 X199.2294 Y1.6925 Z-9.0000 S1000
G1 F500 X198.9724 Y0.7939 Z-9.0000 S1000
G1 F500 X198.5735 Y-0.0647 Z-9.0000 S1000
G1 F500 X198.3635 Y-0.4428 Z-9.0000 S1000
G1 F500 X197.9207 Y-0.9741 Z-9.0000 S1000
G1 F500 X197.2351 Y-1.6264 Z-9.0000 S1000
G1 F500 X196.4090 Y-2.1839 Z-9.0000 S1000
G1 F500 X195.5456 Y-2.5765 Z-9.0000 S1000
G1 F500 X194.7918 Y-2.8056 Z-9.0000 S1000
G1 F500 X193.8553 Y-2.9600 Z-9.0000 S1000
G1 F500 X193.3673 Y-3.0000 Z-9.0000 S1000
; retracting back to z-safe
G0 Z10

M5 S0; Spindle Off
