; GCODE Generated by cam.openbuilds.com on 2021-03-11 
G21 ; mm-mode
G54; Work Coordinates
G21; mm-mode
G90; Absolute Positioning
M3 S1000; Spindle On

; Operation 0: CNC: Pocket
; Endmill Diameter: 6

G0 Z10; move to z-safe height
G0 F1000 X26.1500 Y47.6389

G0 Z0
G1 F100 Z-2.5000
G1 F1000 X23.8500 Y47.6389 Z-2.5000 S1000
G1 F1000 X23.8500 Y9.6000 Z-2.5000 S1000
G1 F1000 X26.1500 Y9.6000 Z-2.5000 S1000
G1 F1000 X26.1500 Y47.6389 Z-2.5000 S1000
G1 F100 Z-5.0000
G1 F1000 X23.8500 Y47.6389 Z-5.0000 S1000
G1 F1000 X23.8500 Y9.6000 Z-5.0000 S1000
G1 F1000 X26.1500 Y9.6000 Z-5.0000 S1000
G1 F1000 X26.1500 Y47.6389 Z-5.0000 S1000
G1 F100 Z-7.5000
G1 F1000 X23.8500 Y47.6389 Z-7.5000 S1000
G1 F1000 X23.8500 Y9.6000 Z-7.5000 S1000
G1 F1000 X26.1500 Y9.6000 Z-7.5000 S1000
G1 F1000 X26.1500 Y47.6389 Z-7.5000 S1000
G1 F100 Z-10.0000
G1 F1000 X23.8500 Y47.6389 Z-10.0000 S1000
G1 F1000 X23.8500 Y9.6000 Z-10.0000 S1000
G1 F1000 X26.1500 Y9.6000 Z-10.0000 S1000
G1 F1000 X26.1500 Y47.6389 Z-10.0000 S1000

G0 Z10; move to z-safe height
G0 X28.5500 Y50.0389

G0 Z0
G1 F100 Z-2.5000
G1 F1000 X21.4500 Y50.0389 Z-2.5000 S1000
G1 F1000 X21.4500 Y7.2000 Z-2.5000 S1000
G1 F1000 X28.5500 Y7.2000 Z-2.5000 S1000
G1 F1000 X28.5500 Y50.0389 Z-2.5000 S1000
G1 F100 Z-5.0000
G1 F1000 X21.4500 Y50.0389 Z-5.0000 S1000
G1 F1000 X21.4500 Y7.2000 Z-5.0000 S1000
G1 F1000 X28.5500 Y7.2000 Z-5.0000 S1000
G1 F1000 X28.5500 Y50.0389 Z-5.0000 S1000
G1 F100 Z-7.5000
G1 F1000 X21.4500 Y50.0389 Z-7.5000 S1000
G1 F1000 X21.4500 Y7.2000 Z-7.5000 S1000
G1 F1000 X28.5500 Y7.2000 Z-7.5000 S1000
G1 F1000 X28.5500 Y50.0389 Z-7.5000 S1000
G1 F100 Z-10.0000
G1 F1000 X21.4500 Y50.0389 Z-10.0000 S1000
G1 F1000 X21.4500 Y7.2000 Z-10.0000 S1000
G1 F1000 X28.5500 Y7.2000 Z-10.0000 S1000
G1 F1000 X28.5500 Y50.0389 Z-10.0000 S1000

G0 Z10; move to z-safe height
G0 X30.9500 Y52.4389

G0 Z0
G1 F100 Z-2.5000
G1 F1000 X19.0500 Y52.4389 Z-2.5000 S1000
G1 F1000 X19.0500 Y4.8000 Z-2.5000 S1000
G1 F1000 X30.9500 Y4.8000 Z-2.5000 S1000
G1 F1000 X30.9500 Y52.4389 Z-2.5000 S1000
G1 F100 Z-5.0000
G1 F1000 X19.0500 Y52.4389 Z-5.0000 S1000
G1 F1000 X19.0500 Y4.8000 Z-5.0000 S1000
G1 F1000 X30.9500 Y4.8000 Z-5.0000 S1000
G1 F1000 X30.9500 Y52.4389 Z-5.0000 S1000
G1 F100 Z-7.5000
G1 F1000 X19.0500 Y52.4389 Z-7.5000 S1000
G1 F1000 X19.0500 Y4.8000 Z-7.5000 S1000
G1 F1000 X30.9500 Y4.8000 Z-7.5000 S1000
G1 F1000 X30.9500 Y52.4389 Z-7.5000 S1000
G1 F100 Z-10.0000
G1 F1000 X19.0500 Y52.4389 Z-10.0000 S1000
G1 F1000 X19.0500 Y4.8000 Z-10.0000 S1000
G1 F1000 X30.9500 Y4.8000 Z-10.0000 S1000
G1 F1000 X30.9500 Y52.4389 Z-10.0000 S1000

G0 Z10; move to z-safe height
G0 X32.7500 Y54.2389

G0 Z0
G1 F100 Z-2.5000
G1 F1000 X17.2500 Y54.2389 Z-2.5000 S1000
G1 F1000 X17.2500 Y3.0000 Z-2.5000 S1000
G1 F1000 X32.7500 Y3.0000 Z-2.5000 S1000
G1 F1000 X32.7500 Y54.2389 Z-2.5000 S1000
G1 F100 Z-5.0000
G1 F1000 X17.2500 Y54.2389 Z-5.0000 S1000
G1 F1000 X17.2500 Y3.0000 Z-5.0000 S1000
G1 F1000 X32.7500 Y3.0000 Z-5.0000 S1000
G1 F1000 X32.7500 Y54.2389 Z-5.0000 S1000
G1 F100 Z-7.5000
G1 F1000 X17.2500 Y54.2389 Z-7.5000 S1000
G1 F1000 X17.2500 Y3.0000 Z-7.5000 S1000
G1 F1000 X32.7500 Y3.0000 Z-7.5000 S1000
G1 F1000 X32.7500 Y54.2389 Z-7.5000 S1000
G1 F100 Z-10.0000
G1 F1000 X17.2500 Y54.2389 Z-10.0000 S1000
G1 F1000 X17.2500 Y3.0000 Z-10.0000 S1000
G1 F1000 X32.7500 Y3.0000 Z-10.0000 S1000
G1 F1000 X32.7500 Y54.2389 Z-10.0000 S1000
; retracting back to z-safe
G0 Z10
; Operation 1: Drill: Continuous (Centered)
; Endmill Diameter: 6

G0 Z10; move to z-safe height
G0 F1000 X42.8500 Y10.7694

G0 Z0
G1 F100 Z0.0000
G1 F1000 X42.8500 Y10.7694 Z-19.5000 S1000
G1 F1000 X42.8500 Y10.7694 Z0.0000 S1000

G0 Z10; move to z-safe height
G0 X42.8500 Y46.4694

G0 Z0
G1 F100 Z0.0000
G1 F1000 X42.8500 Y46.4694 Z-19.5000 S1000
G1 F1000 X42.8500 Y46.4694 Z0.0000 S1000

G0 Z10; move to z-safe height
G0 X7.1500 Y46.4694

G0 Z0
G1 F100 Z0.0000
G1 F1000 X7.1500 Y46.4694 Z-19.5000 S1000
G1 F1000 X7.1500 Y46.4694 Z0.0000 S1000

G0 Z10; move to z-safe height
G0 X7.1500 Y10.7694

G0 Z0
G1 F100 Z0.0000
G1 F1000 X7.1500 Y10.7694 Z-19.5000 S1000
G1 F1000 X7.1500 Y10.7694 Z0.0000 S1000
; retracting back to z-safe
G0 Z10
; Operation 2: CNC: Vector (path outside)
; Endmill Diameter: 6

G0 Z10; move to z-safe height
G0 F1000 X46.2500 Y0.6194

G0 Z0
G1 F100 Z-2.5000
G1 F1000 X3.7500 Y0.6194 Z-2.5000 S1000
G1 F1000 X2.4674 Y0.7324 Z-2.5000 S1000
G1 F1000 X1.7460 Y0.8960 Z-2.5000 S1000
G1 F1000 X0.8167 Y1.2316 Z-2.5000 S1000
G1 F1000 X0.0133 Y1.6702 Z-2.5000 S1000
G1 F1000 X-0.7709 Y2.2699 Z-2.5000 S1000
G1 F1000 X-1.4064 Y2.9328 Z-2.5000 S1000
G1 F1000 X-1.9730 Y3.7424 Z-2.5000 S1000
G1 F1000 X-2.3277 Y4.4188 Z-2.5000 S1000
G1 F1000 X-2.6719 Y5.3464 Z-2.5000 S1000
G1 F1000 X-2.8288 Y5.9635 Z-2.5000 S1000
G1 F1000 X-2.9695 Y6.9428 Z-2.5000 S1000
G1 F1000 X-3.0000 Y7.3694 Z-2.5000 S1000
G1 F1000 X-3.0000 Y49.8694 Z-2.5000 S1000
G1 F1000 X-2.8870 Y51.1520 Z-2.5000 S1000
G1 F1000 X-2.7236 Y51.8730 Z-2.5000 S1000
G1 F1000 X-2.3881 Y52.8024 Z-2.5000 S1000
G1 F1000 X-1.9492 Y53.6064 Z-2.5000 S1000
G1 F1000 X-1.3494 Y54.3906 Z-2.5000 S1000
G1 F1000 X-0.6866 Y55.0259 Z-2.5000 S1000
G1 F1000 X0.1229 Y55.5924 Z-2.5000 S1000
G1 F1000 X0.7991 Y55.9470 Z-2.5000 S1000
G1 F1000 X1.7267 Y56.2913 Z-2.5000 S1000
G1 F1000 X2.3443 Y56.4484 Z-2.5000 S1000
G1 F1000 X3.3237 Y56.5890 Z-2.5000 S1000
G1 F1000 X3.7500 Y56.6194 Z-2.5000 S1000
G1 F1000 X46.2500 Y56.6194 Z-2.5000 S1000
G1 F1000 X46.6763 Y56.5890 Z-2.5000 S1000
G1 F1000 X47.6557 Y56.4484 Z-2.5000 S1000
G1 F1000 X48.2733 Y56.2913 Z-2.5000 S1000
G1 F1000 X49.2009 Y55.9470 Z-2.5000 S1000
G1 F1000 X49.8771 Y55.5924 Z-2.5000 S1000
G1 F1000 X50.6866 Y55.0259 Z-2.5000 S1000
G1 F1000 X51.3494 Y54.3906 Z-2.5000 S1000
G1 F1000 X51.9492 Y53.6064 Z-2.5000 S1000
G1 F1000 X52.3881 Y52.8024 Z-2.5000 S1000
G1 F1000 X52.7236 Y51.8730 Z-2.5000 S1000
G1 F1000 X52.8870 Y51.1520 Z-2.5000 S1000
G1 F1000 X52.9852 Y50.1670 Z-2.5000 S1000
G1 F1000 X53.0000 Y7.3694 Z-2.5000 S1000
G1 F1000 X52.8870 Y6.0869 Z-2.5000 S1000
G1 F1000 X52.7236 Y5.3659 Z-2.5000 S1000
G1 F1000 X52.3881 Y4.4365 Z-2.5000 S1000
G1 F1000 X51.9492 Y3.6325 Z-2.5000 S1000
G1 F1000 X51.3494 Y2.8483 Z-2.5000 S1000
G1 F1000 X50.6866 Y2.2130 Z-2.5000 S1000
G1 F1000 X49.8771 Y1.6465 Z-2.5000 S1000
G1 F1000 X49.2009 Y1.2919 Z-2.5000 S1000
G1 F1000 X48.2733 Y0.9476 Z-2.5000 S1000
G1 F1000 X47.6560 Y0.7906 Z-2.5000 S1000
G1 F1000 X46.6766 Y0.6499 Z-2.5000 S1000
G1 F1000 X46.2500 Y0.6194 Z-2.5000 S1000
G1 F100 Z-5.0000
G1 F1000 X3.7500 Y0.6194 Z-5.0000 S1000
G1 F1000 X2.4674 Y0.7324 Z-5.0000 S1000
G1 F1000 X1.7460 Y0.8960 Z-5.0000 S1000
G1 F1000 X0.8167 Y1.2316 Z-5.0000 S1000
G1 F1000 X0.0133 Y1.6702 Z-5.0000 S1000
G1 F1000 X-0.7709 Y2.2699 Z-5.0000 S1000
G1 F1000 X-1.4064 Y2.9328 Z-5.0000 S1000
G1 F1000 X-1.9730 Y3.7424 Z-5.0000 S1000
G1 F1000 X-2.3277 Y4.4188 Z-5.0000 S1000
G1 F1000 X-2.6719 Y5.3464 Z-5.0000 S1000
G1 F1000 X-2.8288 Y5.9635 Z-5.0000 S1000
G1 F1000 X-2.9695 Y6.9428 Z-5.0000 S1000
G1 F1000 X-3.0000 Y7.3694 Z-5.0000 S1000
G1 F1000 X-3.0000 Y49.8694 Z-5.0000 S1000
G1 F1000 X-2.8870 Y51.1520 Z-5.0000 S1000
G1 F1000 X-2.7236 Y51.8730 Z-5.0000 S1000
G1 F1000 X-2.3881 Y52.8024 Z-5.0000 S1000
G1 F1000 X-1.9492 Y53.6064 Z-5.0000 S1000
G1 F1000 X-1.3494 Y54.3906 Z-5.0000 S1000
G1 F1000 X-0.6866 Y55.0259 Z-5.0000 S1000
G1 F1000 X0.1229 Y55.5924 Z-5.0000 S1000
G1 F1000 X0.7991 Y55.9470 Z-5.0000 S1000
G1 F1000 X1.7267 Y56.2913 Z-5.0000 S1000
G1 F1000 X2.3443 Y56.4484 Z-5.0000 S1000
G1 F1000 X3.3237 Y56.5890 Z-5.0000 S1000
G1 F1000 X3.7500 Y56.6194 Z-5.0000 S1000
G1 F1000 X46.2500 Y56.6194 Z-5.0000 S1000
G1 F1000 X46.6763 Y56.5890 Z-5.0000 S1000
G1 F1000 X47.6557 Y56.4484 Z-5.0000 S1000
G1 F1000 X48.2733 Y56.2913 Z-5.0000 S1000
G1 F1000 X49.2009 Y55.9470 Z-5.0000 S1000
G1 F1000 X49.8771 Y55.5924 Z-5.0000 S1000
G1 F1000 X50.6866 Y55.0259 Z-5.0000 S1000
G1 F1000 X51.3494 Y54.3906 Z-5.0000 S1000
G1 F1000 X51.9492 Y53.6064 Z-5.0000 S1000
G1 F1000 X52.3881 Y52.8024 Z-5.0000 S1000
G1 F1000 X52.7236 Y51.8730 Z-5.0000 S1000
G1 F1000 X52.8870 Y51.1520 Z-5.0000 S1000
G1 F1000 X52.9852 Y50.1670 Z-5.0000 S1000
G1 F1000 X53.0000 Y7.3694 Z-5.0000 S1000
G1 F1000 X52.8870 Y6.0869 Z-5.0000 S1000
G1 F1000 X52.7236 Y5.3659 Z-5.0000 S1000
G1 F1000 X52.3881 Y4.4365 Z-5.0000 S1000
G1 F1000 X51.9492 Y3.6325 Z-5.0000 S1000
G1 F1000 X51.3494 Y2.8483 Z-5.0000 S1000
G1 F1000 X50.6866 Y2.2130 Z-5.0000 S1000
G1 F1000 X49.8771 Y1.6465 Z-5.0000 S1000
G1 F1000 X49.2009 Y1.2919 Z-5.0000 S1000
G1 F1000 X48.2733 Y0.9476 Z-5.0000 S1000
G1 F1000 X47.6560 Y0.7906 Z-5.0000 S1000
G1 F1000 X46.6766 Y0.6499 Z-5.0000 S1000
G1 F1000 X46.2500 Y0.6194 Z-5.0000 S1000
G1 F100 Z-7.5000
G1 F1000 X3.7500 Y0.6194 Z-7.5000 S1000
G1 F1000 X2.4674 Y0.7324 Z-7.5000 S1000
G1 F1000 X1.7460 Y0.8960 Z-7.5000 S1000
G1 F1000 X0.8167 Y1.2316 Z-7.5000 S1000
G1 F1000 X0.0133 Y1.6702 Z-7.5000 S1000
G1 F1000 X-0.7709 Y2.2699 Z-7.5000 S1000
G1 F1000 X-1.4064 Y2.9328 Z-7.5000 S1000
G1 F1000 X-1.9730 Y3.7424 Z-7.5000 S1000
G1 F1000 X-2.3277 Y4.4188 Z-7.5000 S1000
G1 F1000 X-2.6719 Y5.3464 Z-7.5000 S1000
G1 F1000 X-2.8288 Y5.9635 Z-7.5000 S1000
G1 F1000 X-2.9695 Y6.9428 Z-7.5000 S1000
G1 F1000 X-3.0000 Y7.3694 Z-7.5000 S1000
G1 F1000 X-3.0000 Y49.8694 Z-7.5000 S1000
G1 F1000 X-2.8870 Y51.1520 Z-7.5000 S1000
G1 F1000 X-2.7236 Y51.8730 Z-7.5000 S1000
G1 F1000 X-2.3881 Y52.8024 Z-7.5000 S1000
G1 F1000 X-1.9492 Y53.6064 Z-7.5000 S1000
G1 F1000 X-1.3494 Y54.3906 Z-7.5000 S1000
G1 F1000 X-0.6866 Y55.0259 Z-7.5000 S1000
G1 F1000 X0.1229 Y55.5924 Z-7.5000 S1000
G1 F1000 X0.7991 Y55.9470 Z-7.5000 S1000
G1 F1000 X1.7267 Y56.2913 Z-7.5000 S1000
G1 F1000 X2.3443 Y56.4484 Z-7.5000 S1000
G1 F1000 X3.3237 Y56.5890 Z-7.5000 S1000
G1 F1000 X3.7500 Y56.6194 Z-7.5000 S1000
G1 F1000 X46.2500 Y56.6194 Z-7.5000 S1000
G1 F1000 X46.6763 Y56.5890 Z-7.5000 S1000
G1 F1000 X47.6557 Y56.4484 Z-7.5000 S1000
G1 F1000 X48.2733 Y56.2913 Z-7.5000 S1000
G1 F1000 X49.2009 Y55.9470 Z-7.5000 S1000
G1 F1000 X49.8771 Y55.5924 Z-7.5000 S1000
G1 F1000 X50.6866 Y55.0259 Z-7.5000 S1000
G1 F1000 X51.3494 Y54.3906 Z-7.5000 S1000
G1 F1000 X51.9492 Y53.6064 Z-7.5000 S1000
G1 F1000 X52.3881 Y52.8024 Z-7.5000 S1000
G1 F1000 X52.7236 Y51.8730 Z-7.5000 S1000
G1 F1000 X52.8870 Y51.1520 Z-7.5000 S1000
G1 F1000 X52.9852 Y50.1670 Z-7.5000 S1000
G1 F1000 X53.0000 Y7.3694 Z-7.5000 S1000
G1 F1000 X52.8870 Y6.0869 Z-7.5000 S1000
G1 F1000 X52.7236 Y5.3659 Z-7.5000 S1000
G1 F1000 X52.3881 Y4.4365 Z-7.5000 S1000
G1 F1000 X51.9492 Y3.6325 Z-7.5000 S1000
G1 F1000 X51.3494 Y2.8483 Z-7.5000 S1000
G1 F1000 X50.6866 Y2.2130 Z-7.5000 S1000
G1 F1000 X49.8771 Y1.6465 Z-7.5000 S1000
G1 F1000 X49.2009 Y1.2919 Z-7.5000 S1000
G1 F1000 X48.2733 Y0.9476 Z-7.5000 S1000
G1 F1000 X47.6560 Y0.7906 Z-7.5000 S1000
G1 F1000 X46.6766 Y0.6499 Z-7.5000 S1000
G1 F1000 X46.2500 Y0.6194 Z-7.5000 S1000
G1 F100 Z-10.0000
G1 F1000 X3.7500 Y0.6194 Z-10.0000 S1000
G1 F1000 X2.4674 Y0.7324 Z-10.0000 S1000
G1 F1000 X1.7460 Y0.8960 Z-10.0000 S1000
G1 F1000 X0.8167 Y1.2316 Z-10.0000 S1000
G1 F1000 X0.0133 Y1.6702 Z-10.0000 S1000
G1 F1000 X-0.7709 Y2.2699 Z-10.0000 S1000
G1 F1000 X-1.4064 Y2.9328 Z-10.0000 S1000
G1 F1000 X-1.9730 Y3.7424 Z-10.0000 S1000
G1 F1000 X-2.3277 Y4.4188 Z-10.0000 S1000
G1 F1000 X-2.6719 Y5.3464 Z-10.0000 S1000
G1 F1000 X-2.8288 Y5.9635 Z-10.0000 S1000
G1 F1000 X-2.9695 Y6.9428 Z-10.0000 S1000
G1 F1000 X-3.0000 Y7.3694 Z-10.0000 S1000
G1 F1000 X-3.0000 Y49.8694 Z-10.0000 S1000
G1 F1000 X-2.8870 Y51.1520 Z-10.0000 S1000
G1 F1000 X-2.7236 Y51.8730 Z-10.0000 S1000
G1 F1000 X-2.3881 Y52.8024 Z-10.0000 S1000
G1 F1000 X-1.9492 Y53.6064 Z-10.0000 S1000
G1 F1000 X-1.3494 Y54.3906 Z-10.0000 S1000
G1 F1000 X-0.6866 Y55.0259 Z-10.0000 S1000
G1 F1000 X0.1229 Y55.5924 Z-10.0000 S1000
G1 F1000 X0.7991 Y55.9470 Z-10.0000 S1000
G1 F1000 X1.7267 Y56.2913 Z-10.0000 S1000
G1 F1000 X2.3443 Y56.4484 Z-10.0000 S1000
G1 F1000 X3.3237 Y56.5890 Z-10.0000 S1000
G1 F1000 X3.7500 Y56.6194 Z-10.0000 S1000
G1 F1000 X46.2500 Y56.6194 Z-10.0000 S1000
G1 F1000 X46.6763 Y56.5890 Z-10.0000 S1000
G1 F1000 X47.6557 Y56.4484 Z-10.0000 S1000
G1 F1000 X48.2733 Y56.2913 Z-10.0000 S1000
G1 F1000 X49.2009 Y55.9470 Z-10.0000 S1000
G1 F1000 X49.8771 Y55.5924 Z-10.0000 S1000
G1 F1000 X50.6866 Y55.0259 Z-10.0000 S1000
G1 F1000 X51.3494 Y54.3906 Z-10.0000 S1000
G1 F1000 X51.9492 Y53.6064 Z-10.0000 S1000
G1 F1000 X52.3881 Y52.8024 Z-10.0000 S1000
G1 F1000 X52.7236 Y51.8730 Z-10.0000 S1000
G1 F1000 X52.8870 Y51.1520 Z-10.0000 S1000
G1 F1000 X52.9852 Y50.1670 Z-10.0000 S1000
G1 F1000 X53.0000 Y7.3694 Z-10.0000 S1000
G1 F1000 X52.8870 Y6.0869 Z-10.0000 S1000
G1 F1000 X52.7236 Y5.3659 Z-10.0000 S1000
G1 F1000 X52.3881 Y4.4365 Z-10.0000 S1000
G1 F1000 X51.9492 Y3.6325 Z-10.0000 S1000
G1 F1000 X51.3494 Y2.8483 Z-10.0000 S1000
G1 F1000 X50.6866 Y2.2130 Z-10.0000 S1000
G1 F1000 X49.8771 Y1.6465 Z-10.0000 S1000
G1 F1000 X49.2009 Y1.2919 Z-10.0000 S1000
G1 F1000 X48.2733 Y0.9476 Z-10.0000 S1000
G1 F1000 X47.6560 Y0.7906 Z-10.0000 S1000
G1 F1000 X46.6766 Y0.6499 Z-10.0000 S1000
G1 F1000 X46.2500 Y0.6194 Z-10.0000 S1000
G1 F100 Z-12.5000
G1 F1000 X3.7500 Y0.6194 Z-12.5000 S1000
G1 F1000 X2.4674 Y0.7324 Z-12.5000 S1000
G1 F1000 X1.7460 Y0.8960 Z-12.5000 S1000
G1 F1000 X0.8167 Y1.2316 Z-12.5000 S1000
G1 F1000 X0.0133 Y1.6702 Z-12.5000 S1000
G1 F1000 X-0.7709 Y2.2699 Z-12.5000 S1000
G1 F1000 X-1.4064 Y2.9328 Z-12.5000 S1000
G1 F1000 X-1.9730 Y3.7424 Z-12.5000 S1000
G1 F1000 X-2.3277 Y4.4188 Z-12.5000 S1000
G1 F1000 X-2.6719 Y5.3464 Z-12.5000 S1000
G1 F1000 X-2.8288 Y5.9635 Z-12.5000 S1000
G1 F1000 X-2.9695 Y6.9428 Z-12.5000 S1000
G1 F1000 X-3.0000 Y7.3694 Z-12.5000 S1000
G1 F1000 X-3.0000 Y49.8694 Z-12.5000 S1000
G1 F1000 X-2.8870 Y51.1520 Z-12.5000 S1000
G1 F1000 X-2.7236 Y51.8730 Z-12.5000 S1000
G1 F1000 X-2.3881 Y52.8024 Z-12.5000 S1000
G1 F1000 X-1.9492 Y53.6064 Z-12.5000 S1000
G1 F1000 X-1.3494 Y54.3906 Z-12.5000 S1000
G1 F1000 X-0.6866 Y55.0259 Z-12.5000 S1000
G1 F1000 X0.1229 Y55.5924 Z-12.5000 S1000
G1 F1000 X0.7991 Y55.9470 Z-12.5000 S1000
G1 F1000 X1.7267 Y56.2913 Z-12.5000 S1000
G1 F1000 X2.3443 Y56.4484 Z-12.5000 S1000
G1 F1000 X3.3237 Y56.5890 Z-12.5000 S1000
G1 F1000 X3.7500 Y56.6194 Z-12.5000 S1000
G1 F1000 X46.2500 Y56.6194 Z-12.5000 S1000
G1 F1000 X46.6763 Y56.5890 Z-12.5000 S1000
G1 F1000 X47.6557 Y56.4484 Z-12.5000 S1000
G1 F1000 X48.2733 Y56.2913 Z-12.5000 S1000
G1 F1000 X49.2009 Y55.9470 Z-12.5000 S1000
G1 F1000 X49.8771 Y55.5924 Z-12.5000 S1000
G1 F1000 X50.6866 Y55.0259 Z-12.5000 S1000
G1 F1000 X51.3494 Y54.3906 Z-12.5000 S1000
G1 F1000 X51.9492 Y53.6064 Z-12.5000 S1000
G1 F1000 X52.3881 Y52.8024 Z-12.5000 S1000
G1 F1000 X52.7236 Y51.8730 Z-12.5000 S1000
G1 F1000 X52.8870 Y51.1520 Z-12.5000 S1000
G1 F1000 X52.9852 Y50.1670 Z-12.5000 S1000
G1 F1000 X53.0000 Y7.3694 Z-12.5000 S1000
G1 F1000 X52.8870 Y6.0869 Z-12.5000 S1000
G1 F1000 X52.7236 Y5.3659 Z-12.5000 S1000
G1 F1000 X52.3881 Y4.4365 Z-12.5000 S1000
G1 F1000 X51.9492 Y3.6325 Z-12.5000 S1000
G1 F1000 X51.3494 Y2.8483 Z-12.5000 S1000
G1 F1000 X50.6866 Y2.2130 Z-12.5000 S1000
G1 F1000 X49.8771 Y1.6465 Z-12.5000 S1000
G1 F1000 X49.2009 Y1.2919 Z-12.5000 S1000
G1 F1000 X48.2733 Y0.9476 Z-12.5000 S1000
G1 F1000 X47.6560 Y0.7906 Z-12.5000 S1000
G1 F1000 X46.6766 Y0.6499 Z-12.5000 S1000
G1 F1000 X46.2500 Y0.6194 Z-12.5000 S1000
G1 F100 Z-15.0000
G1 F1000 X30.5000 Y0.6194 Z-15.0000 S1000
G1 F1000 X30.5000 Y0.6194 Z-14.0000 S1000
G1 F1000 X19.5000 Y0.6194 Z-14.0000 S1000
G1 F1000 X19.5000 Y0.6194 Z-15.0000 S1000
G1 F1000 X3.7500 Y0.6194 Z-15.0000 S1000
G1 F1000 X3.7500 Y0.6194 Z-15.0000 S1000
G1 F1000 X2.4674 Y0.7324 Z-15.0000 S1000
G1 F1000 X1.7460 Y0.8960 Z-15.0000 S1000
G1 F1000 X0.8167 Y1.2316 Z-15.0000 S1000
G1 F1000 X0.0133 Y1.6702 Z-15.0000 S1000
G1 F1000 X-0.7709 Y2.2699 Z-15.0000 S1000
G1 F1000 X-1.4064 Y2.9328 Z-15.0000 S1000
G1 F1000 X-1.9730 Y3.7424 Z-15.0000 S1000
G1 F1000 X-2.3277 Y4.4188 Z-15.0000 S1000
G1 F1000 X-2.6719 Y5.3464 Z-15.0000 S1000
G1 F1000 X-2.8288 Y5.9635 Z-15.0000 S1000
G1 F1000 X-2.9695 Y6.9428 Z-15.0000 S1000
G1 F1000 X-3.0000 Y7.3694 Z-15.0000 S1000
G1 F1000 X-3.0000 Y23.1194 Z-15.0000 S1000
G1 F1000 X-3.0000 Y23.1194 Z-14.0000 S1000
G1 F1000 X-3.0000 Y34.1194 Z-14.0000 S1000
G1 F1000 X-3.0000 Y34.1194 Z-15.0000 S1000
G1 F1000 X-3.0000 Y49.8694 Z-15.0000 S1000
G1 F1000 X-3.0000 Y49.8694 Z-15.0000 S1000
G1 F1000 X-2.8870 Y51.1520 Z-15.0000 S1000
G1 F1000 X-2.7236 Y51.8730 Z-15.0000 S1000
G1 F1000 X-2.3881 Y52.8024 Z-15.0000 S1000
G1 F1000 X-1.9492 Y53.6064 Z-15.0000 S1000
G1 F1000 X-1.3494 Y54.3906 Z-15.0000 S1000
G1 F1000 X-0.6866 Y55.0259 Z-15.0000 S1000
G1 F1000 X0.1229 Y55.5924 Z-15.0000 S1000
G1 F1000 X0.7991 Y55.9470 Z-15.0000 S1000
G1 F1000 X1.7267 Y56.2913 Z-15.0000 S1000
G1 F1000 X2.3443 Y56.4484 Z-15.0000 S1000
G1 F1000 X3.3237 Y56.5890 Z-15.0000 S1000
G1 F1000 X3.7500 Y56.6194 Z-15.0000 S1000
G1 F1000 X19.5000 Y56.6194 Z-15.0000 S1000
G1 F1000 X19.5000 Y56.6194 Z-14.0000 S1000
G1 F1000 X30.5000 Y56.6194 Z-14.0000 S1000
G1 F1000 X30.5000 Y56.6194 Z-15.0000 S1000
G1 F1000 X46.2500 Y56.6194 Z-15.0000 S1000
G1 F1000 X46.2500 Y56.6194 Z-15.0000 S1000
G1 F1000 X46.6763 Y56.5890 Z-15.0000 S1000
G1 F1000 X47.6557 Y56.4484 Z-15.0000 S1000
G1 F1000 X48.2733 Y56.2913 Z-15.0000 S1000
G1 F1000 X49.2009 Y55.9470 Z-15.0000 S1000
G1 F1000 X49.8771 Y55.5924 Z-15.0000 S1000
G1 F1000 X50.6866 Y55.0259 Z-15.0000 S1000
G1 F1000 X51.3494 Y54.3906 Z-15.0000 S1000
G1 F1000 X51.9492 Y53.6064 Z-15.0000 S1000
G1 F1000 X52.3881 Y52.8024 Z-15.0000 S1000
G1 F1000 X52.7236 Y51.8730 Z-15.0000 S1000
G1 F1000 X52.8870 Y51.1520 Z-15.0000 S1000
G1 F1000 X52.9852 Y50.1670 Z-15.0000 S1000
G1 F1000 X52.9907 Y34.2682 Z-15.0000 S1000
G1 F1000 X52.9907 Y34.2682 Z-14.0000 S1000
G1 F1000 X52.9945 Y23.2682 Z-14.0000 S1000
G1 F1000 X52.9945 Y23.2682 Z-15.0000 S1000
G1 F1000 X53.0000 Y7.3694 Z-15.0000 S1000
G1 F1000 X53.0000 Y7.3694 Z-15.0000 S1000
G1 F1000 X52.8870 Y6.0869 Z-15.0000 S1000
G1 F1000 X52.7236 Y5.3659 Z-15.0000 S1000
G1 F1000 X52.3881 Y4.4365 Z-15.0000 S1000
G1 F1000 X51.9492 Y3.6325 Z-15.0000 S1000
G1 F1000 X51.3494 Y2.8483 Z-15.0000 S1000
G1 F1000 X50.6866 Y2.2130 Z-15.0000 S1000
G1 F1000 X49.8771 Y1.6465 Z-15.0000 S1000
G1 F1000 X49.2009 Y1.2919 Z-15.0000 S1000
G1 F1000 X48.2733 Y0.9476 Z-15.0000 S1000
G1 F1000 X47.6560 Y0.7906 Z-15.0000 S1000
G1 F1000 X46.6766 Y0.6499 Z-15.0000 S1000
G1 F1000 X46.2500 Y0.6194 Z-15.0000 S1000
G1 F100 Z-17.5000
G1 F1000 X30.5000 Y0.6194 Z-17.5000 S1000
G1 F1000 X30.5000 Y0.6194 Z-14.0000 S1000
G1 F1000 X19.5000 Y0.6194 Z-14.0000 S1000
G1 F1000 X19.5000 Y0.6194 Z-17.5000 S1000
G1 F1000 X3.7500 Y0.6194 Z-17.5000 S1000
G1 F1000 X3.7500 Y0.6194 Z-17.5000 S1000
G1 F1000 X2.4674 Y0.7324 Z-17.5000 S1000
G1 F1000 X1.7460 Y0.8960 Z-17.5000 S1000
G1 F1000 X0.8167 Y1.2316 Z-17.5000 S1000
G1 F1000 X0.0133 Y1.6702 Z-17.5000 S1000
G1 F1000 X-0.7709 Y2.2699 Z-17.5000 S1000
G1 F1000 X-1.4064 Y2.9328 Z-17.5000 S1000
G1 F1000 X-1.9730 Y3.7424 Z-17.5000 S1000
G1 F1000 X-2.3277 Y4.4188 Z-17.5000 S1000
G1 F1000 X-2.6719 Y5.3464 Z-17.5000 S1000
G1 F1000 X-2.8288 Y5.9635 Z-17.5000 S1000
G1 F1000 X-2.9695 Y6.9428 Z-17.5000 S1000
G1 F1000 X-3.0000 Y7.3694 Z-17.5000 S1000
G1 F1000 X-3.0000 Y23.1194 Z-17.5000 S1000
G1 F1000 X-3.0000 Y23.1194 Z-14.0000 S1000
G1 F1000 X-3.0000 Y34.1194 Z-14.0000 S1000
G1 F1000 X-3.0000 Y34.1194 Z-17.5000 S1000
G1 F1000 X-3.0000 Y49.8694 Z-17.5000 S1000
G1 F1000 X-3.0000 Y49.8694 Z-17.5000 S1000
G1 F1000 X-2.8870 Y51.1520 Z-17.5000 S1000
G1 F1000 X-2.7236 Y51.8730 Z-17.5000 S1000
G1 F1000 X-2.3881 Y52.8024 Z-17.5000 S1000
G1 F1000 X-1.9492 Y53.6064 Z-17.5000 S1000
G1 F1000 X-1.3494 Y54.3906 Z-17.5000 S1000
G1 F1000 X-0.6866 Y55.0259 Z-17.5000 S1000
G1 F1000 X0.1229 Y55.5924 Z-17.5000 S1000
G1 F1000 X0.7991 Y55.9470 Z-17.5000 S1000
G1 F1000 X1.7267 Y56.2913 Z-17.5000 S1000
G1 F1000 X2.3443 Y56.4484 Z-17.5000 S1000
G1 F1000 X3.3237 Y56.5890 Z-17.5000 S1000
G1 F1000 X3.7500 Y56.6194 Z-17.5000 S1000
G1 F1000 X19.5000 Y56.6194 Z-17.5000 S1000
G1 F1000 X19.5000 Y56.6194 Z-14.0000 S1000
G1 F1000 X30.5000 Y56.6194 Z-14.0000 S1000
G1 F1000 X30.5000 Y56.6194 Z-17.5000 S1000
G1 F1000 X46.2500 Y56.6194 Z-17.5000 S1000
G1 F1000 X46.2500 Y56.6194 Z-17.5000 S1000
G1 F1000 X46.6763 Y56.5890 Z-17.5000 S1000
G1 F1000 X47.6557 Y56.4484 Z-17.5000 S1000
G1 F1000 X48.2733 Y56.2913 Z-17.5000 S1000
G1 F1000 X49.2009 Y55.9470 Z-17.5000 S1000
G1 F1000 X49.8771 Y55.5924 Z-17.5000 S1000
G1 F1000 X50.6866 Y55.0259 Z-17.5000 S1000
G1 F1000 X51.3494 Y54.3906 Z-17.5000 S1000
G1 F1000 X51.9492 Y53.6064 Z-17.5000 S1000
G1 F1000 X52.3881 Y52.8024 Z-17.5000 S1000
G1 F1000 X52.7236 Y51.8730 Z-17.5000 S1000
G1 F1000 X52.8870 Y51.1520 Z-17.5000 S1000
G1 F1000 X52.9852 Y50.1670 Z-17.5000 S1000
G1 F1000 X52.9907 Y34.2682 Z-17.5000 S1000
G1 F1000 X52.9907 Y34.2682 Z-14.0000 S1000
G1 F1000 X52.9945 Y23.2682 Z-14.0000 S1000
G1 F1000 X52.9945 Y23.2682 Z-17.5000 S1000
G1 F1000 X53.0000 Y7.3694 Z-17.5000 S1000
G1 F1000 X53.0000 Y7.3694 Z-17.5000 S1000
G1 F1000 X52.8870 Y6.0869 Z-17.5000 S1000
G1 F1000 X52.7236 Y5.3659 Z-17.5000 S1000
G1 F1000 X52.3881 Y4.4365 Z-17.5000 S1000
G1 F1000 X51.9492 Y3.6325 Z-17.5000 S1000
G1 F1000 X51.3494 Y2.8483 Z-17.5000 S1000
G1 F1000 X50.6866 Y2.2130 Z-17.5000 S1000
G1 F1000 X49.8771 Y1.6465 Z-17.5000 S1000
G1 F1000 X49.2009 Y1.2919 Z-17.5000 S1000
G1 F1000 X48.2733 Y0.9476 Z-17.5000 S1000
G1 F1000 X47.6560 Y0.7906 Z-17.5000 S1000
G1 F1000 X46.6766 Y0.6499 Z-17.5000 S1000
G1 F1000 X46.2500 Y0.6194 Z-17.5000 S1000
G1 F100 Z-19.0000
G1 F1000 X30.5000 Y0.6194 Z-19.0000 S1000
G1 F1000 X30.5000 Y0.6194 Z-14.0000 S1000
G1 F1000 X19.5000 Y0.6194 Z-14.0000 S1000
G1 F1000 X19.5000 Y0.6194 Z-19.0000 S1000
G1 F1000 X3.7500 Y0.6194 Z-19.0000 S1000
G1 F1000 X3.7500 Y0.6194 Z-19.0000 S1000
G1 F1000 X2.4674 Y0.7324 Z-19.0000 S1000
G1 F1000 X1.7460 Y0.8960 Z-19.0000 S1000
G1 F1000 X0.8167 Y1.2316 Z-19.0000 S1000
G1 F1000 X0.0133 Y1.6702 Z-19.0000 S1000
G1 F1000 X-0.7709 Y2.2699 Z-19.0000 S1000
G1 F1000 X-1.4064 Y2.9328 Z-19.0000 S1000
G1 F1000 X-1.9730 Y3.7424 Z-19.0000 S1000
G1 F1000 X-2.3277 Y4.4188 Z-19.0000 S1000
G1 F1000 X-2.6719 Y5.3464 Z-19.0000 S1000
G1 F1000 X-2.8288 Y5.9635 Z-19.0000 S1000
G1 F1000 X-2.9695 Y6.9428 Z-19.0000 S1000
G1 F1000 X-3.0000 Y7.3694 Z-19.0000 S1000
G1 F1000 X-3.0000 Y23.1194 Z-19.0000 S1000
G1 F1000 X-3.0000 Y23.1194 Z-14.0000 S1000
G1 F1000 X-3.0000 Y34.1194 Z-14.0000 S1000
G1 F1000 X-3.0000 Y34.1194 Z-19.0000 S1000
G1 F1000 X-3.0000 Y49.8694 Z-19.0000 S1000
G1 F1000 X-3.0000 Y49.8694 Z-19.0000 S1000
G1 F1000 X-2.8870 Y51.1520 Z-19.0000 S1000
G1 F1000 X-2.7236 Y51.8730 Z-19.0000 S1000
G1 F1000 X-2.3881 Y52.8024 Z-19.0000 S1000
G1 F1000 X-1.9492 Y53.6064 Z-19.0000 S1000
G1 F1000 X-1.3494 Y54.3906 Z-19.0000 S1000
G1 F1000 X-0.6866 Y55.0259 Z-19.0000 S1000
G1 F1000 X0.1229 Y55.5924 Z-19.0000 S1000
G1 F1000 X0.7991 Y55.9470 Z-19.0000 S1000
G1 F1000 X1.7267 Y56.2913 Z-19.0000 S1000
G1 F1000 X2.3443 Y56.4484 Z-19.0000 S1000
G1 F1000 X3.3237 Y56.5890 Z-19.0000 S1000
G1 F1000 X3.7500 Y56.6194 Z-19.0000 S1000
G1 F1000 X19.5000 Y56.6194 Z-19.0000 S1000
G1 F1000 X19.5000 Y56.6194 Z-14.0000 S1000
G1 F1000 X30.5000 Y56.6194 Z-14.0000 S1000
G1 F1000 X30.5000 Y56.6194 Z-19.0000 S1000
G1 F1000 X46.2500 Y56.6194 Z-19.0000 S1000
G1 F1000 X46.2500 Y56.6194 Z-19.0000 S1000
G1 F1000 X46.6763 Y56.5890 Z-19.0000 S1000
G1 F1000 X47.6557 Y56.4484 Z-19.0000 S1000
G1 F1000 X48.2733 Y56.2913 Z-19.0000 S1000
G1 F1000 X49.2009 Y55.9470 Z-19.0000 S1000
G1 F1000 X49.8771 Y55.5924 Z-19.0000 S1000
G1 F1000 X50.6866 Y55.0259 Z-19.0000 S1000
G1 F1000 X51.3494 Y54.3906 Z-19.0000 S1000
G1 F1000 X51.9492 Y53.6064 Z-19.0000 S1000
G1 F1000 X52.3881 Y52.8024 Z-19.0000 S1000
G1 F1000 X52.7236 Y51.8730 Z-19.0000 S1000
G1 F1000 X52.8870 Y51.1520 Z-19.0000 S1000
G1 F1000 X52.9852 Y50.1670 Z-19.0000 S1000
G1 F1000 X52.9907 Y34.2682 Z-19.0000 S1000
G1 F1000 X52.9907 Y34.2682 Z-14.0000 S1000
G1 F1000 X52.9945 Y23.2682 Z-14.0000 S1000
G1 F1000 X52.9945 Y23.2682 Z-19.0000 S1000
G1 F1000 X53.0000 Y7.3694 Z-19.0000 S1000
G1 F1000 X53.0000 Y7.3694 Z-19.0000 S1000
G1 F1000 X52.8870 Y6.0869 Z-19.0000 S1000
G1 F1000 X52.7236 Y5.3659 Z-19.0000 S1000
G1 F1000 X52.3881 Y4.4365 Z-19.0000 S1000
G1 F1000 X51.9492 Y3.6325 Z-19.0000 S1000
G1 F1000 X51.3494 Y2.8483 Z-19.0000 S1000
G1 F1000 X50.6866 Y2.2130 Z-19.0000 S1000
G1 F1000 X49.8771 Y1.6465 Z-19.0000 S1000
G1 F1000 X49.2009 Y1.2919 Z-19.0000 S1000
G1 F1000 X48.2733 Y0.9476 Z-19.0000 S1000
G1 F1000 X47.6560 Y0.7906 Z-19.0000 S1000
G1 F1000 X46.6766 Y0.6499 Z-19.0000 S1000
G1 F1000 X46.2500 Y0.6194 Z-19.0000 S1000
; retracting back to z-safe
G0 Z10

M5 S0; Spindle Off
